,fill,run,ls,nb,sec,msec,acqflag,step,beam,ip,scanstatus,plane,progress,nominal_separation,read_nominal_B1sepPlane,read_nominal_B1xingPlane,read_nominal_B2sepPlane,read_nominal_B2xingPlane,set_nominal_B1sepPlane,set_nominal_B1xingPlane,set_nominal_B2sepPlane,set_nominal_B2xingPlane,atlas_totInst,nominal_separation_plane,bpm_5LDOROS_B1Names,bpm_5LDOROS_B1hPos,bpm_5LDOROS_B1vPos,bpm_5LDOROS_B1hErr,bpm_5LDOROS_B1vErr,bpm_5RDOROS_B1Names,bpm_5RDOROS_B1hPos,bpm_5RDOROS_B1vPos,bpm_5RDOROS_B1hErr,bpm_5RDOROS_B1vErr,bpm_5LDOROS_B2Names,bpm_5LDOROS_B2hPos,bpm_5LDOROS_B2vPos,bpm_5LDOROS_B2hErr,bpm_5LDOROS_B2vErr,bpm_5RDOROS_B2Names,bpm_5RDOROS_B2hPos,bpm_5RDOROS_B2vPos,bpm_5RDOROS_B2hErr,bpm_5RDOROS_B2vErr,totsize,publishnnb,datasourceid,algoid,channelid,payloadtype,bstar5,xingHmurad
0,6843,318622,93,40,1529955372,128,1,1,3,32,ACQUIRING,MIXED,10,-0.043092045933,-0.00314571708441,0.0549375377595,0.00314571708441,-0.0549375377595,0.0,-0.0215460229665,-0.0,0.0215460229665,0,CROSSING,LHC.BPM.1L5.B1_D,-3058.40576172,-1432.61621094,1238.98181152,537.347229004,LHC.BPM.1R5.B1_D,3665.82446289,-1982.71862793,1473.07592773,708.481140137,LHC.BPM.1L5.B2_D,4126.29638672,-1564.04370117,1616.09008789,593.008605957,LHC.BPM.1R5.B2_D,-3760.21899414,-1943.97253418,1449.48364258,721.225402832,266,4,2,0,0,11,30,160
1,6843,318622,93,44,1529955373,581,1,1,3,32,ACQUIRING,MIXED,8,-0.043092045933,-0.00314571708441,0.0549375377595,0.00314571708441,-0.0549375377595,0.0,-0.0215460229665,-0.0,0.0215460229665,0,CROSSING,LHC.BPM.1L5.B1_D,-3057.97241211,-1431.99243164,1169.08813477,590.662658691,LHC.BPM.1R5.B1_D,3665.38476562,-1983.22814941,1406.07434082,849.597229004,LHC.BPM.1L5.B2_D,4125.79492188,-1564.25549316,1633.06542969,639.188781738,LHC.BPM.1R5.B2_D,-3759.64379883,-1943.69848633,1502.59838867,806.6015625,266,4,2,0,0,11,30,160
2,6843,318622,93,48,1529955375,11,1,1,3,32,ACQUIRING,MIXED,7,-0.043092045933,-0.00314571708441,0.0549375377595,0.00314571708441,-0.0549375377595,0.0,-0.0215460229665,-0.0,0.0215460229665,0,CROSSING,LHC.BPM.1L5.B1_D,-3058.53930664,-1432.16015625,1239.42944336,537.478820801,LHC.BPM.1R5.B1_D,3666.03588867,-1983.21643066,1473.58874512,708.470031738,LHC.BPM.1L5.B2_D,4124.96337891,-1563.91772461,1615.43371582,592.743286133,LHC.BPM.1R5.B2_D,-3758.80810547,-1944.17285156,1448.82653809,721.598937988,266,4,2,0,0,11,30,160
3,6843,318622,93,52,1529955376,540,1,1,3,32,ACQUIRING,MIXED,5,-0.043092045933,-0.00314571708441,0.0549375377595,0.00314571708441,-0.0549375377595,0.0,-0.0215460229665,-0.0,0.0215460229665,0,CROSSING,LHC.BPM.1L5.B1_D,-3058.59912109,-1431.56958008,1239.3527832,537.118591309,LHC.BPM.1R5.B1_D,3665.93261719,-1983.60827637,1473.4765625,708.721862793,LHC.BPM.1L5.B2_D,4124.18408203,-1564.08850098,1615.26281738,592.775146484,LHC.BPM.1R5.B2_D,-3758.03686523,-1943.86547852,1448.65258789,721.590698242,266,4,2,0,0,11,30,160
4,6843,318622,93,56,1529955377,988,1,1,3,32,ACQUIRING,MIXED,4,-0.043092045933,-0.00314571708441,0.0549375377595,0.00314571708441,-0.0549375377595,0.0,-0.0215460229665,-0.0,0.0215460229665,0,CROSSING,LHC.BPM.1L5.B1_D,-3058.79614258,-1431.83605957,1169.36572266,590.76965332,LHC.BPM.1R5.B1_D,3666.11254883,-1983.34460449,1406.24658203,849.450683594,LHC.BPM.1L5.B2_D,4124.10498047,-1563.54162598,1632.56176758,638.860595703,LHC.BPM.1R5.B2_D,-3757.81567383,-1944.33422852,1501.99645996,806.738037109,266,4,2,0,0,11,30,160
5,6843,318622,93,60,1529955379,404,1,1,3,32,ACQUIRING,MIXED,2,-0.043092045933,-0.00314571708441,0.0549375377595,0.00314571708441,-0.0549375377595,0.0,-0.0215460229665,-0.0,0.0215460229665,0,CROSSING,LHC.BPM.1L5.B1_D,-3058.81176758,-1432.01525879,1169.50256348,590.530029297,LHC.BPM.1R5.B1_D,3666.15283203,-1983.21789551,1406.4107666,849.68145752,LHC.BPM.1L5.B2_D,4124.84814453,-1563.6373291,1633.19384766,639.113098145,LHC.BPM.1R5.B2_D,-3758.61645508,-1944.33459473,1502.58129883,806.573303223,266,4,2,0,0,11,30,160
6,6843,318622,93,64,1529955380,825,1,1,3,32,ACQUIRING,MIXED,1,-0.043092045933,-0.00314571708441,0.0549375377595,0.00314571708441,-0.0549375377595,0.0,-0.0215460229665,-0.0,0.0215460229665,0,CROSSING,LHC.BPM.1L5.B1_D,-3059.40087891,-1432.5012207,1239.69995117,537.890625,LHC.BPM.1R5.B1_D,3666.61914062,-1982.85681152,1473.71789551,708.110900879,LHC.BPM.1L5.B2_D,4124.80957031,-1563.18554688,1615.19775391,592.260070801,LHC.BPM.1R5.B2_D,-3758.6328125,-1944.75512695,1448.71569824,722.099975586,266,4,2,0,0,11,30,160
7,6843,318622,94,20,1529955388,147,1,3,3,32,ACQUIRING,MIXED,10,-0.0323190353811,-0.00314571708441,0.0603240430355,0.00314571708441,-0.0603240430355,0.0,-0.0161595176905,-0.0,0.0161595176905,0,CROSSING,LHC.BPM.1L5.B1_D,-3055.32714844,-1432.73913574,1238.26818848,537.517578125,LHC.BPM.1R5.B1_D,3671.33959961,-1982.38989258,1475.59558105,708.355895996,LHC.BPM.1L5.B2_D,4114.61865234,-1561.734375,1611.52966309,592.348937988,LHC.BPM.1R5.B2_D,-3757.15380859,-1946.39099121,1448.44360352,722.055358887,266,4,2,0,0,11,30,160
8,6843,318622,94,24,1529955389,662,1,3,3,32,ACQUIRING,MIXED,8,-0.0323190353811,-0.00314571708441,0.0603240430355,0.00314571708441,-0.0603240430355,0.0,-0.0161595176905,-0.0,0.0161595176905,0,CROSSING,LHC.BPM.1L5.B1_D,-3055.74169922,-1432.47741699,1168.05517578,590.881408691,LHC.BPM.1R5.B1_D,3671.75024414,-1982.69506836,1408.5625,849.315979004,LHC.BPM.1L5.B2_D,4114.33056641,-1562.0369873,1628.62792969,638.098205566,LHC.BPM.1R5.B2_D,-3756.79541016,-1946.16247559,1501.41552734,807.710876465,266,4,2,0,0,11,30,160
9,6843,318622,94,28,1529955391,88,1,3,3,32,ACQUIRING,MIXED,7,-0.0323190353811,-0.00314571708441,0.0603240430355,0.00314571708441,-0.0603240430355,0.0,-0.0161595176905,-0.0,0.0161595176905,0,CROSSING,LHC.BPM.1L5.B1_D,-3056.33984375,-1432.81164551,1168.29650879,591.182495117,LHC.BPM.1R5.B1_D,3672.26367188,-1982.3470459,1408.70092773,849.030090332,LHC.BPM.1L5.B2_D,4114.56054688,-1561.51501465,1628.91906738,637.839599609,LHC.BPM.1R5.B2_D,-3757.00927734,-1946.73425293,1501.76599121,808.138977051,266,4,2,0,0,11,30,160
10,6843,318622,94,32,1529955392,502,1,3,3,32,ACQUIRING,MIXED,5,-0.0323190353811,-0.00314571708441,0.0603240430355,0.00314571708441,-0.0603240430355,0.0,-0.0161595176905,-0.0,0.0161595176905,0,CROSSING,LHC.BPM.1L5.B1_D,-3056.11254883,-1433.00219727,1238.32458496,537.634338379,LHC.BPM.1R5.B1_D,3672.08349609,-1982.29589844,1475.72692871,708.330993652,LHC.BPM.1L5.B2_D,4115.17773438,-1561.47631836,1611.91040039,592.162963867,LHC.BPM.1R5.B2_D,-3757.53857422,-1946.64929199,1448.68103027,722.007446289,266,4,2,0,0,11,30,160
11,6843,318622,94,36,1529955394,20,1,3,3,32,ACQUIRING,MIXED,4,-0.0323190353811,-0.00314571708441,0.0603240430355,0.00314571708441,-0.0603240430355,0.0,-0.0161595176905,-0.0,0.0161595176905,0,CROSSING,LHC.BPM.1L5.B1_D,-3055.68310547,-1432.57336426,1167.95361328,590.846191406,LHC.BPM.1R5.B1_D,3671.61816406,-1982.6418457,1408.33251953,849.30267334,LHC.BPM.1L5.B2_D,4114.96972656,-1561.55834961,1628.75878906,637.905517578,LHC.BPM.1R5.B2_D,-3757.43481445,-1946.4420166,1501.68859863,807.980285645,266,4,2,0,0,11,30,160
12,6843,318622,94,40,1529955395,442,1,3,3,32,ACQUIRING,MIXED,2,-0.0323190353811,-0.00314571708441,0.0603240430355,0.00314571708441,-0.0603240430355,0.0,-0.0161595176905,-0.0,0.0161595176905,0,CROSSING,LHC.BPM.1L5.B1_D,-3055.85327148,-1431.8515625,1168.07324219,590.662109375,LHC.BPM.1R5.B1_D,3671.81079102,-1983.16918945,1408.50463867,849.462768555,LHC.BPM.1L5.B2_D,4114.89501953,-1561.61486816,1629.03820801,637.98425293,LHC.BPM.1R5.B2_D,-3757.40942383,-1946.23425293,1501.94873047,807.747436523,266,4,2,0,0,11,30,160
13,6843,318622,94,44,1529955396,857,1,3,3,32,ACQUIRING,MIXED,1,-0.0323190353811,-0.00314571708441,0.0603240430355,0.00314571708441,-0.0603240430355,0.0,-0.0161595176905,-0.0,0.0161595176905,0,CROSSING,LHC.BPM.1L5.B1_D,-3056.1550293,-1431.8861084,1238.57666016,537.273498535,LHC.BPM.1R5.B1_D,3671.99121094,-1983.26586914,1475.85107422,708.660339355,LHC.BPM.1L5.B2_D,4114.93164062,-1561.48388672,1611.60754395,592.030334473,LHC.BPM.1R5.B2_D,-3757.33984375,-1946.5859375,1448.3536377,722.356567383,266,4,2,0,0,11,30,160
14,6843,318622,94,64,1529955404,218,1,5,3,32,ACQUIRING,MIXED,9,-0.0215460229665,-0.00314571708441,0.0657105520368,0.00314571708441,-0.0657105520368,0.0,-0.0107730114833,-0.0,0.0107730114833,0,CROSSING,LHC.BPM.1L5.B1_D,-3053.75708008,-1432.67272949,1237.36132812,537.771484375,LHC.BPM.1R5.B1_D,3681.32226562,-1982.22106934,1479.37573242,708.298522949,LHC.BPM.1L5.B2_D,4106.55712891,-1560.65576172,1608.41137695,591.294677734,LHC.BPM.1R5.B2_D,-3760.63476562,-1947.62390137,1449.67529297,723.159240723,266,4,2,0,0,11,30,160
15,6843,318622,95,4,1529955405,636,1,5,3,32,ACQUIRING,MIXED,8,-0.0215460229665,-0.00314571708441,0.0657105520368,0.00314571708441,-0.0657105520368,0.0,-0.0107730114833,-0.0,0.0107730114833,0,CROSSING,LHC.BPM.1L5.B1_D,-3053.21582031,-1432.42565918,1166.98425293,590.601257324,LHC.BPM.1R5.B1_D,3680.72631836,-1982.49035645,1411.85058594,849.229675293,LHC.BPM.1L5.B2_D,4106.12646484,-1560.78735352,1625.31274414,638.174926758,LHC.BPM.1R5.B2_D,-3760.13623047,-1947.46411133,1502.82800293,807.642089844,266,4,2,0,0,11,30,160
16,6843,318622,95,8,1529955407,47,1,5,3,32,ACQUIRING,MIXED,7,-0.0215460229665,-0.00314571708441,0.0657105520368,0.00314571708441,-0.0657105520368,0.0,-0.0107730114833,-0.0,0.0107730114833,0,CROSSING,LHC.BPM.1L5.B1_D,-3052.74829102,-1432.25109863,1236.99841309,537.635009766,LHC.BPM.1R5.B1_D,3680.21459961,-1982.60302734,1478.97631836,708.388977051,LHC.BPM.1L5.B2_D,4105.62109375,-1561.33850098,1608.01428223,591.730773926,LHC.BPM.1R5.B2_D,-3759.72167969,-1946.91259766,1449.35070801,722.726928711,266,4,2,0,0,11,30,160
17,6843,318622,95,12,1529955408,561,1,5,3,32,ACQUIRING,MIXED,5,-0.0215460229665,-0.00314571708441,0.0657105520368,0.00314571708441,-0.0657105520368,0.0,-0.0107730114833,-0.0,0.0107730114833,0,CROSSING,LHC.BPM.1L5.B1_D,-3052.70458984,-1432.56201172,1236.97619629,537.637329102,LHC.BPM.1R5.B1_D,3680.33544922,-1982.47436523,1478.9395752,708.534545898,LHC.BPM.1L5.B2_D,4105.38476562,-1560.94921875,1607.98010254,591.61541748,LHC.BPM.1R5.B2_D,-3759.58813477,-1947.37097168,1449.40490723,722.957885742,266,4,2,0,0,11,30,160
18,6843,318622,95,16,1529955409,975,1,5,3,32,ACQUIRING,MIXED,4,-0.0215460229665,-0.00314571708441,0.0657105520368,0.00314571708441,-0.0657105520368,0.0,-0.0107730114833,-0.0,0.0107730114833,0,CROSSING,LHC.BPM.1L5.B1_D,-3052.56640625,-1432.64025879,1166.859375,590.916992188,LHC.BPM.1R5.B1_D,3680.17675781,-1982.28466797,1411.85632324,848.84552002,LHC.BPM.1L5.B2_D,4105.79003906,-1560.49084473,1625.47949219,637.622924805,LHC.BPM.1R5.B2_D,-3759.86425781,-1947.65966797,1502.88928223,808.002502441,266,4,2,0,0,11,30,160
19,6843,318622,95,20,1529955411,495,1,5,3,32,ACQUIRING,MIXED,2,-0.0215460229665,-0.00314571708441,0.0657105520368,0.00314571708441,-0.0657105520368,0.0,-0.0107730114833,-0.0,0.0107730114833,0,CROSSING,LHC.BPM.1L5.B1_D,-3053.10571289,-1433.34460449,1167.01245117,591.148132324,LHC.BPM.1R5.B1_D,3680.57519531,-1981.70654297,1411.9230957,848.745849609,LHC.BPM.1L5.B2_D,4105.59179688,-1560.33789062,1625.34973145,637.510681152,LHC.BPM.1R5.B2_D,-3759.66333008,-1948.01123047,1502.72961426,808.137695312,266,4,2,0,0,11,30,160
20,6843,318622,95,24,1529955412,907,1,5,3,32,ACQUIRING,MIXED,1,-0.0215460229665,-0.00314571708441,0.0657105520368,0.00314571708441,-0.0657105520368,0.0,-0.0107730114833,-0.0,0.0107730114833,0,CROSSING,LHC.BPM.1L5.B1_D,-3052.96728516,-1432.95751953,1237.15002441,537.640197754,LHC.BPM.1R5.B1_D,3680.39306641,-1981.92150879,1479.05126953,708.336486816,LHC.BPM.1L5.B2_D,4105.52392578,-1560.58984375,1607.89831543,591.799255371,LHC.BPM.1R5.B2_D,-3759.63867188,-1947.73095703,1449.38366699,722.871826172,266,4,2,0,0,11,30,160
21,6843,318622,95,44,1529955420,183,1,7,3,32,ACQUIRING,MIXED,10,-0.0107730114833,-0.00314571708441,0.0710970535874,0.00314571708441,-0.0710970535874,0.0,-0.00538650574163,-0.0,0.00538650574163,0,CROSSING,LHC.BPM.1L5.B1_D,-3048.35546875,-1432.82165527,1235.29406738,537.825622559,LHC.BPM.1R5.B1_D,3692.72875977,-1981.95593262,1483.92028809,708.034362793,LHC.BPM.1L5.B2_D,4097.11230469,-1559.80029297,1604.73193359,591.354980469,LHC.BPM.1R5.B2_D,-3767.71801758,-1948.65649414,1452.46899414,723.421386719,266,4,2,0,0,11,30,160
22,6843,318622,95,48,1529955421,700,1,7,3,32,ACQUIRING,MIXED,8,-0.0107730114833,-0.00314571708441,0.0710970535874,0.00314571708441,-0.0710970535874,0.0,-0.00538650574163,-0.0,0.00538650574163,0,CROSSING,LHC.BPM.1L5.B1_D,-3048.06201172,-1433.03173828,1165.01269531,591.028259277,LHC.BPM.1R5.B1_D,3692.43579102,-1981.76708984,1416.51867676,848.942260742,LHC.BPM.1L5.B2_D,4096.71728516,-1559.7578125,1621.60205078,637.308166504,LHC.BPM.1R5.B2_D,-3767.30834961,-1948.66906738,1505.68310547,808.344116211,266,4,2,0,0,11,30,160
23,6843,318622,95,52,1529955423,126,1,7,3,32,ACQUIRING,MIXED,7,-0.0107730114833,-0.00314571708441,0.0710970535874,0.00314571708441,-0.0710970535874,0.0,-0.00538650574163,-0.0,0.00538650574163,0,CROSSING,LHC.BPM.1L5.B1_D,-3048.19506836,-1432.91467285,1165.36828613,591.027526855,LHC.BPM.1R5.B1_D,3692.60791016,-1981.97851562,1416.9798584,849.018920898,LHC.BPM.1L5.B2_D,4097.15917969,-1559.74230957,1621.95385742,637.32623291,LHC.BPM.1R5.B2_D,-3767.81030273,-1948.7512207,1506.06298828,808.34375,266,4,2,0,0,11,30,160
24,6843,318622,95,56,1529955424,534,1,7,3,32,ACQUIRING,MIXED,5,-0.0107730114833,-0.00314571708441,0.0710970535874,0.00314571708441,-0.0710970535874,0.0,-0.00538650574163,-0.0,0.00538650574163,0,CROSSING,LHC.BPM.1L5.B1_D,-3048.26123047,-1433.1817627,1235.10827637,537.957519531,LHC.BPM.1R5.B1_D,3692.70922852,-1981.57385254,1483.68713379,707.817260742,LHC.BPM.1L5.B2_D,4097.4296875,-1559.52233887,1604.94287109,591.143188477,LHC.BPM.1R5.B2_D,-3767.90991211,-1948.96435547,1452.56347656,723.647766113,266,4,2,0,0,11,30,160
25,6843,318622,95,60,1529955426,49,1,7,3,32,ACQUIRING,MIXED,4,-0.0107730114833,-0.00314571708441,0.0710970535874,0.00314571708441,-0.0710970535874,0.0,-0.00538650574163,-0.0,0.00538650574163,0,CROSSING,LHC.BPM.1L5.B1_D,-3048.15527344,-1433.26403809,1165.2767334,591.090026855,LHC.BPM.1R5.B1_D,3692.58081055,-1981.48962402,1416.87207031,848.952941895,LHC.BPM.1L5.B2_D,4097.04345703,-1559.38977051,1621.64562988,637.221557617,LHC.BPM.1R5.B2_D,-3767.52856445,-1949.21789551,1505.76037598,808.541992188,266,4,2,0,0,11,30,160
26,6843,318622,95,64,1529955427,461,1,7,3,32,ACQUIRING,MIXED,2,-0.0107730114833,-0.00314571708441,0.0710970535874,0.00314571708441,-0.0710970535874,0.0,-0.00538650574163,-0.0,0.00538650574163,0,CROSSING,LHC.BPM.1L5.B1_D,-3048.33374023,-1433.22314453,1165.13208008,590.947753906,LHC.BPM.1R5.B1_D,3692.77099609,-1981.6574707,1416.78625488,849.231750488,LHC.BPM.1L5.B2_D,4096.18652344,-1559.28955078,1621.47375488,637.092346191,LHC.BPM.1R5.B2_D,-3766.62719727,-1949.05029297,1505.51818848,808.648864746,266,4,2,0,0,11,30,160
27,6843,318622,96,4,1529955428,977,1,7,3,32,ACQUIRING,MIXED,1,-0.0107730114833,-0.00314571708441,0.0710970535874,0.00314571708441,-0.0710970535874,0.0,-0.00538650574163,-0.0,0.00538650574163,0,CROSSING,LHC.BPM.1L5.B1_D,-3048.28686523,-1433.04394531,1235.36608887,537.917907715,LHC.BPM.1R5.B1_D,3692.55639648,-1981.78588867,1483.76281738,707.766296387,LHC.BPM.1L5.B2_D,4096.61132812,-1559.14978027,1604.77746582,591.085754395,LHC.BPM.1R5.B2_D,-3767.24926758,-1949.20092773,1452.59118652,723.526245117,266,4,2,0,0,11,30,160
28,6843,318622,96,24,1529955436,270,1,9,3,32,ACQUIRING,MIXED,9,0.0,-0.00314571708441,0.0764835625887,0.00314571708441,-0.0764835625887,0.0,0.0,-0.0,-0.0,0,CROSSING,LHC.BPM.1L5.B1_D,-3039.73657227,-1433.38293457,1232.13903809,537.789794922,LHC.BPM.1R5.B1_D,3705.70263672,-1981.234375,1489.04663086,707.778930664,LHC.BPM.1L5.B2_D,4083.82568359,-1559.39147949,1599.74523926,591.337890625,LHC.BPM.1R5.B2_D,-3775.41650391,-1949.2454834,1455.64099121,723.46270752,266,4,2,0,0,11,30,160
29,6843,318622,96,28,1529955437,690,1,9,3,32,ACQUIRING,MIXED,8,0.0,-0.00314571708441,0.0764835625887,0.00314571708441,-0.0764835625887,0.0,0.0,-0.0,-0.0,0,CROSSING,LHC.BPM.1L5.B1_D,-3039.85498047,-1433.47277832,1161.71899414,591.405944824,LHC.BPM.1R5.B1_D,3705.89990234,-1981.11181641,1421.98205566,848.693969727,LHC.BPM.1L5.B2_D,4083.96533203,-1559.28051758,1616.55371094,636.941711426,LHC.BPM.1R5.B2_D,-3775.59423828,-1949.19641113,1509.03125,808.722229004,266,4,2,0,0,11,30,160
30,6843,318622,96,32,1529955439,115,1,9,3,32,ACQUIRING,MIXED,7,0.0,-0.00314571708441,0.0764835625887,0.00314571708441,-0.0764835625887,0.0,0.0,-0.0,-0.0,0,CROSSING,LHC.BPM.1L5.B1_D,-3039.64428711,-1433.0949707,1161.7355957,591.027099609,LHC.BPM.1R5.B1_D,3705.61645508,-1981.32214355,1421.81433105,848.926391602,LHC.BPM.1L5.B2_D,4083.12890625,-1559.46203613,1616.10290527,637.380371094,LHC.BPM.1R5.B2_D,-3774.57080078,-1949.18395996,1508.53491211,808.340820312,266,4,2,0,0,11,30,160
31,6843,318622,96,36,1529955440,629,1,9,3,32,ACQUIRING,MIXED,5,0.0,-0.00314571708441,0.0764835625887,0.00314571708441,-0.0764835625887,0.0,0.0,-0.0,-0.0,0,CROSSING,LHC.BPM.1L5.B1_D,-3039.39501953,-1432.8848877,1231.77050781,537.709228516,LHC.BPM.1R5.B1_D,3705.36206055,-1981.56481934,1488.80395508,707.904052734,LHC.BPM.1L5.B2_D,4082.8046875,-1559.68151855,1599.27636719,591.223876953,LHC.BPM.1R5.B2_D,-3774.43920898,-1948.94555664,1455.23059082,723.654968262,266,4,2,0,0,11,30,160
32,6843,318622,96,40,1529955442,42,1,9,3,32,ACQUIRING,MIXED,4,0.0,-0.00314571708441,0.0764835625887,0.00314571708441,-0.0764835625887,0.0,0.0,-0.0,-0.0,0,CROSSING,LHC.BPM.1L5.B1_D,-3039.56323242,-1433.26049805,1161.86254883,591.322387695,LHC.BPM.1R5.B1_D,3705.67578125,-1981.23376465,1422.0567627,848.67010498,LHC.BPM.1L5.B2_D,4083.50463867,-1559.72277832,1616.65991211,637.413024902,LHC.BPM.1R5.B2_D,-3775.00537109,-1948.8013916,1508.9876709,808.229187012,266,4,2,0,0,11,30,160
33,6843,318622,96,44,1529955443,558,1,9,3,32,ACQUIRING,MIXED,2,0.0,-0.00314571708441,0.0764835625887,0.00314571708441,-0.0764835625887,0.0,0.0,-0.0,-0.0,0,CROSSING,LHC.BPM.1L5.B1_D,-3039.96264648,-1433.70751953,1161.86889648,591.380187988,LHC.BPM.1R5.B1_D,3706.19775391,-1980.8125,1422.21325684,848.530761719,LHC.BPM.1L5.B2_D,4083.89941406,-1559.55651855,1616.7644043,637.178771973,LHC.BPM.1R5.B2_D,-3775.36376953,-1949.1159668,1508.94848633,808.406005859,266,4,2,0,0,11,30,160
34,6843,318622,96,48,1529955444,970,1,9,3,32,ACQUIRING,MIXED,1,0.0,-0.00314571708441,0.0764835625887,0.00314571708441,-0.0764835625887,0.0,0.0,-0.0,-0.0,0,CROSSING,LHC.BPM.1L5.B1_D,-3040.01879883,-1433.50061035,1232.13012695,537.844177246,LHC.BPM.1R5.B1_D,3706.14477539,-1980.84924316,1489.0222168,707.74420166,LHC.BPM.1L5.B2_D,4083.84521484,-1559.72827148,1599.44152832,591.459777832,LHC.BPM.1R5.B2_D,-3775.57666016,-1948.81274414,1455.71960449,723.484924316,266,4,2,0,0,11,30,160
35,6843,318622,97,4,1529955452,260,1,11,3,32,ACQUIRING,MIXED,9,0.0107730114833,-0.00314571708441,0.0818700715899,0.00314571708441,-0.0818700715899,0.0,0.00538650574163,-0.0,-0.00538650574163,0,CROSSING,LHC.BPM.1L5.B1_D,-3029.42773438,-1432.56213379,1152.23266602,588.504272461,LHC.BPM.1R5.B1_D,3719.19116211,-1980.78930664,1494.1739502,707.670410156,LHC.BPM.1L5.B2_D,4070.76879883,-1558.61413574,1594.2845459,591.132995605,LHC.BPM.1R5.B2_D,-3783.6940918,-1950.12976074,1458.70910645,723.683349609,266,4,2,0,0,11,30,160
36,6843,318622,97,8,1529955453,675,1,11,3,32,ACQUIRING,MIXED,8,0.0107730114833,-0.00314571708441,0.0818700715899,0.00314571708441,-0.0818700715899,0.0,0.00538650574163,-0.0,-0.00538650574163,0,CROSSING,LHC.BPM.1L5.B1_D,-3029.75170898,-1432.23937988,1222.47058105,534.508117676,LHC.BPM.1R5.B1_D,3719.53125,-1981.03137207,1427.58837891,848.767578125,LHC.BPM.1L5.B2_D,4070.16235352,-1558.70568848,1611.17541504,636.711486816,LHC.BPM.1R5.B2_D,-3783.04223633,-1949.99414062,1511.82910156,809.156616211,266,4,2,0,0,11,30,160
37,6843,318622,97,12,1529955455,204,1,11,3,32,ACQUIRING,MIXED,6,0.0107730114833,-0.00314571708441,0.0818700715899,0.00314571708441,-0.0818700715899,0.0,0.00538650574163,-0.0,-0.00538650574163,0,CROSSING,LHC.BPM.1L5.B1_D,-3030.12670898,-1432.26928711,1222.53759766,534.408874512,LHC.BPM.1R5.B1_D,3719.99633789,-1980.95471191,1427.76245117,848.821166992,LHC.BPM.1L5.B2_D,4070.48950195,-1558.26391602,1611.58740234,636.514038086,LHC.BPM.1R5.B2_D,-3783.53686523,-1950.49291992,1512.35534668,809.357971191,266,4,2,0,0,11,30,160
38,6843,318622,97,16,1529955456,619,1,11,3,32,ACQUIRING,MIXED,5,0.0107730114833,-0.00314571708441,0.0818700715899,0.00314571708441,-0.0818700715899,0.0,0.00538650574163,-0.0,-0.00538650574163,0,CROSSING,LHC.BPM.1L5.B1_D,-3030.41381836,-1432.1072998,1152.68017578,588.499389648,LHC.BPM.1R5.B1_D,3720.40405273,-1981.24694824,1494.68444824,707.779907227,LHC.BPM.1L5.B2_D,4072.7644043,-1557.67321777,1595.92224121,590.506286621,LHC.BPM.1R5.B2_D,-3785.82714844,-1951.06298828,1460.37036133,724.315917969,266,4,2,0,0,11,30,160
39,6843,318622,97,20,1529955458,43,1,11,3,32,ACQUIRING,MIXED,4,0.0107730114833,-0.00314571708441,0.0818700715899,0.00314571708441,-0.0818700715899,0.0,0.00538650574163,-0.0,-0.00538650574163,0,CROSSING,LHC.BPM.1L5.B1_D,-3030.90698242,-1431.89135742,1222.92565918,534.236938477,LHC.BPM.1R5.B1_D,3721.01782227,-1981.54858398,1428.24511719,849.060058594,LHC.BPM.1L5.B2_D,4077.45654297,-1556.94140625,1615.28015137,635.94519043,LHC.BPM.1R5.B2_D,-3790.91357422,-1951.66381836,1516.3482666,809.84197998,266,4,2,0,0,11,30,160
40,6843,318622,97,24,1529955459,555,1,11,3,32,ACQUIRING,MIXED,2,0.0107730114833,-0.00314571708441,0.0818700715899,0.00314571708441,-0.0818700715899,0.0,0.00538650574163,-0.0,-0.00538650574163,0,CROSSING,LHC.BPM.1L5.B1_D,-3033.69506836,-1430.55285645,1223.671875,533.890686035,LHC.BPM.1R5.B1_D,3723.890625,-1983.18200684,1428.94030762,849.623657227,LHC.BPM.1L5.B2_D,4090.55859375,-1555.546875,1620.7956543,635.516540527,LHC.BPM.1R5.B2_D,-3804.62207031,-1952.86340332,1522.10302734,810.125915527,266,4,2,0,0,11,30,160
41,6843,318622,97,28,1529955460,978,1,11,3,32,ACQUIRING,MIXED,1,0.0107730114833,-0.00314571708441,0.0818700715899,0.00314571708441,-0.0818700715899,0.0,0.00538650574163,-0.0,-0.00538650574163,0,CROSSING,LHC.BPM.1L5.B1_D,-3034.34106445,-1429.82800293,1154.63500977,587.236022949,LHC.BPM.1R5.B1_D,3724.75097656,-1983.90979004,1496.93054199,709.07244873,LHC.BPM.1L5.B2_D,4096.56933594,-1555.54370117,1605.46496582,589.846679688,LHC.BPM.1R5.B2_D,-3810.93310547,-1952.86889648,1470.33520508,724.98828125,266,4,2,0,0,11,30,160
42,6843,318622,97,48,1529955468,249,1,13,3,32,ACQUIRING,MIXED,9,0.0215460229665,-0.00314571708441,0.0872565731406,0.00314571708441,-0.0872565731406,0.0,0.0107730114833,-0.0,-0.0107730114833,0,CROSSING,LHC.BPM.1L5.B1_D,-3025.53417969,-1430.77685547,1150.6895752,587.797119141,LHC.BPM.1R5.B1_D,3733.54345703,-1983.06982422,1499.72229004,708.498352051,LHC.BPM.1L5.B2_D,4083.05395508,-1556.34814453,1599.24365234,589.974731445,LHC.BPM.1R5.B2_D,-3814.5078125,-1951.89013672,1470.91894531,724.770385742,266,4,2,0,0,11,30,160
43,6843,318622,97,52,1529955469,767,1,13,3,32,ACQUIRING,MIXED,8,0.0215460229665,-0.00314571708441,0.0872565731406,0.00314571708441,-0.0872565731406,0.0,0.0107730114833,-0.0,-0.0107730114833,0,CROSSING,LHC.BPM.1L5.B1_D,-3025.71557617,-1430.71911621,1220.87023926,534.024597168,LHC.BPM.1R5.B1_D,3733.91357422,-1983.50366211,1433.35620117,849.892944336,LHC.BPM.1L5.B2_D,4083.75268555,-1555.80383301,1616.93688965,635.579833984,LHC.BPM.1R5.B2_D,-3815.09667969,-1952.39990234,1524.79541016,809.976379395,266,4,2,0,0,11,30,160
44,6843,318622,97,56,1529955471,182,1,13,3,32,ACQUIRING,MIXED,7,0.0215460229665,-0.00314571708441,0.0872565731406,0.00314571708441,-0.0872565731406,0.0,0.0107730114833,-0.0,-0.0107730114833,0,CROSSING,LHC.BPM.1L5.B1_D,-3026.50610352,-1430.9979248,1220.93017578,534.542785645,LHC.BPM.1R5.B1_D,3734.47949219,-1983.16723633,1433.2322998,849.468017578,LHC.BPM.1L5.B2_D,4086.55297852,-1555.21252441,1617.94909668,635.167114258,LHC.BPM.1R5.B2_D,-3818.05957031,-1952.91821289,1525.79223633,810.326416016,266,4,2,0,0,11,30,160
45,6843,318622,97,60,1529955472,696,1,13,3,32,ACQUIRING,MIXED,5,0.0215460229665,-0.00314571708441,0.0872565731406,0.00314571708441,-0.0872565731406,0.0,0.0107730114833,-0.0,-0.0107730114833,0,CROSSING,LHC.BPM.1L5.B1_D,-3026.9440918,-1431.26623535,1151.59692383,587.716552734,LHC.BPM.1R5.B1_D,3734.97216797,-1982.84228516,1500.67956543,708.406494141,LHC.BPM.1L5.B2_D,4086.18212891,-1555.38684082,1600.14978027,590.061157227,LHC.BPM.1R5.B2_D,-3817.76757812,-1952.82666016,1472.02636719,724.758300781,266,4,2,0,0,11,30,160
46,6843,318622,97,64,1529955474,113,1,13,3,32,ACQUIRING,MIXED,4,0.0215460229665,-0.00314571708441,0.0872565731406,0.00314571708441,-0.0872565731406,0.0,0.0107730114833,-0.0,-0.0107730114833,0,CROSSING,LHC.BPM.1L5.B1_D,-3025.35449219,-1431.86645508,1150.74365234,587.953308105,LHC.BPM.1R5.B1_D,3733.3815918,-1982.32568359,1499.82165527,708.353759766,LHC.BPM.1L5.B2_D,4083.99291992,-1554.89624023,1599.35852051,589.778137207,LHC.BPM.1R5.B2_D,-3815.28564453,-1953.36999512,1471.16540527,724.920471191,266,4,2,0,0,11,30,160
47,6843,318622,98,4,1529955475,545,1,13,3,32,ACQUIRING,MIXED,2,0.0215460229665,-0.00314571708441,0.0872565731406,0.00314571708441,-0.0872565731406,0.0,0.0107730114833,-0.0,-0.0107730114833,0,CROSSING,LHC.BPM.1L5.B1_D,-3025.02294922,-1430.82055664,1220.28259277,533.954589844,LHC.BPM.1R5.B1_D,3733.11523438,-1983.10705566,1432.63671875,849.731323242,LHC.BPM.1L5.B2_D,4083.38354492,-1555.546875,1616.54394531,635.581726074,LHC.BPM.1R5.B2_D,-3814.79394531,-1952.65673828,1524.32409668,810.034912109,266,4,2,0,0,11,30,160
48,6843,318622,98,8,1529955477,58,1,13,3,32,ACQUIRING,MIXED,1,0.0215460229665,-0.00314571708441,0.0872565731406,0.00314571708441,-0.0872565731406,0.0,0.0107730114833,-0.0,-0.0107730114833,0,CROSSING,LHC.BPM.1L5.B1_D,-3024.69384766,-1431.12255859,1220.19311523,534.317932129,LHC.BPM.1R5.B1_D,3732.85327148,-1983.02490234,1432.80151367,849.49230957,LHC.BPM.1L5.B2_D,4082.8828125,-1555.37597656,1598.96337891,589.64276123,LHC.BPM.1R5.B2_D,-3813.81835938,-1952.76147461,1524.11230469,810.08013916,266,4,2,0,0,11,30,160
49,6843,318622,98,28,1529955484,325,1,15,3,32,ACQUIRING,MIXED,9,0.0323190353811,-0.00314571708441,0.0926430821419,0.00314571708441,-0.0926430821419,0.0,0.0161595176905,-0.0,-0.0161595176905,0,CROSSING,LHC.BPM.1L5.B1_D,-3018.87695312,-1430.81237793,1148.29174805,587.80657959,LHC.BPM.1R5.B1_D,3739.34960938,-1983.21960449,1502.26159668,708.528808594,LHC.BPM.1L5.B2_D,4069.5065918,-1554.86425781,1593.62011719,589.276611328,LHC.BPM.1R5.B2_D,-3813.05883789,-1953.23864746,1469.95666504,725.282287598,266,4,2,0,0,11,30,160
50,6843,318622,98,32,1529955485,747,1,15,3,32,ACQUIRING,MIXED,8,0.0323190353811,-0.00314571708441,0.0926430821419,0.00314571708441,-0.0926430821419,0.0,0.0161595176905,-0.0,-0.0161595176905,0,CROSSING,LHC.BPM.1L5.B1_D,-3018.96875,-1430.66772461,1218.0,533.98614502,LHC.BPM.1R5.B1_D,3739.39160156,-1983.22033691,1435.13720703,849.656555176,LHC.BPM.1L5.B2_D,4068.74365234,-1554.86108398,1610.76757812,635.546386719,LHC.BPM.1R5.B2_D,-3812.14379883,-1953.37670898,1523.46386719,810.248718262,266,4,2,0,0,11,30,160
51,6843,318622,98,36,1529955487,262,1,15,3,32,ACQUIRING,MIXED,6,0.0323190353811,-0.00314571708441,0.0926430821419,0.00314571708441,-0.0926430821419,0.0,0.0161595176905,-0.0,-0.0161595176905,0,CROSSING,LHC.BPM.1L5.B1_D,-3019.11010742,-1431.01306152,1218.00427246,534.043945312,LHC.BPM.1R5.B1_D,3739.49658203,-1983.10314941,1435.22558594,849.66217041,LHC.BPM.1L5.B2_D,4067.46435547,-1554.25402832,1610.13183594,635.2890625,LHC.BPM.1R5.B2_D,-3810.86743164,-1954.1862793,1522.93127441,810.744140625,266,4,2,0,0,11,30,160
52,6843,318622,98,40,1529955488,692,1,15,3,32,ACQUIRING,MIXED,5,0.0323190353811,-0.00314571708441,0.0926430821419,0.00314571708441,-0.0926430821419,0.0,0.0161595176905,-0.0,-0.0161595176905,0,CROSSING,LHC.BPM.1L5.B1_D,-3018.74584961,-1431.20581055,1148.11279297,588.172973633,LHC.BPM.1R5.B1_D,3739.15625,-1982.94482422,1501.99194336,708.308532715,LHC.BPM.1L5.B2_D,4067.64038086,-1554.28442383,1593.38549805,589.08215332,LHC.BPM.1R5.B2_D,-3810.984375,-1954.05712891,1469.57751465,725.323364258,266,4,2,0,0,11,30,160
53,6843,318622,98,44,1529955490,106,1,15,3,32,ACQUIRING,MIXED,4,0.0323190353811,-0.00314571708441,0.0926430821419,0.00314571708441,-0.0926430821419,0.0,0.0161595176905,-0.0,-0.0161595176905,0,CROSSING,LHC.BPM.1L5.B1_D,-3019.5065918,-1431.2454834,1148.86071777,588.293884277,LHC.BPM.1R5.B1_D,3739.88842773,-1982.84069824,1502.74658203,708.254089355,LHC.BPM.1L5.B2_D,4067.19482422,-1554.26403809,1593.04663086,588.98034668,LHC.BPM.1R5.B2_D,-3810.48632812,-1954.11694336,1469.11743164,725.639099121,266,4,2,0,0,11,30,160
54,6843,318622,98,48,1529955491,632,1,15,3,32,ACQUIRING,MIXED,2,0.0323190353811,-0.00314571708441,0.0926430821419,0.00314571708441,-0.0926430821419,0.0,0.0161595176905,-0.0,-0.0161595176905,0,CROSSING,LHC.BPM.1L5.B1_D,-3020.02954102,-1431.03259277,1218.26806641,533.796142578,LHC.BPM.1R5.B1_D,3740.33032227,-1983.00976562,1435.3963623,849.773010254,LHC.BPM.1L5.B2_D,4066.64550781,-1554.19750977,1609.69287109,635.327453613,LHC.BPM.1R5.B2_D,-3810.05175781,-1954.17956543,1522.66430664,810.532531738,266,4,2,0,0,11,30,160
55,6843,318622,98,52,1529955493,56,1,15,3,32,ACQUIRING,MIXED,1,0.0323190353811,-0.00314571708441,0.0926430821419,0.00314571708441,-0.0926430821419,0.0,0.0161595176905,-0.0,-0.0161595176905,0,CROSSING,LHC.BPM.1L5.B1_D,-3018.88696289,-1430.74572754,1147.95959473,588.066650391,LHC.BPM.1R5.B1_D,3738.42700195,-1982.82910156,1434.86706543,849.453918457,LHC.BPM.1L5.B2_D,4066.76293945,-1554.06323242,1593.13781738,588.883911133,LHC.BPM.1R5.B2_D,-3810.82177734,-1954.11242676,1523.19311523,810.399108887,266,4,2,0,0,11,30,160
56,6843,318622,99,8,1529955500,381,1,17,3,32,ACQUIRING,MIXED,9,0.043092045933,-0.00314571708441,0.0980295836926,0.00314571708441,-0.0980295836926,0.0,0.0215460229665,-0.0,-0.0215460229665,0,CROSSING,LHC.BPM.1L5.B1_D,-3014.19091797,-1431.92272949,1146.51721191,588.31829834,LHC.BPM.1R5.B1_D,3743.51660156,-1982.08874512,1503.85961914,708.284362793,LHC.BPM.1L5.B2_D,4042.64746094,-1556.19006348,1583.06384277,590.05682373,LHC.BPM.1R5.B2_D,-3794.39257812,-1952.12438965,1462.45202637,724.473876953,266,4,2,0,0,11,30,160
57,6843,318622,99,12,1529955501,796,1,17,3,32,ACQUIRING,MIXED,8,0.043092045933,-0.00314571708441,0.0980295836926,0.00314571708441,-0.0980295836926,0.0,0.0215460229665,-0.0,-0.0215460229665,0,CROSSING,LHC.BPM.1L5.B1_D,-3015.79052734,-1432.45019531,1217.29272461,534.887512207,LHC.BPM.1R5.B1_D,3745.10253906,-1981.61523438,1438.03857422,848.662536621,LHC.BPM.1L5.B2_D,4040.71240234,-1555.92797852,1599.28320312,635.616455078,LHC.BPM.1R5.B2_D,-3792.49414062,-1952.34509277,1515.57128906,810.255432129,266,4,2,0,0,11,30,160
58,6843,318622,99,16,1529955503,214,1,17,3,32,ACQUIRING,MIXED,6,0.043092045933,-0.00314571708441,0.0980295836926,0.00314571708441,-0.0980295836926,0.0,0.0215460229665,-0.0,-0.0215460229665,0,CROSSING,LHC.BPM.1L5.B1_D,-3015.5871582,-1432.73242188,1216.67053223,534.776428223,LHC.BPM.1R5.B1_D,3744.88598633,-1981.27783203,1437.4284668,848.87701416,LHC.BPM.1L5.B2_D,4034.74243164,-1556.52368164,1596.4017334,636.650939941,LHC.BPM.1R5.B2_D,-3786.36132812,-1952.0826416,1512.61083984,809.254211426,266,4,2,0,0,11,30,160
59,6843,318622,99,20,1529955504,750,1,17,3,32,ACQUIRING,MIXED,5,0.043092045933,-0.00314571708441,0.0980295836926,0.00314571708441,-0.0980295836926,0.0,0.0215460229665,-0.0,-0.0215460229665,0,CROSSING,LHC.BPM.1L5.B1_D,-3015.88671875,-1432.98657227,1147.21508789,588.856750488,LHC.BPM.1R5.B1_D,3745.1730957,-1980.99145508,1504.52478027,707.579406738,LHC.BPM.1L5.B2_D,4031.63574219,-1557.50061035,1578.79760742,590.266235352,LHC.BPM.1R5.B2_D,-3783.12768555,-1950.89538574,1458.05603027,724.340881348,266,4,2,0,0,11,30,160
60,6843,318622,99,24,1529955506,166,1,17,3,32,ACQUIRING,MIXED,3,0.043092045933,-0.00314571708441,0.0980295836926,0.00314571708441,-0.0980295836926,0.0,0.0215460229665,-0.0,-0.0215460229665,0,CROSSING,LHC.BPM.1L5.B1_D,-3016.7980957,-1432.7590332,1147.43383789,588.75567627,LHC.BPM.1R5.B1_D,3746.42285156,-1981.24975586,1504.8494873,707.764831543,LHC.BPM.1L5.B2_D,4027.35986328,-1557.03771973,1577.30090332,589.887451172,LHC.BPM.1R5.B2_D,-3778.75952148,-1951.54223633,1456.60473633,724.751281738,266,4,2,0,0,11,30,160
61,6843,318622,99,28,1529955507,583,1,17,3,32,ACQUIRING,MIXED,2,0.043092045933,-0.00314571708441,0.0980295836926,0.00314571708441,-0.0980295836926,0.0,0.0215460229665,-0.0,-0.0215460229665,0,CROSSING,LHC.BPM.1L5.B1_D,-3016.79345703,-1433.04821777,1217.16564941,534.918029785,LHC.BPM.1R5.B1_D,3746.33325195,-1980.87731934,1438.01708984,848.601074219,LHC.BPM.1L5.B2_D,4027.35327148,-1555.91479492,1594.52172852,635.75982666,LHC.BPM.1R5.B2_D,-3778.84228516,-1952.83374023,1510.69360352,810.348693848,266,4,2,0,0,11,30,160
62,6843,318622,99,32,1529955509,100,1,17,3,32,ACQUIRING,MIXED,1,0.043092045933,-0.00314571708441,0.0980295836926,0.00314571708441,-0.0980295836926,0.0,0.0215460229665,-0.0,-0.0215460229665,0,CROSSING,LHC.BPM.1L5.B1_D,-3015.81103516,-1432.39916992,1216.3269043,534.722167969,LHC.BPM.1R5.B1_D,3745.41821289,-1981.3605957,1437.22424316,848.730285645,LHC.BPM.1L5.B2_D,4033.13769531,-1554.11999512,1597.23535156,634.983947754,LHC.BPM.1R5.B2_D,-3784.94824219,-1954.64001465,1513.4317627,811.233642578,266,4,2,0,0,11,30,160
63,6843,318622,100,28,1529955530,970,1,1,3,32,ACQUIRING,MIXED,10,-0.0307800341398,-0.018535733223,0.0764835625887,0.018535733223,-0.0764835625887,-0.0153900170699,0.0,0.0153900170699,-0.0,0,SEPARATION,LHC.BPM.1L5.B1_D,-3040.25097656,-1459.0793457,1156.51733398,599.000305176,LHC.BPM.1R5.B1_D,3709.08032227,-2004.5423584,1490.20446777,717.266601562,LHC.BPM.1L5.B2_D,4082.57348633,-1534.05505371,1599.00341797,581.291015625,LHC.BPM.1R5.B2_D,-3775.74853516,-1926.77966309,1455.21691895,714.456176758,266,4,2,0,0,11,30,160
64,6843,318622,100,32,1529955532,382,1,1,3,32,ACQUIRING,MIXED,9,-0.0307800341398,-0.018535733223,0.0764835625887,0.018535733223,-0.0764835625887,-0.0153900170699,0.0,0.0153900170699,-0.0,0,SEPARATION,LHC.BPM.1L5.B1_D,-3039.42749023,-1459.29272461,1156.56311035,599.043029785,LHC.BPM.1R5.B1_D,3708.21386719,-2004.67138672,1490.27209473,717.200866699,LHC.BPM.1L5.B2_D,4080.87207031,-1534.29785156,1598.47180176,581.509460449,LHC.BPM.1R5.B2_D,-3773.83374023,-1926.37866211,1454.7076416,714.290283203,266,4,2,0,0,11,30,160
65,6843,318622,100,36,1529955533,801,1,1,3,32,ACQUIRING,MIXED,7,-0.0307800341398,-0.018535733223,0.0764835625887,0.018535733223,-0.0764835625887,-0.0153900170699,0.0,0.0153900170699,-0.0,0,SEPARATION,LHC.BPM.1L5.B1_D,-3039.91113281,-1459.38598633,1226.19104004,545.296264648,LHC.BPM.1R5.B1_D,3708.7902832,-2004.50390625,1423.16821289,857.725769043,LHC.BPM.1L5.B2_D,4079.83496094,-1534.45617676,1614.68261719,627.25012207,LHC.BPM.1R5.B2_D,-3772.8449707,-1926.21911621,1507.90258789,799.892700195,266,4,2,0,0,11,30,160
66,6843,318622,100,40,1529955535,356,1,1,3,32,ACQUIRING,MIXED,6,-0.0307800341398,-0.018535733223,0.0764835625887,0.018535733223,-0.0764835625887,-0.0153900170699,0.0,0.0153900170699,-0.0,0,SEPARATION,LHC.BPM.1L5.B1_D,-3039.57861328,-1459.79492188,1226.03381348,545.411437988,LHC.BPM.1R5.B1_D,3708.39624023,-2004.28466797,1423.00024414,857.63671875,LHC.BPM.1L5.B2_D,4079.26220703,-1534.37475586,1614.87512207,626.901977539,LHC.BPM.1R5.B2_D,-3772.19873047,-1926.22363281,1507.98999023,800.196166992,266,4,2,0,0,11,30,160
67,6843,318622,100,44,1529955536,780,1,1,3,32,ACQUIRING,MIXED,4,-0.0307800341398,-0.018535733223,0.0764835625887,0.018535733223,-0.0764835625887,-0.0153900170699,0.0,0.0153900170699,-0.0,0,SEPARATION,LHC.BPM.1L5.B1_D,-3039.89404297,-1459.60449219,1156.72436523,599.101989746,LHC.BPM.1R5.B1_D,3708.74267578,-2004.32470703,1490.41833496,717.149597168,LHC.BPM.1L5.B2_D,4079.9609375,-1533.8951416,1598.38244629,581.420166016,LHC.BPM.1R5.B2_D,-3772.92797852,-1926.76464844,1454.68811035,714.417419434,266,4,2,0,0,11,30,160
68,6843,318622,100,48,1529955538,200,1,1,3,32,ACQUIRING,MIXED,3,-0.0307800341398,-0.018535733223,0.0764835625887,0.018535733223,-0.0764835625887,-0.0153900170699,0.0,0.0153900170699,-0.0,0,SEPARATION,LHC.BPM.1L5.B1_D,-3041.00732422,-1459.15905762,1156.85925293,598.989807129,LHC.BPM.1R5.B1_D,3710.01733398,-2004.6439209,1490.6105957,717.142089844,LHC.BPM.1L5.B2_D,4081.59448242,-1534.04003906,1598.87023926,581.348388672,LHC.BPM.1R5.B2_D,-3774.8503418,-1926.64355469,1455.31994629,714.630249023,266,4,2,0,0,11,30,160
69,6843,318622,100,52,1529955539,716,1,1,3,32,ACQUIRING,MIXED,1,-0.0307800341398,-0.018535733223,0.0764835625887,0.018535733223,-0.0764835625887,-0.0153900170699,0.0,0.0153900170699,-0.0,0,SEPARATION,LHC.BPM.1L5.B1_D,-3040.12426758,-1459.27075195,1226.07897949,545.265319824,LHC.BPM.1R5.B1_D,3709.08251953,-2004.53637695,1423.07336426,857.813476562,LHC.BPM.1L5.B2_D,4081.70947266,-1534.16711426,1615.76464844,627.189208984,LHC.BPM.1R5.B2_D,-3774.85864258,-1926.49316406,1508.87548828,799.771972656,266,4,2,0,0,11,30,160
70,6843,318622,101,8,1529955546,919,1,3,3,32,ACQUIRING,MIXED,10,-0.0230850260705,-0.0146882301196,0.0764835625887,0.0146882301196,-0.0764835625887,-0.0115425130352,0.0,0.0115425130352,-0.0,0,SEPARATION,LHC.BPM.1L5.B1_D,-3039.33984375,-1455.12817383,1156.46740723,597.35168457,LHC.BPM.1R5.B1_D,3708.21264648,-2003.21606445,1490.06860352,716.418212891,LHC.BPM.1L5.B2_D,4079.65332031,-1536.15881348,1598.17407227,581.91027832,LHC.BPM.1R5.B2_D,-3772.69018555,-1930.17102051,1454.6373291,716.229858398,266,4,2,0,0,11,30,160
71,6843,318622,101,12,1529955548,436,1,3,3,32,ACQUIRING,MIXED,8,-0.0230850260705,-0.0146882301196,0.0764835625887,0.0146882301196,-0.0764835625887,-0.0115425130352,0.0,0.0115425130352,-0.0,0,SEPARATION,LHC.BPM.1L5.B1_D,-3040.04296875,-1455.2298584,1156.6027832,597.529907227,LHC.BPM.1R5.B1_D,3708.81835938,-2003.12109375,1490.26196289,716.305908203,LHC.BPM.1L5.B2_D,4080.51293945,-1536.25622559,1598.20068359,581.91607666,LHC.BPM.1R5.B2_D,-3773.56420898,-1930.17407227,1454.70605469,716.296630859,266,4,2,0,0,11,30,160
72,6843,318622,101,16,1529955549,849,1,3,3,32,ACQUIRING,MIXED,7,-0.0230850260705,-0.0146882301196,0.0764835625887,0.0146882301196,-0.0764835625887,-0.0115425130352,0.0,0.0115425130352,-0.0,0,SEPARATION,LHC.BPM.1L5.B1_D,-3040.04101562,-1455.4296875,1226.26757812,543.712585449,LHC.BPM.1R5.B1_D,3708.72045898,-2002.8861084,1423.14025879,857.352539062,LHC.BPM.1L5.B2_D,4080.18212891,-1536.0670166,1615.23828125,628.114196777,LHC.BPM.1R5.B2_D,-3773.24462891,-1930.30664062,1508.23303223,801.100158691,266,4,2,0,0,11,30,160
73,6843,318622,101,20,1529955551,363,1,3,3,32,ACQUIRING,MIXED,6,-0.0230850260705,-0.0146882301196,0.0764835625887,0.0146882301196,-0.0764835625887,-0.0115425130352,0.0,0.0115425130352,-0.0,0,SEPARATION,LHC.BPM.1L5.B1_D,-3040.01611328,-1454.72412109,1226.05847168,543.320678711,LHC.BPM.1R5.B1_D,3708.81445312,-2003.5793457,1422.88098145,857.788269043,LHC.BPM.1L5.B2_D,4079.37133789,-1536.62414551,1614.86230469,628.262207031,LHC.BPM.1R5.B2_D,-3772.39990234,-1929.78308105,1507.88330078,800.92590332,266,4,2,0,0,11,30,160
74,6843,318622,101,24,1529955552,787,1,3,3,32,ACQUIRING,MIXED,4,-0.0230850260705,-0.0146882301196,0.0764835625887,0.0146882301196,-0.0764835625887,-0.0115425130352,0.0,0.0115425130352,-0.0,0,SEPARATION,LHC.BPM.1L5.B1_D,-3039.53393555,-1454.83483887,1156.41125488,597.460876465,LHC.BPM.1R5.B1_D,3708.18383789,-2003.46630859,1490.09887695,716.327819824,LHC.BPM.1L5.B2_D,4078.72143555,-1536.46618652,1597.4296875,582.090026855,LHC.BPM.1R5.B2_D,-3771.66333008,-1929.91870117,1453.81506348,716.174133301,266,4,2,0,0,11,30,160
75,6843,318622,101,28,1529955554,204,1,3,3,32,ACQUIRING,MIXED,3,-0.0230850260705,-0.0146882301196,0.0764835625887,0.0146882301196,-0.0764835625887,-0.0115425130352,0.0,0.0115425130352,-0.0,0,SEPARATION,LHC.BPM.1L5.B1_D,-3040.1784668,-1454.97180176,1156.68920898,597.44732666,LHC.BPM.1R5.B1_D,3708.98632812,-2003.39172363,1490.36523438,716.378295898,LHC.BPM.1L5.B2_D,4079.08203125,-1536.26599121,1597.79626465,581.911071777,LHC.BPM.1R5.B2_D,-3772.01660156,-1930.19604492,1454.10424805,716.304443359,266,4,2,0,0,11,30,160
76,6843,318622,101,32,1529955555,721,1,3,3,32,ACQUIRING,MIXED,1,-0.0230850260705,-0.0146882301196,0.0764835625887,0.0146882301196,-0.0764835625887,-0.0115425130352,0.0,0.0115425130352,-0.0,0,SEPARATION,LHC.BPM.1L5.B1_D,-3040.13842773,-1454.9230957,1226.25610352,543.405761719,LHC.BPM.1R5.B1_D,3709.00317383,-2003.40600586,1423.26196289,857.694458008,LHC.BPM.1L5.B2_D,4078.52026367,-1536.46655273,1614.33642578,628.447998047,LHC.BPM.1R5.B2_D,-3771.42944336,-1929.99890137,1507.41101074,800.864562988,266,4,2,0,0,11,30,160
77,6843,318622,101,52,1529955563,24,1,5,3,32,ACQUIRING,MIXED,10,-0.0153900170699,-0.010840726085,0.0764835625887,0.010840726085,-0.0764835625887,-0.00769500853494,0.0,0.00769500853494,-0.0,0,SEPARATION,LHC.BPM.1L5.B1_D,-3039.76611328,-1449.99414062,1156.33325195,595.328735352,LHC.BPM.1R5.B1_D,3708.46606445,-2000.36621094,1490.05285645,715.528991699,LHC.BPM.1L5.B2_D,4080.51782227,-1538.6817627,1598.65014648,583.03515625,LHC.BPM.1R5.B2_D,-3773.07373047,-1935.68261719,1454.68334961,718.344360352,266,4,2,0,0,11,30,160
78,6843,318622,101,56,1529955564,451,1,5,3,32,ACQUIRING,MIXED,8,-0.0153900170699,-0.010840726085,0.0764835625887,0.010840726085,-0.0764835625887,-0.00769500853494,0.0,0.00769500853494,-0.0,0,SEPARATION,LHC.BPM.1L5.B1_D,-3040.2890625,-1450.41650391,1156.53356934,595.577575684,LHC.BPM.1R5.B1_D,3708.90185547,-1999.8515625,1490.17297363,715.254394531,LHC.BPM.1L5.B2_D,4080.28173828,-1538.10754395,1598.63598633,582.869140625,LHC.BPM.1R5.B2_D,-3772.89746094,-1936.17907715,1454.5682373,718.453735352,266,4,2,0,0,11,30,160
79,6843,318622,101,60,1529955565,868,1,5,3,32,ACQUIRING,MIXED,7,-0.0153900170699,-0.010840726085,0.0764835625887,0.010840726085,-0.0764835625887,-0.00769500853494,0.0,0.00769500853494,-0.0,0,SEPARATION,LHC.BPM.1L5.B1_D,-3040.2902832,-1450.76257324,1226.54125977,542.025695801,LHC.BPM.1R5.B1_D,3709.00561523,-1999.50744629,1423.4708252,855.766235352,LHC.BPM.1L5.B2_D,4080.48925781,-1538.01806641,1615.04907227,628.72076416,LHC.BPM.1R5.B2_D,-3773.13525391,-1936.30712891,1508.29968262,803.682556152,266,4,2,0,0,11,30,160
80,6843,318622,101,64,1529955567,389,1,5,3,32,ACQUIRING,MIXED,5,-0.0153900170699,-0.010840726085,0.0764835625887,0.010840726085,-0.0764835625887,-0.00769500853494,0.0,0.00769500853494,-0.0,0,SEPARATION,LHC.BPM.1L5.B1_D,-3039.81958008,-1450.57421875,1226.69763184,541.835449219,LHC.BPM.1R5.B1_D,3708.34912109,-1999.82714844,1423.49133301,855.932189941,LHC.BPM.1L5.B2_D,4081.07763672,-1538.09606934,1615.55834961,628.852722168,LHC.BPM.1R5.B2_D,-3773.68969727,-1936.24475098,1508.72912598,803.479248047,266,4,2,0,0,11,30,160
81,6843,318622,102,4,1529955568,806,1,5,3,32,ACQUIRING,MIXED,4,-0.0153900170699,-0.010840726085,0.0764835625887,0.010840726085,-0.0764835625887,-0.00769500853494,0.0,0.00769500853494,-0.0,0,SEPARATION,LHC.BPM.1L5.B1_D,-3040.37451172,-1450.10009766,1156.4407959,595.253662109,LHC.BPM.1R5.B1_D,3708.97875977,-2000.16503906,1490.13134766,715.60949707,LHC.BPM.1L5.B2_D,4081.05712891,-1538.53222656,1598.57543945,583.138793945,LHC.BPM.1R5.B2_D,-3773.93237305,-1935.80981445,1454.76879883,718.264282227,266,4,2,0,0,11,30,160
82,6843,318622,102,8,1529955570,233,1,5,3,32,ACQUIRING,MIXED,3,-0.0153900170699,-0.010840726085,0.0764835625887,0.010840726085,-0.0764835625887,-0.00769500853494,0.0,0.00769500853494,-0.0,0,SEPARATION,LHC.BPM.1L5.B1_D,-3039.65161133,-1449.74816895,1156.27844238,595.130554199,LHC.BPM.1R5.B1_D,3708.22729492,-2000.74316406,1489.91894531,715.91003418,LHC.BPM.1L5.B2_D,4080.36987305,-1538.33166504,1598.296875,583.011535645,LHC.BPM.1R5.B2_D,-3773.06787109,-1935.96166992,1454.45080566,718.415283203,266,4,2,0,0,11,30,160
83,6843,318622,102,12,1529955571,766,1,5,3,32,ACQUIRING,MIXED,1,-0.0153900170699,-0.010840726085,0.0764835625887,0.010840726085,-0.0764835625887,-0.00769500853494,0.0,0.00769500853494,-0.0,0,SEPARATION,LHC.BPM.1L5.B1_D,-3039.68457031,-1449.67456055,1226.33117676,541.646972656,LHC.BPM.1R5.B1_D,3708.37915039,-2000.69543457,1423.24133301,856.069152832,LHC.BPM.1L5.B2_D,4080.07055664,-1538.53479004,1615.05456543,628.995178223,LHC.BPM.1R5.B2_D,-3772.70922852,-1935.6607666,1508.0838623,803.218078613,266,4,2,0,0,11,30,160
84,6843,318622,102,32,1529955579,55,1,7,3,32,ACQUIRING,MIXED,10,-0.00769500853494,-0.00699322205037,0.0764835625887,0.00699322205037,-0.0764835625887,-0.00384750426747,0.0,0.00384750426747,-0.0,0,SEPARATION,LHC.BPM.1L5.B1_D,-3039.56835938,-1442.96948242,1156.4473877,592.842468262,LHC.BPM.1R5.B1_D,3708.03369141,-1992.96960449,1490.02905273,712.311767578,LHC.BPM.1L5.B2_D,4081.20922852,-1543.19665527,1598.58654785,584.874084473,LHC.BPM.1R5.B2_D,-3773.68969727,-1944.66967773,1454.62451172,721.975219727,266,4,2,0,0,11,30,160
85,6843,318622,102,36,1529955580,476,1,7,3,32,ACQUIRING,MIXED,8,-0.00769500853494,-0.00699322205037,0.0764835625887,0.00699322205037,-0.0764835625887,-0.00384750426747,0.0,0.00384750426747,-0.0,0,SEPARATION,LHC.BPM.1L5.B1_D,-3039.05712891,-1443.51220703,1156.27392578,593.061584473,LHC.BPM.1R5.B1_D,3707.39306641,-1992.63635254,1489.72766113,712.058349609,LHC.BPM.1L5.B2_D,4080.74560547,-1542.71691895,1598.39489746,584.719665527,LHC.BPM.1R5.B2_D,-3773.28417969,-1945.21105957,1454.4753418,722.110351562,266,4,2,0,0,11,30,160
86,6843,318622,102,40,1529955581,893,1,7,3,32,ACQUIRING,MIXED,7,-0.00769500853494,-0.00699322205037,0.0764835625887,0.00699322205037,-0.0764835625887,-0.00384750426747,0.0,0.00384750426747,-0.0,0,SEPARATION,LHC.BPM.1L5.B1_D,-3039.26806641,-1443.71862793,1226.01708984,539.037536621,LHC.BPM.1R5.B1_D,3707.55615234,-1992.27233887,1422.79321289,853.297241211,LHC.BPM.1L5.B2_D,4080.25561523,-1542.32299805,1615.11120605,630.268371582,LHC.BPM.1R5.B2_D,-3772.78637695,-1945.63793945,1508.13244629,807.362060547,266,4,2,0,0,11,30,160
87,6843,318622,102,44,1529955583,408,1,7,3,32,ACQUIRING,MIXED,5,-0.00769500853494,-0.00699322205037,0.0764835625887,0.00699322205037,-0.0764835625887,-0.00384750426747,0.0,0.00384750426747,-0.0,0,SEPARATION,LHC.BPM.1L5.B1_D,-3039.28295898,-1443.0637207,1226.0489502,538.912536621,LHC.BPM.1R5.B1_D,3707.59423828,-1993.05358887,1422.76879883,853.415283203,LHC.BPM.1L5.B2_D,4080.87866211,-1542.58703613,1615.46899414,630.268371582,LHC.BPM.1R5.B2_D,-3773.49560547,-1945.37438965,1508.47033691,807.360595703,266,4,2,0,0,11,30,160
88,6843,318622,102,48,1529955584,821,1,7,3,32,ACQUIRING,MIXED,4,-0.00769500853494,-0.00699322205037,0.0764835625887,0.00699322205037,-0.0764835625887,-0.00384750426747,0.0,0.00384750426747,-0.0,0,SEPARATION,LHC.BPM.1L5.B1_D,-3039.2434082,-1442.94628906,1156.22802734,592.582275391,LHC.BPM.1R5.B1_D,3707.60693359,-1993.24377441,1489.79785156,712.704711914,LHC.BPM.1L5.B2_D,4080.72143555,-1543.16064453,1598.41015625,585.382080078,LHC.BPM.1R5.B2_D,-3773.36230469,-1944.82263184,1454.59423828,721.472595215,266,4,2,0,0,11,30,160
89,6843,318622,102,52,1529955586,339,1,7,3,32,ACQUIRING,MIXED,3,-0.00769500853494,-0.00699322205037,0.0764835625887,0.00699322205037,-0.0764835625887,-0.00384750426747,0.0,0.00384750426747,-0.0,0,SEPARATION,LHC.BPM.1L5.B1_D,-3038.65820312,-1443.45849609,1156.00671387,592.721252441,LHC.BPM.1R5.B1_D,3706.98974609,-1992.65808105,1489.57226562,712.587768555,LHC.BPM.1L5.B2_D,4080.61987305,-1542.15527344,1598.36132812,584.84576416,LHC.BPM.1R5.B2_D,-3773.08642578,-1945.79858398,1454.45300293,722.077697754,266,4,2,0,0,11,30,160
90,6843,318622,102,56,1529955587,753,1,7,3,32,ACQUIRING,MIXED,1,-0.00769500853494,-0.00699322205037,0.0764835625887,0.00699322205037,-0.0764835625887,-0.00384750426747,0.0,0.00384750426747,-0.0,0,SEPARATION,LHC.BPM.1L5.B1_D,-3039.02172852,-1443.09033203,1226.09680176,538.875,LHC.BPM.1R5.B1_D,3707.38818359,-1993.03613281,1422.82287598,853.365478516,LHC.BPM.1L5.B2_D,4080.47143555,-1542.50170898,1615.33044434,630.28302002,LHC.BPM.1R5.B2_D,-3773.0300293,-1945.53540039,1508.35754395,807.317871094,266,4,2,0,0,11,30,160
91,6843,318622,103,12,1529955595,54,1,9,3,32,ACQUIRING,MIXED,10,0.0,-0.00314571801573,0.0764835625887,0.00314571801573,-0.0764835625887,0.0,0.0,-0.0,-0.0,0,SEPARATION,LHC.BPM.1L5.B1_D,-3038.24609375,-1432.63586426,1155.70458984,588.708190918,LHC.BPM.1R5.B1_D,3706.51464844,-1982.07763672,1489.12145996,708.001403809,LHC.BPM.1L5.B2_D,4080.08374023,-1550.80749512,1598.21850586,587.819885254,LHC.BPM.1R5.B2_D,-3772.52734375,-1957.61132812,1454.2911377,727.228393555,266,4,2,0,0,11,30,160
92,6843,318622,103,16,1529955596,472,1,9,3,32,ACQUIRING,MIXED,8,0.0,-0.00314571801573,0.0764835625887,0.00314571801573,-0.0764835625887,0.0,0.0,-0.0,-0.0,0,SEPARATION,LHC.BPM.1L5.B1_D,-3038.40576172,-1432.65600586,1156.10742188,588.649108887,LHC.BPM.1R5.B1_D,3706.55249023,-1981.98718262,1489.47277832,708.104125977,LHC.BPM.1L5.B2_D,4079.39770508,-1550.70581055,1597.82043457,587.705810547,LHC.BPM.1R5.B2_D,-3771.66674805,-1957.75891113,1453.99902344,727.329589844,266,4,2,0,0,11,30,160
93,6843,318622,103,20,1529955597,985,1,9,3,32,ACQUIRING,MIXED,7,0.0,-0.00314571801573,0.0764835625887,0.00314571801573,-0.0764835625887,0.0,0.0,-0.0,-0.0,0,SEPARATION,LHC.BPM.1L5.B1_D,-3038.28173828,-1432.58166504,1225.44311523,534.704223633,LHC.BPM.1R5.B1_D,3706.54418945,-1981.9354248,1422.28125,849.126037598,LHC.BPM.1L5.B2_D,4078.99243164,-1550.77734375,1614.72338867,633.934204102,LHC.BPM.1R5.B2_D,-3771.4309082,-1957.69335938,1507.57507324,811.617614746,266,4,2,0,0,11,30,160
94,6843,318622,103,24,1529955599,403,1,9,3,32,ACQUIRING,MIXED,5,0.0,-0.00314571801573,0.0764835625887,0.00314571801573,-0.0764835625887,0.0,0.0,-0.0,-0.0,0,SEPARATION,LHC.BPM.1L5.B1_D,-3037.92285156,-1432.82702637,1225.37084961,534.798095703,LHC.BPM.1R5.B1_D,3705.98364258,-1981.69836426,1422.15844727,849.014160156,LHC.BPM.1L5.B2_D,4078.96704102,-1550.34265137,1614.43713379,633.651123047,LHC.BPM.1R5.B2_D,-3771.43945312,-1958.23327637,1507.3170166,811.934204102,266,4,2,0,0,11,30,160
95,6843,318622,103,28,1529955600,819,1,9,3,32,ACQUIRING,MIXED,4,0.0,-0.00314571801573,0.0764835625887,0.00314571801573,-0.0764835625887,0.0,0.0,-0.0,-0.0,0,SEPARATION,LHC.BPM.1L5.B1_D,-3038.36450195,-1432.78552246,1156.22692871,588.712585449,LHC.BPM.1R5.B1_D,3706.5168457,-1981.64282227,1489.56152344,707.982849121,LHC.BPM.1L5.B2_D,4079.13696289,-1549.94458008,1598.22387695,587.332397461,LHC.BPM.1R5.B2_D,-3771.46118164,-1958.4317627,1454.28515625,727.592651367,266,4,2,0,0,11,30,160
96,6843,318622,103,32,1529955602,334,1,9,3,32,ACQUIRING,MIXED,3,0.0,-0.00314571801573,0.0764835625887,0.00314571801573,-0.0764835625887,0.0,0.0,-0.0,-0.0,0,SEPARATION,LHC.BPM.1L5.B1_D,-3039.12304688,-1432.99328613,1156.48950195,588.854309082,LHC.BPM.1R5.B1_D,3707.30688477,-1981.62023926,1489.84130859,707.89654541,LHC.BPM.1L5.B2_D,4079.56494141,-1550.3260498,1597.96459961,587.365356445,LHC.BPM.1R5.B2_D,-3771.99658203,-1958.27966309,1454.07580566,727.569458008,266,4,2,0,0,11,30,160
97,6843,318622,103,36,1529955603,746,1,9,3,32,ACQUIRING,MIXED,1,0.0,-0.00314571801573,0.0764835625887,0.00314571801573,-0.0764835625887,0.0,0.0,-0.0,-0.0,0,SEPARATION,LHC.BPM.1L5.B1_D,-3039.00463867,-1433.21618652,1225.61437988,534.999572754,LHC.BPM.1R5.B1_D,3707.21630859,-1981.34606934,1422.43334961,848.873474121,LHC.BPM.1L5.B2_D,4079.03955078,-1549.96484375,1614.62451172,633.639404297,LHC.BPM.1R5.B2_D,-3771.43261719,-1958.70141602,1507.50915527,812.176452637,266,4,2,0,0,11,30,160
98,6843,318622,103,56,1529955611,41,1,11,3,32,ACQUIRING,MIXED,10,0.00769500853494,0.000701786018908,0.0764835625887,-0.000701786018908,-0.0764835625887,0.00384750426747,0.0,-0.00384750426747,-0.0,0,SEPARATION,LHC.BPM.1L5.B1_D,-3037.03564453,-1422.78417969,1155.56726074,584.712036133,LHC.BPM.1R5.B1_D,3705.27685547,-1970.40783691,1488.96789551,703.640441895,LHC.BPM.1L5.B2_D,4080.45141602,-1558.12438965,1598.1829834,590.907226562,LHC.BPM.1R5.B2_D,-3772.79711914,-1970.98681641,1454.30883789,732.093505859,266,4,2,0,0,11,30,160
99,6843,318622,103,60,1529955612,559,1,11,3,32,ACQUIRING,MIXED,8,0.00769500853494,0.000701786018908,0.0764835625887,-0.000701786018908,-0.0764835625887,0.00384750426747,0.0,-0.00384750426747,-0.0,0,SEPARATION,LHC.BPM.1L5.B1_D,-3036.51977539,-1423.04150391,1155.48486328,584.82611084,LHC.BPM.1R5.B1_D,3704.83374023,-1970.03649902,1488.90100098,703.442321777,LHC.BPM.1L5.B2_D,4080.421875,-1558.00634766,1598.20983887,590.634460449,LHC.BPM.1R5.B2_D,-3772.63183594,-1970.97192383,1454.36340332,732.334411621,266,4,2,0,0,11,30,160
100,6843,318622,103,64,1529955613,988,1,11,3,32,ACQUIRING,MIXED,7,0.00769500853494,0.000701786018908,0.0764835625887,-0.000701786018908,-0.0764835625887,0.00384750426747,0.0,-0.00384750426747,-0.0,0,SEPARATION,LHC.BPM.1L5.B1_D,-3036.72338867,-1422.86230469,1224.85644531,530.914794922,LHC.BPM.1R5.B1_D,3704.94897461,-1970.34448242,1421.61413574,844.691955566,LHC.BPM.1L5.B2_D,4080.16113281,-1558.11645508,1615.28845215,636.805419922,LHC.BPM.1R5.B2_D,-3772.40942383,-1971.08312988,1508.01293945,817.155517578,266,4,2,0,0,11,30,160
101,6843,318622,104,4,1529955615,408,1,11,3,32,ACQUIRING,MIXED,5,0.00769500853494,0.000701786018908,0.0764835625887,-0.000701786018908,-0.0764835625887,0.00384750426747,0.0,-0.00384750426747,-0.0,0,SEPARATION,LHC.BPM.1L5.B1_D,-3035.77514648,-1422.71325684,1224.63806152,531.12701416,LHC.BPM.1R5.B1_D,3704.14331055,-1970.44311523,1421.55041504,844.517578125,LHC.BPM.1L5.B2_D,4079.74682617,-1557.68408203,1614.88098145,636.533081055,LHC.BPM.1R5.B2_D,-3772.13793945,-1971.43237305,1507.70947266,817.344055176,266,4,2,0,0,11,30,160
102,6843,318622,104,8,1529955616,924,1,11,3,32,ACQUIRING,MIXED,4,0.00769500853494,0.000701786018908,0.0764835625887,-0.000701786018908,-0.0764835625887,0.00384750426747,0.0,-0.00384750426747,-0.0,0,SEPARATION,LHC.BPM.1L5.B1_D,-3036.16113281,-1423.12402344,1155.25561523,584.817932129,LHC.BPM.1R5.B1_D,3704.5847168,-1970.08996582,1488.67541504,703.415283203,LHC.BPM.1L5.B2_D,4079.5612793,-1557.71569824,1598.14440918,590.585510254,LHC.BPM.1R5.B2_D,-3771.9050293,-1971.37963867,1454.27087402,732.376037598,266,4,2,0,0,11,30,160
103,6843,318622,104,12,1529955618,341,1,11,3,32,ACQUIRING,MIXED,2,0.00769500853494,0.000701786018908,0.0764835625887,-0.000701786018908,-0.0764835625887,0.00384750426747,0.0,-0.00384750426747,-0.0,0,SEPARATION,LHC.BPM.1L5.B1_D,-3036.19067383,-1423.25024414,1155.15234375,584.73840332,LHC.BPM.1R5.B1_D,3704.48022461,-1970.07531738,1488.55175781,703.529174805,LHC.BPM.1L5.B2_D,4080.02954102,-1557.30444336,1598.3302002,590.330444336,LHC.BPM.1R5.B2_D,-3772.32543945,-1971.75549316,1454.35766602,732.419250488,266,4,2,0,0,11,30,160
104,6843,318622,104,16,1529955619,771,1,11,3,32,ACQUIRING,MIXED,1,0.00769500853494,0.000701786018908,0.0764835625887,-0.000701786018908,-0.0764835625887,0.00384750426747,0.0,-0.00384750426747,-0.0,0,SEPARATION,LHC.BPM.1L5.B1_D,-3036.31054688,-1422.82019043,1224.86279297,530.975463867,LHC.BPM.1R5.B1_D,3704.59399414,-1970.29150391,1421.68481445,844.568786621,LHC.BPM.1L5.B2_D,4079.53320312,-1557.32019043,1614.66967773,636.485412598,LHC.BPM.1R5.B2_D,-3771.87207031,-1971.65637207,1507.59655762,817.527832031,266,4,2,0,0,11,30,160
105,6843,318622,104,36,1529955627,138,1,13,3,32,ACQUIRING,MIXED,10,0.0153900170699,0.00454929005355,0.0764835625887,-0.00454929005355,-0.0764835625887,0.00769500853494,0.0,-0.00769500853494,-0.0,0,SEPARATION,LHC.BPM.1L5.B1_D,-3040.48144531,-1416.95422363,1226.67675781,528.655700684,LHC.BPM.1R5.B1_D,3709.26025391,-1962.15686035,1423.68273926,841.407836914,LHC.BPM.1L5.B2_D,4064.37304688,-1560.00793457,1607.21679688,637.579711914,LHC.BPM.1R5.B2_D,-3757.05371094,-1982.79455566,1500.04528809,821.743652344,266,4,2,0,0,11,30,160
106,6843,318622,104,40,1529955628,567,1,13,3,32,ACQUIRING,MIXED,8,0.0153900170699,0.00454929005355,0.0764835625887,-0.00454929005355,-0.0764835625887,0.00769500853494,0.0,-0.00769500853494,-0.0,0,SEPARATION,LHC.BPM.1L5.B1_D,-3041.15771484,-1417.2154541,1157.14147949,582.665344238,LHC.BPM.1R5.B1_D,3709.87744141,-1961.85827637,1490.70739746,700.068847656,LHC.BPM.1L5.B2_D,4055.87426758,-1561.23669434,1587.15612793,592.301574707,LHC.BPM.1R5.B2_D,-3748.11206055,-1981.6784668,1443.27648926,736.06463623,266,4,2,0,0,11,30,160
107,6843,318622,104,44,1529955630,4,1,13,3,32,ACQUIRING,MIXED,7,0.0153900170699,0.00454929005355,0.0764835625887,-0.00454929005355,-0.0764835625887,0.00769500853494,0.0,-0.00769500853494,-0.0,0,SEPARATION,LHC.BPM.1L5.B1_D,-3039.078125,-1417.1895752,1225.05078125,528.63470459,LHC.BPM.1R5.B1_D,3707.80151367,-1961.828125,1422.0513916,841.381286621,LHC.BPM.1L5.B2_D,4052.70532227,-1563.46398926,1604.7244873,639.338439941,LHC.BPM.1R5.B2_D,-3744.73242188,-1979.26965332,1497.39245605,819.850769043,266,4,2,0,0,11,30,160
108,6843,318622,104,48,1529955631,420,1,13,3,32,ACQUIRING,MIXED,5,0.0153900170699,0.00454929005355,0.0764835625887,-0.00454929005355,-0.0764835625887,0.00769500853494,0.0,-0.00769500853494,-0.0,0,SEPARATION,LHC.BPM.1L5.B1_D,-3034.77856445,-1417.5213623,1223.8125,528.603393555,LHC.BPM.1R5.B1_D,3703.140625,-1961.40136719,1420.65869141,841.305419922,LHC.BPM.1L5.B2_D,4058.95996094,-1565.5892334,1607.63500977,639.568115234,LHC.BPM.1R5.B2_D,-3750.57885742,-1976.99719238,1500.09118652,819.484680176,266,4,2,0,0,11,30,160
109,6843,318622,104,52,1529955632,936,1,13,3,32,ACQUIRING,MIXED,4,0.0153900170699,0.00454929005355,0.0764835625887,-0.00454929005355,-0.0764835625887,0.00769500853494,0.0,-0.00769500853494,-0.0,0,SEPARATION,LHC.BPM.1L5.B1_D,-3034.04760742,-1417.01513672,1154.43945312,582.55847168,LHC.BPM.1R5.B1_D,3702.48681641,-1961.9317627,1487.93310547,700.229431152,LHC.BPM.1L5.B2_D,4060.51782227,-1565.13037109,1590.40185547,593.38848877,LHC.BPM.1R5.B2_D,-3752.21655273,-1977.67041016,1446.4609375,735.17578125,266,4,2,0,0,11,30,160
110,6843,318622,104,56,1529955634,349,1,13,3,32,ACQUIRING,MIXED,2,0.0153900170699,0.00454929005355,0.0764835625887,-0.00454929005355,-0.0764835625887,0.00769500853494,0.0,-0.00769500853494,-0.0,0,SEPARATION,LHC.BPM.1L5.B1_D,-3031.34985352,-1415.7097168,1152.80493164,582.244140625,LHC.BPM.1R5.B1_D,3699.84912109,-1963.31188965,1486.45361328,700.620300293,LHC.BPM.1L5.B2_D,4062.12890625,-1565.46899414,1591.16516113,593.952209473,LHC.BPM.1R5.B2_D,-3753.68774414,-1977.11767578,1447.14208984,734.448303223,266,4,2,0,0,11,30,160
111,6843,318622,104,60,1529955635,867,1,13,3,32,ACQUIRING,MIXED,1,0.0153900170699,0.00454929005355,0.0764835625887,-0.00454929005355,-0.0764835625887,0.00769500853494,0.0,-0.00769500853494,-0.0,0,SEPARATION,LHC.BPM.1L5.B1_D,-3030.07983398,-1416.4317627,1222.34667969,528.461791992,LHC.BPM.1R5.B1_D,3698.66796875,-1962.46081543,1419.14624023,841.333862305,LHC.BPM.1L5.B2_D,4063.63720703,-1565.6619873,1609.31652832,639.424804688,LHC.BPM.1R5.B2_D,-3755.08911133,-1976.97412109,1501.6583252,819.668212891,266,4,2,0,0,11,30,160
112,6843,318622,105,16,1529955643,144,1,15,3,32,ACQUIRING,MIXED,9,0.0230850260705,0.00839679408818,0.0764835625887,-0.00839679408818,-0.0764835625887,0.0115425130352,0.0,-0.0115425130352,-0.0,0,SEPARATION,LHC.BPM.1L5.B1_D,-3034.38208008,-1413.80688477,1224.44128418,527.006958008,LHC.BPM.1R5.B1_D,3703.07495117,-1957.27563477,1421.28308105,839.58605957,LHC.BPM.1L5.B2_D,4060.12475586,-1564.56018066,1607.28186035,638.932556152,LHC.BPM.1R5.B2_D,-3751.97167969,-1986.3112793,1499.66003418,823.56060791,266,4,2,0,0,11,30,160
113,6843,318622,105,20,1529955644,564,1,15,3,32,ACQUIRING,MIXED,8,0.0230850260705,0.00839679408818,0.0764835625887,-0.00839679408818,-0.0764835625887,0.0115425130352,0.0,-0.0115425130352,-0.0,0,SEPARATION,LHC.BPM.1L5.B1_D,-3035.26538086,-1413.63952637,1154.77331543,581.519104004,LHC.BPM.1R5.B1_D,3703.91064453,-1957.69067383,1488.43408203,698.627502441,LHC.BPM.1L5.B2_D,4060.48388672,-1564.05236816,1590.73132324,593.190917969,LHC.BPM.1R5.B2_D,-3752.41650391,-1986.50634766,1447.0604248,738.061889648,266,4,2,0,0,11,30,160
114,6843,318622,105,24,1529955646,84,1,15,3,32,ACQUIRING,MIXED,6,0.0230850260705,0.00839679408818,0.0764835625887,-0.00839679408818,-0.0764835625887,0.0115425130352,0.0,-0.0115425130352,-0.0,0,SEPARATION,LHC.BPM.1L5.B1_D,-3034.06298828,-1415.22912598,1154.09228516,582.164794922,LHC.BPM.1R5.B1_D,3702.71484375,-1955.80993652,1487.7298584,697.880310059,LHC.BPM.1L5.B2_D,4067.32739258,-1564.52648926,1593.61450195,593.262084961,LHC.BPM.1R5.B2_D,-3759.38793945,-1985.95922852,1449.78466797,737.949157715,266,4,2,0,0,11,30,160
115,6843,318622,105,28,1529955647,499,1,15,3,32,ACQUIRING,MIXED,5,0.0230850260705,0.00839679408818,0.0764835625887,-0.00839679408818,-0.0764835625887,0.0115425130352,0.0,-0.0115425130352,-0.0,0,SEPARATION,LHC.BPM.1L5.B1_D,-3033.74194336,-1414.98083496,1223.9329834,527.414672852,LHC.BPM.1R5.B1_D,3702.36645508,-1956.23608398,1420.77600098,839.194274902,LHC.BPM.1L5.B2_D,4068.55297852,-1564.66455078,1610.74951172,639.342224121,LHC.BPM.1R5.B2_D,-3760.77905273,-1985.8614502,1503.49755859,823.16973877,266,4,2,0,0,11,30,160
116,6843,318622,105,32,1529955648,912,1,15,3,32,ACQUIRING,MIXED,3,0.0230850260705,0.00839679408818,0.0764835625887,-0.00839679408818,-0.0764835625887,0.0115425130352,0.0,-0.0115425130352,-0.0,0,SEPARATION,LHC.BPM.1L5.B1_D,-3034.32055664,-1414.1229248,1154.54772949,581.490966797,LHC.BPM.1R5.B1_D,3703.05908203,-1957.00219727,1488.27648926,698.479858398,LHC.BPM.1L5.B2_D,4069.26000977,-1564.38769531,1594.17431641,593.041870117,LHC.BPM.1R5.B2_D,-3761.44018555,-1986.19213867,1450.30639648,738.206237793,266,4,2,0,0,11,30,160
117,6843,318622,105,36,1529955650,429,1,15,3,32,ACQUIRING,MIXED,2,0.0230850260705,0.00839679408818,0.0764835625887,-0.00839679408818,-0.0764835625887,0.0115425130352,0.0,-0.0115425130352,-0.0,0,SEPARATION,LHC.BPM.1L5.B1_D,-3033.86328125,-1413.71618652,1153.95922852,581.425109863,LHC.BPM.1R5.B1_D,3702.53417969,-1957.40380859,1487.64746094,698.502868652,LHC.BPM.1L5.B2_D,4071.62670898,-1564.5201416,1595.12304688,593.161315918,LHC.BPM.1R5.B2_D,-3763.85302734,-1985.89038086,1451.20227051,738.133483887,266,4,2,0,0,11,30,160
118,6843,318622,105,56,1529955657,738,1,17,3,32,ACQUIRING,MIXED,10,0.0307800341398,0.0122442981228,0.0764835625887,-0.0122442981228,-0.0764835625887,0.0153900170699,0.0,-0.0153900170699,-0.0,0,SEPARATION,LHC.BPM.1L5.B1_D,-3034.27612305,-1410.91296387,1224.21472168,526.139282227,LHC.BPM.1R5.B1_D,3703.046875,-1954.69909668,1421.04089355,838.520263672,LHC.BPM.1L5.B2_D,4070.26098633,-1565.44335938,1611.4329834,639.576171875,LHC.BPM.1R5.B2_D,-3762.67700195,-1990.95080566,1504.29663086,825.230407715,266,4,2,0,0,11,30,160
119,6843,318622,105,60,1529955659,160,1,17,3,32,ACQUIRING,MIXED,9,0.0307800341398,0.0122442981228,0.0764835625887,-0.0122442981228,-0.0764835625887,0.0153900170699,0.0,-0.0153900170699,-0.0,0,SEPARATION,LHC.BPM.1L5.B1_D,-3033.35058594,-1410.21655273,1223.64587402,525.988586426,LHC.BPM.1R5.B1_D,3702.19824219,-1955.45996094,1420.61425781,838.647827148,LHC.BPM.1L5.B2_D,4069.73608398,-1564.88842773,1611.30065918,639.52355957,LHC.BPM.1R5.B2_D,-3762.14355469,-1991.44506836,1504.04772949,825.234863281,266,4,2,0,0,11,30,160
120,6843,318622,105,64,1529955660,575,1,17,3,32,ACQUIRING,MIXED,7,0.0307800341398,0.0122442981228,0.0764835625887,-0.0122442981228,-0.0764835625887,0.0153900170699,0.0,-0.0153900170699,-0.0,0,SEPARATION,LHC.BPM.1L5.B1_D,-3033.23486328,-1410.03356934,1153.99279785,579.709106445,LHC.BPM.1R5.B1_D,3701.92919922,-1955.6270752,1487.56311035,697.950256348,LHC.BPM.1L5.B2_D,4070.24633789,-1565.51928711,1594.41259766,593.750305176,LHC.BPM.1R5.B2_D,-3762.58227539,-1990.7713623,1450.66894531,739.741943359,266,4,2,0,0,11,30,160
121,6843,318622,106,4,1529955662,92,1,17,3,32,ACQUIRING,MIXED,6,0.0307800341398,0.0122442981228,0.0764835625887,-0.0122442981228,-0.0764835625887,0.0153900170699,0.0,-0.0153900170699,-0.0,0,SEPARATION,LHC.BPM.1L5.B1_D,-3032.86083984,-1410.43432617,1153.90100098,579.863220215,LHC.BPM.1R5.B1_D,3701.58813477,-1955.23181152,1487.48754883,697.803833008,LHC.BPM.1L5.B2_D,4070.94628906,-1565.39172363,1594.62182617,593.684387207,LHC.BPM.1R5.B2_D,-3763.26782227,-1990.9753418,1450.90576172,739.877990723,266,4,2,0,0,11,30,160
122,6843,318622,106,8,1529955663,508,1,17,3,32,ACQUIRING,MIXED,4,0.0307800341398,0.0122442981228,0.0764835625887,-0.0122442981228,-0.0764835625887,0.0153900170699,0.0,-0.0153900170699,-0.0,0,SEPARATION,LHC.BPM.1L5.B1_D,-3032.73071289,-1410.01013184,1223.34802246,525.817260742,LHC.BPM.1R5.B1_D,3701.63330078,-1955.6809082,1420.46179199,838.83807373,LHC.BPM.1L5.B2_D,4070.38354492,-1565.07922363,1611.19433594,639.24609375,LHC.BPM.1R5.B2_D,-3762.73632812,-1991.25183105,1503.9284668,825.477172852,266,4,2,0,0,11,30,160
123,6843,318622,106,12,1529955664,924,1,17,3,32,ACQUIRING,MIXED,3,0.0307800341398,0.0122442981228,0.0764835625887,-0.0122442981228,-0.0764835625887,0.0153900170699,0.0,-0.0153900170699,-0.0,0,SEPARATION,LHC.BPM.1L5.B1_D,-3032.79638672,-1409.60083008,1153.9510498,579.541992188,LHC.BPM.1R5.B1_D,3701.61791992,-1956.00854492,1487.47644043,698.060058594,LHC.BPM.1L5.B2_D,4069.6171875,-1565.2611084,1594.0189209,593.825866699,LHC.BPM.1R5.B2_D,-3761.88525391,-1991.04724121,1450.23742676,739.715881348,266,4,2,0,0,11,30,160
124,6843,318622,106,16,1529955666,445,1,17,3,32,ACQUIRING,MIXED,1,0.0307800341398,0.0122442981228,0.0764835625887,-0.0122442981228,-0.0764835625887,0.0153900170699,0.0,-0.0153900170699,-0.0,0,SEPARATION,LHC.BPM.1L5.B1_D,-3032.06347656,-1409.29858398,1153.75634766,579.609680176,LHC.BPM.1R5.B1_D,3700.79663086,-1956.27258301,1487.23352051,697.845336914,LHC.BPM.1L5.B2_D,4071.37670898,-1565.6072998,1594.84191895,593.820861816,LHC.BPM.1R5.B2_D,-3763.69140625,-1990.60461426,1451.09033203,739.700073242,266,4,2,0,0,11,30,160
