,fill,run,ls,nb,sec,msec,acqflag,step,beam,ip,scanstatus,plane,progress,nominal_separation,read_nominal_B1sepPlane,read_nominal_B1xingPlane,read_nominal_B2sepPlane,read_nominal_B2xingPlane,set_nominal_B1sepPlane,set_nominal_B1xingPlane,set_nominal_B2sepPlane,set_nominal_B2xingPlane,atlas_totInst,nominal_separation_plane,bpm_5LDOROS_B1Names,bpm_5LDOROS_B1hPos,bpm_5LDOROS_B1vPos,bpm_5LDOROS_B1hErr,bpm_5LDOROS_B1vErr,bpm_5RDOROS_B1Names,bpm_5RDOROS_B1hPos,bpm_5RDOROS_B1vPos,bpm_5RDOROS_B1hErr,bpm_5RDOROS_B1vErr,bpm_5LDOROS_B2Names,bpm_5LDOROS_B2hPos,bpm_5LDOROS_B2vPos,bpm_5LDOROS_B2hErr,bpm_5LDOROS_B2vErr,bpm_5RDOROS_B2Names,bpm_5RDOROS_B2hPos,bpm_5RDOROS_B2vPos,bpm_5RDOROS_B2hErr,bpm_5RDOROS_B2vErr,totsize,publishnnb,datasourceid,algoid,channelid,payloadtype,bstar5,xingHmurad
0,7218,323487,43,28,1537846132,119,1,1,3,32,ACQUIRING,MIXED,9,-0.043092045933,-0.0115747665986,0.036500159651,0.0115747665986,-0.036500159651,0.0,-0.0215460229665,-0.0,0.0215460229665,0,CROSSING,LHC.BPM.1L5.B1_D,-3134.71850586,-1464.45935059,1204.85351562,597.757141113,LHC.BPM.1R5.B1_D,3603.41992188,-1937.21862793,1379.56323242,825.721313477,LHC.BPM.1L5.B2_D,4149.06884766,-1553.9786377,1639.95947266,595.898193359,LHC.BPM.1R5.B2_D,-3774.81738281,-1911.3392334,1526.52026367,793.050231934,266,4,2,0,0,11,30,160
1,7218,323487,43,32,1537846133,633,1,1,3,32,ACQUIRING,MIXED,8,-0.043092045933,-0.0115747665986,0.036500159651,0.0115747665986,-0.036500159651,0.0,-0.0215460229665,-0.0,0.0215460229665,0,CROSSING,LHC.BPM.1L5.B1_D,-3134.11865234,-1464.37878418,1268.20227051,558.101989746,LHC.BPM.1R5.B1_D,3602.9387207,-1937.22570801,1466.67602539,704.967102051,LHC.BPM.1L5.B2_D,4148.54248047,-1554.46166992,1648.27453613,636.734802246,LHC.BPM.1R5.B2_D,-3774.19824219,-1910.9630127,1450.94421387,717.353027344,266,4,2,0,0,11,30,160
2,7218,323487,43,36,1537846135,45,1,1,3,32,ACQUIRING,MIXED,6,-0.043092045933,-0.0115747665986,0.036500159651,0.0115747665986,-0.036500159651,0.0,-0.0215460229665,-0.0,0.0215460229665,0,CROSSING,LHC.BPM.1L5.B1_D,-3133.91870117,-1463.69897461,1204.69750977,597.225158691,LHC.BPM.1R5.B1_D,3602.59008789,-1937.78967285,1379.28979492,826.171142578,LHC.BPM.1L5.B2_D,4148.09863281,-1554.6385498,1639.61315918,596.044616699,LHC.BPM.1R5.B2_D,-3773.96142578,-1910.6472168,1526.34423828,792.80645752,266,4,2,0,0,11,30,160
3,7218,323487,43,40,1537846136,565,1,1,3,32,ACQUIRING,MIXED,5,-0.043092045933,-0.0115747665986,0.036500159651,0.0115747665986,-0.036500159651,0.0,-0.0215460229665,-0.0,0.0215460229665,0,CROSSING,LHC.BPM.1L5.B1_D,-3134.58764648,-1463.65844727,1205.06079102,597.40625,LHC.BPM.1R5.B1_D,3602.99780273,-1937.7791748,1379.40771484,825.970153809,LHC.BPM.1L5.B2_D,4148.36132812,-1554.71313477,1639.8614502,596.061096191,LHC.BPM.1R5.B2_D,-3774.00219727,-1910.73791504,1526.41333008,792.86505127,266,4,2,0,0,11,30,160
4,7218,323487,43,44,1537846137,979,1,1,3,32,ACQUIRING,MIXED,3,-0.043092045933,-0.0115747665986,0.036500159651,0.0115747665986,-0.036500159651,0.0,-0.0215460229665,-0.0,0.0215460229665,0,CROSSING,LHC.BPM.1L5.B1_D,-3134.70776367,-1464.35571289,1268.46362305,558.44921875,LHC.BPM.1R5.B1_D,3602.89038086,-1937.25280762,1466.79711914,704.750183105,LHC.BPM.1L5.B2_D,4148.92919922,-1554.30041504,1648.68920898,636.474914551,LHC.BPM.1R5.B2_D,-3774.5925293,-1911.1796875,1451.37536621,717.733093262,266,4,2,0,0,11,30,160
5,7218,323487,43,48,1537846139,492,1,1,3,32,ACQUIRING,MIXED,2,-0.043092045933,-0.0115747665986,0.036500159651,0.0115747665986,-0.036500159651,0.0,-0.0215460229665,-0.0,0.0215460229665,0,CROSSING,LHC.BPM.1L5.B1_D,-3132.67602539,-1464.98156738,1267.80761719,558.517822266,LHC.BPM.1R5.B1_D,3601.73364258,-1936.55957031,1466.47436523,704.75213623,LHC.BPM.1L5.B2_D,4148.03613281,-1554.02099609,1648.22497559,636.502685547,LHC.BPM.1R5.B2_D,-3773.90283203,-1911.30224609,1450.99865723,717.675292969,266,4,2,0,0,11,30,160
6,7218,323487,44,8,1537846148,175,1,3,3,32,ACQUIRING,MIXED,10,-0.0323190353811,-0.0115747665986,0.041886664927,0.0115747665986,-0.041886664927,0.0,-0.0161595176905,-0.0,0.0161595176905,0,CROSSING,LHC.BPM.1L5.B1_D,-3130.01757812,-1465.0168457,1203.14318848,597.736755371,LHC.BPM.1R5.B1_D,3607.47631836,-1936.98657227,1381.34692383,825.727111816,LHC.BPM.1L5.B2_D,4141.15966797,-1553.21911621,1636.94274902,595.367248535,LHC.BPM.1R5.B2_D,-3775.87133789,-1911.89245605,1526.93579102,793.492797852,266,4,2,0,0,11,30,160
7,7218,323487,44,12,1537846149,688,1,3,3,32,ACQUIRING,MIXED,8,-0.0323190353811,-0.0115747665986,0.041886664927,0.0115747665986,-0.041886664927,0.0,-0.0161595176905,-0.0,0.0161595176905,0,CROSSING,LHC.BPM.1L5.B1_D,-3130.75683594,-1464.61242676,1267.28234863,558.32208252,LHC.BPM.1R5.B1_D,3608.35693359,-1937.41955566,1469.19470215,705.137695312,LHC.BPM.1L5.B2_D,4140.31005859,-1553.09936523,1644.81750488,636.208374023,LHC.BPM.1R5.B2_D,-3775.14038086,-1912.09643555,1451.32080078,717.836120605,266,4,2,0,0,11,30,160
8,7218,323487,44,16,1537846151,102,1,3,3,32,ACQUIRING,MIXED,7,-0.0323190353811,-0.0115747665986,0.041886664927,0.0115747665986,-0.041886664927,0.0,-0.0161595176905,-0.0,0.0161595176905,0,CROSSING,LHC.BPM.1L5.B1_D,-3129.33081055,-1464.33288574,1266.24499512,558.194946289,LHC.BPM.1R5.B1_D,3607.3762207,-1937.56689453,1468.26794434,705.195983887,LHC.BPM.1L5.B2_D,4140.00976562,-1553.8885498,1645.00390625,636.414306641,LHC.BPM.1R5.B2_D,-3774.74072266,-1911.33361816,1451.43798828,717.804077148,266,4,2,0,0,11,30,160
9,7218,323487,44,20,1537846152,513,1,3,3,32,ACQUIRING,MIXED,5,-0.0323190353811,-0.0115747665986,0.041886664927,0.0115747665986,-0.041886664927,0.0,-0.0161595176905,-0.0,0.0161595176905,0,CROSSING,LHC.BPM.1L5.B1_D,-3128.32226562,-1464.35241699,1202.26660156,597.654602051,LHC.BPM.1R5.B1_D,3606.27978516,-1937.65576172,1380.64233398,825.85723877,LHC.BPM.1L5.B2_D,4140.31787109,-1554.53564453,1636.76855469,596.297424316,LHC.BPM.1R5.B2_D,-3775.04223633,-1910.67102051,1526.74597168,792.399536133,266,4,2,0,0,11,30,160
10,7218,323487,44,24,1537846154,30,1,3,3,32,ACQUIRING,MIXED,4,-0.0323190353811,-0.0115747665986,0.041886664927,0.0115747665986,-0.041886664927,0.0,-0.0161595176905,-0.0,0.0161595176905,0,CROSSING,LHC.BPM.1L5.B1_D,-3127.60571289,-1464.45715332,1265.68249512,558.273925781,LHC.BPM.1R5.B1_D,3605.57617188,-1937.6463623,1467.71228027,705.185180664,LHC.BPM.1L5.B2_D,4140.70605469,-1555.09875488,1645.31347656,636.863952637,LHC.BPM.1R5.B2_D,-3775.27978516,-1910.06335449,1451.62573242,717.323730469,266,4,2,0,0,11,30,160
11,7218,323487,44,28,1537846155,449,1,3,3,32,ACQUIRING,MIXED,2,-0.0323190353811,-0.0115747665986,0.041886664927,0.0115747665986,-0.041886664927,0.0,-0.0161595176905,-0.0,0.0161595176905,0,CROSSING,LHC.BPM.1L5.B1_D,-3128.55664062,-1464.24829102,1266.21142578,558.112976074,LHC.BPM.1R5.B1_D,3606.31762695,-1937.84265137,1468.25183105,705.328063965,LHC.BPM.1L5.B2_D,4140.99072266,-1554.63427734,1645.43127441,636.570739746,LHC.BPM.1R5.B2_D,-3775.55297852,-1910.54138184,1451.67358398,717.534729004,266,4,2,0,0,11,30,160
12,7218,323487,44,32,1537846156,964,1,3,3,32,ACQUIRING,MIXED,1,-0.0323190353811,-0.0115747665986,0.041886664927,0.0115747665986,-0.041886664927,0.0,-0.0161595176905,-0.0,0.0161595176905,0,CROSSING,LHC.BPM.1L5.B1_D,-3129.06518555,-1464.07885742,1202.90185547,597.520263672,LHC.BPM.1R5.B1_D,3606.53930664,-1938.05969238,1380.87329102,826.043762207,LHC.BPM.1L5.B2_D,4141.36767578,-1554.29943848,1637.1920166,595.952941895,LHC.BPM.1R5.B2_D,-3775.91992188,-1911.0760498,1527.22094727,792.990783691,266,4,2,0,0,11,30,160
13,7218,323487,44,52,1537846164,239,1,5,3,32,ACQUIRING,MIXED,10,-0.0215460229665,-0.0115747665986,0.047273170203,0.0115747665986,-0.047273170203,0.0,-0.0107730114833,-0.0,0.0107730114833,0,CROSSING,LHC.BPM.1L5.B1_D,-3123.29833984,-1462.63769531,1200.47290039,596.856994629,LHC.BPM.1R5.B1_D,3614.24267578,-1939.96679688,1384.03344727,826.961547852,LHC.BPM.1L5.B2_D,4136.26074219,-1553.07507324,1634.90222168,595.465637207,LHC.BPM.1R5.B2_D,-3784.37915039,-1911.83215332,1530.41589355,793.378540039,266,4,2,0,0,11,30,160
14,7218,323487,44,56,1537846165,656,1,5,3,32,ACQUIRING,MIXED,9,-0.0215460229665,-0.0115747665986,0.047273170203,0.0115747665986,-0.047273170203,0.0,-0.0107730114833,-0.0,0.0107730114833,0,CROSSING,LHC.BPM.1L5.B1_D,-3123.62133789,-1462.53942871,1264.35375977,557.573669434,LHC.BPM.1R5.B1_D,3614.76416016,-1940.11401367,1471.60876465,706.05279541,LHC.BPM.1L5.B2_D,4135.94580078,-1552.74121094,1643.44897461,635.834838867,LHC.BPM.1R5.B2_D,-3784.01831055,-1912.17016602,1454.88867188,718.034484863,266,4,2,0,0,11,30,160
15,7218,323487,44,60,1537846167,170,1,5,3,32,ACQUIRING,MIXED,7,-0.0215460229665,-0.0115747665986,0.047273170203,0.0115747665986,-0.047273170203,0.0,-0.0107730114833,-0.0,0.0107730114833,0,CROSSING,LHC.BPM.1L5.B1_D,-3124.61889648,-1462.42004395,1264.46350098,557.369689941,LHC.BPM.1R5.B1_D,3615.62158203,-1940.11682129,1471.55249023,706.231445312,LHC.BPM.1L5.B2_D,4136.1484375,-1552.32019043,1643.62561035,635.791381836,LHC.BPM.1R5.B2_D,-3784.47998047,-1912.58679199,1455.22473145,717.980957031,266,4,2,0,0,11,30,160
16,7218,323487,44,64,1537846168,581,1,5,3,32,ACQUIRING,MIXED,6,-0.0215460229665,-0.0115747665986,0.047273170203,0.0115747665986,-0.047273170203,0.0,-0.0107730114833,-0.0,0.0107730114833,0,CROSSING,LHC.BPM.1L5.B1_D,-3123.93408203,-1462.43701172,1200.61450195,596.979309082,LHC.BPM.1R5.B1_D,3614.58032227,-1940.27832031,1383.94970703,826.914672852,LHC.BPM.1L5.B2_D,4136.86865234,-1553.28100586,1635.46740723,595.9375,LHC.BPM.1R5.B2_D,-3784.89331055,-1911.78674316,1530.78039551,793.131530762,266,4,2,0,0,11,30,160
17,7218,323487,45,4,1537846169,996,1,5,3,32,ACQUIRING,MIXED,4,-0.0215460229665,-0.0115747665986,0.047273170203,0.0115747665986,-0.047273170203,0.0,-0.0107730114833,-0.0,0.0107730114833,0,CROSSING,LHC.BPM.1L5.B1_D,-3123.58056641,-1462.97619629,1264.19238281,557.795349121,LHC.BPM.1R5.B1_D,3614.27636719,-1939.68994141,1471.31311035,705.764770508,LHC.BPM.1L5.B2_D,4137.55126953,-1553.04602051,1644.16906738,635.611694336,LHC.BPM.1R5.B2_D,-3785.6887207,-1911.77661133,1455.85180664,717.975036621,266,4,2,0,0,11,30,160
18,7218,323487,45,8,1537846171,514,1,5,3,32,ACQUIRING,MIXED,3,-0.0215460229665,-0.0115747665986,0.047273170203,0.0115747665986,-0.047273170203,0.0,-0.0107730114833,-0.0,0.0107730114833,0,CROSSING,LHC.BPM.1L5.B1_D,-3123.93164062,-1463.00915527,1264.32043457,557.599304199,LHC.BPM.1R5.B1_D,3614.50390625,-1939.68457031,1471.38049316,705.981384277,LHC.BPM.1L5.B2_D,4136.6875,-1552.78466797,1643.52038574,635.887634277,LHC.BPM.1R5.B2_D,-3784.91186523,-1912.31091309,1455.29541016,717.791748047,266,4,2,0,0,11,30,160
19,7218,323487,45,12,1537846172,927,1,5,3,32,ACQUIRING,MIXED,1,-0.0215460229665,-0.0115747665986,0.047273170203,0.0115747665986,-0.047273170203,0.0,-0.0107730114833,-0.0,0.0107730114833,0,CROSSING,LHC.BPM.1L5.B1_D,-3124.45898438,-1463.23718262,1201.1829834,597.382873535,LHC.BPM.1R5.B1_D,3615.09179688,-1939.4309082,1384.53369141,826.500061035,LHC.BPM.1L5.B2_D,4135.84814453,-1552.11877441,1634.77783203,594.924377441,LHC.BPM.1R5.B2_D,-3784.11157227,-1912.94299316,1530.11279297,794.241760254,266,4,2,0,0,11,30,160
20,7218,323487,45,32,1537846180,294,1,7,3,32,ACQUIRING,MIXED,10,-0.0107730114833,-0.0115747665986,0.0526596754789,0.0115747665986,-0.0526596754789,0.0,-0.00538650574163,-0.0,0.00538650574163,0,CROSSING,LHC.BPM.1L5.B1_D,-3118.31445312,-1464.25671387,1198.5670166,597.544372559,LHC.BPM.1R5.B1_D,3629.8828125,-1938.65905762,1390.36193848,826.304870605,LHC.BPM.1L5.B2_D,4122.74902344,-1552.15588379,1629.45947266,595.094787598,LHC.BPM.1R5.B2_D,-3790.50146484,-1912.72119141,1532.57141113,793.976989746,266,4,2,0,0,11,30,160
21,7218,323487,45,36,1537846181,708,1,7,3,32,ACQUIRING,MIXED,9,-0.0107730114833,-0.0115747665986,0.0526596754789,0.0115747665986,-0.0526596754789,0.0,-0.00538650574163,-0.0,0.00538650574163,0,CROSSING,LHC.BPM.1L5.B1_D,-3118.60986328,-1464.60241699,1262.34667969,558.523010254,LHC.BPM.1R5.B1_D,3630.04052734,-1938.40405273,1477.39099121,705.386352539,LHC.BPM.1L5.B2_D,4121.92382812,-1552.41137695,1637.84289551,635.953857422,LHC.BPM.1R5.B2_D,-3789.78662109,-1912.47143555,1457.34912109,717.706237793,266,4,2,0,0,11,30,160
22,7218,323487,45,40,1537846183,123,1,7,3,32,ACQUIRING,MIXED,8,-0.0107730114833,-0.0115747665986,0.0526596754789,0.0115747665986,-0.0526596754789,0.0,-0.00538650574163,-0.0,0.00538650574163,0,CROSSING,LHC.BPM.1L5.B1_D,-3118.83789062,-1465.21972656,1262.32043457,558.723632812,LHC.BPM.1R5.B1_D,3630.35668945,-1937.92077637,1477.48510742,705.183959961,LHC.BPM.1L5.B2_D,4121.27978516,-1552.10388184,1637.38330078,635.469055176,LHC.BPM.1R5.B2_D,-3789.03125,-1912.89147949,1456.77966309,718.209289551,266,4,2,0,0,11,30,160
23,7218,323487,45,44,1537846184,636,1,7,3,32,ACQUIRING,MIXED,6,-0.0107730114833,-0.0115747665986,0.0526596754789,0.0115747665986,-0.0526596754789,0.0,-0.00538650574163,-0.0,0.00538650574163,0,CROSSING,LHC.BPM.1L5.B1_D,-3118.23266602,-1465.45410156,1198.30773926,598.028747559,LHC.BPM.1R5.B1_D,3630.03515625,-1937.69067383,1390.27087402,825.955749512,LHC.BPM.1L5.B2_D,4121.109375,-1552.07897949,1629.27746582,595.32232666,LHC.BPM.1R5.B2_D,-3788.65527344,-1912.96655273,1532.24780273,793.874755859,266,4,2,0,0,11,30,160
24,7218,323487,45,48,1537846186,50,1,7,3,32,ACQUIRING,MIXED,5,-0.0107730114833,-0.0115747665986,0.0526596754789,0.0115747665986,-0.0526596754789,0.0,-0.00538650574163,-0.0,0.00538650574163,0,CROSSING,LHC.BPM.1L5.B1_D,-3118.73730469,-1465.2989502,1262.7166748,558.602111816,LHC.BPM.1R5.B1_D,3630.11352539,-1937.90441895,1477.54772949,705.353027344,LHC.BPM.1L5.B2_D,4121.69189453,-1552.29223633,1637.84570312,635.638977051,LHC.BPM.1R5.B2_D,-3789.29052734,-1912.59069824,1457.28442383,717.909484863,266,4,2,0,0,11,30,160
25,7218,323487,45,52,1537846187,575,1,7,3,32,ACQUIRING,MIXED,3,-0.0107730114833,-0.0115747665986,0.0526596754789,0.0115747665986,-0.0526596754789,0.0,-0.00538650574163,-0.0,0.00538650574163,0,CROSSING,LHC.BPM.1L5.B1_D,-3118.65087891,-1465.85009766,1262.38842773,558.675292969,LHC.BPM.1R5.B1_D,3630.1706543,-1937.36474609,1477.63000488,705.219726562,LHC.BPM.1L5.B2_D,4121.73046875,-1552.25720215,1637.43725586,635.674194336,LHC.BPM.1R5.B2_D,-3789.1809082,-1912.76855469,1456.72631836,717.972900391,266,4,2,0,0,11,30,160
26,7218,323487,45,56,1537846188,989,1,7,3,32,ACQUIRING,MIXED,2,-0.0107730114833,-0.0115747665986,0.0526596754789,0.0115747665986,-0.0526596754789,0.0,-0.00538650574163,-0.0,0.00538650574163,0,CROSSING,LHC.BPM.1L5.B1_D,-3119.30859375,-1465.33947754,1199.09130859,597.984985352,LHC.BPM.1R5.B1_D,3630.96337891,-1937.82836914,1390.86413574,826.030944824,LHC.BPM.1L5.B2_D,4121.60400391,-1552.07177734,1629.62646484,595.122192383,LHC.BPM.1R5.B2_D,-3789.47412109,-1912.84509277,1532.96496582,794.027038574,266,4,2,0,0,11,30,160
27,7218,323487,46,16,1537846197,779,1,9,3,32,ACQUIRING,MIXED,10,0.0,-0.0115747665986,0.0580461844802,0.0115747665986,-0.0580461844802,0.0,0.0,-0.0,-0.0,0,CROSSING,LHC.BPM.1L5.B1_D,-3107.47192383,-1463.64331055,1258.23400879,558.147155762,LHC.BPM.1R5.B1_D,3644.95507812,-1939.87353516,1483.52001953,706.101623535,LHC.BPM.1L5.B2_D,4104.67822266,-1551.15527344,1630.96875,634.961425781,LHC.BPM.1R5.B2_D,-3797.07788086,-1913.77856445,1459.92468262,718.756347656,266,4,2,0,0,11,30,160
28,7218,323487,46,20,1537846199,191,1,9,3,32,ACQUIRING,MIXED,8,0.0,-0.0115747665986,0.0580461844802,0.0115747665986,-0.0580461844802,0.0,0.0,-0.0,-0.0,0,CROSSING,LHC.BPM.1L5.B1_D,-3107.61010742,-1463.61547852,1257.71472168,558.265380859,LHC.BPM.1R5.B1_D,3644.30371094,-1940.02294922,1482.62109375,706.015869141,LHC.BPM.1L5.B2_D,4104.70507812,-1550.7989502,1631.22717285,634.986022949,LHC.BPM.1R5.B2_D,-3796.99780273,-1914.16467285,1460.17456055,718.78515625,266,4,2,0,0,11,30,160
29,7218,323487,46,24,1537846200,603,1,9,3,32,ACQUIRING,MIXED,7,0.0,-0.0115747665986,0.0580461844802,0.0115747665986,-0.0580461844802,0.0,0.0,-0.0,-0.0,0,CROSSING,LHC.BPM.1L5.B1_D,-3106.76660156,-1464.10070801,1193.90405273,597.438659668,LHC.BPM.1R5.B1_D,3643.76196289,-1939.60327148,1396.02502441,826.67590332,LHC.BPM.1L5.B2_D,4104.83251953,-1549.79577637,1622.60400391,594.006652832,LHC.BPM.1R5.B2_D,-3797.38256836,-1915.02368164,1535.81018066,794.964477539,266,4,2,0,0,11,30,160
30,7218,323487,46,28,1537846202,117,1,9,3,32,ACQUIRING,MIXED,5,0.0,-0.0115747665986,0.0580461844802,0.0115747665986,-0.0580461844802,0.0,0.0,-0.0,-0.0,0,CROSSING,LHC.BPM.1L5.B1_D,-3108.80615234,-1462.62854004,1194.5369873,597.014831543,LHC.BPM.1R5.B1_D,3645.73730469,-1941.1463623,1396.47888184,827.248535156,LHC.BPM.1L5.B2_D,4103.51855469,-1550.25170898,1622.22070312,594.418518066,LHC.BPM.1R5.B2_D,-3796.14892578,-1914.60302734,1535.38452148,794.617248535,266,4,2,0,0,11,30,160
31,7218,323487,46,32,1537846203,529,1,9,3,32,ACQUIRING,MIXED,4,0.0,-0.0115747665986,0.0580461844802,0.0115747665986,-0.0580461844802,0.0,0.0,-0.0,-0.0,0,CROSSING,LHC.BPM.1L5.B1_D,-3108.0300293,-1462.72741699,1258.08312988,557.61529541,LHC.BPM.1R5.B1_D,3645.3894043,-1941.04931641,1483.45678711,706.591186523,LHC.BPM.1L5.B2_D,4103.06103516,-1550.52612305,1630.2142334,635.160766602,LHC.BPM.1R5.B2_D,-3795.75976562,-1914.39428711,1459.31518555,718.640380859,266,4,2,0,0,11,30,160
32,7218,323487,46,36,1537846205,43,1,9,3,32,ACQUIRING,MIXED,2,0.0,-0.0115747665986,0.0580461844802,0.0115747665986,-0.0580461844802,0.0,0.0,-0.0,-0.0,0,CROSSING,LHC.BPM.1L5.B1_D,-3107.53198242,-1462.8770752,1194.14697266,597.127075195,LHC.BPM.1R5.B1_D,3644.73388672,-1940.9786377,1395.96337891,827.190856934,LHC.BPM.1L5.B2_D,4103.19384766,-1550.54052734,1622.33044434,594.427490234,LHC.BPM.1R5.B2_D,-3795.76196289,-1914.29443359,1535.39086914,794.538818359,266,4,2,0,0,11,30,160
33,7218,323487,46,40,1537846206,465,1,9,3,32,ACQUIRING,MIXED,1,0.0,-0.0115747665986,0.0580461844802,0.0115747665986,-0.0580461844802,0.0,0.0,-0.0,-0.0,0,CROSSING,LHC.BPM.1L5.B1_D,-3107.17700195,-1462.7611084,1194.36279297,596.994689941,LHC.BPM.1R5.B1_D,3644.4543457,-1941.15625,1396.37854004,827.421508789,LHC.BPM.1L5.B2_D,4104.00683594,-1550.43896484,1622.35925293,594.38684082,LHC.BPM.1R5.B2_D,-3796.30053711,-1914.23449707,1535.3560791,794.309020996,266,4,2,0,0,11,30,160
34,7218,323487,46,60,1537846213,740,1,11,3,32,ACQUIRING,MIXED,10,0.0107730114833,-0.0115747665986,0.0634326860309,0.0115747665986,-0.0634326860309,0.0,0.00538650574163,-0.0,-0.00538650574163,0,CROSSING,LHC.BPM.1L5.B1_D,-3095.71801758,-1462.31652832,1253.35424805,557.258850098,LHC.BPM.1R5.B1_D,3659.0715332,-1941.56079102,1488.99609375,706.822998047,LHC.BPM.1L5.B2_D,4088.68310547,-1549.06079102,1624.94042969,634.493835449,LHC.BPM.1R5.B2_D,-3806.40039062,-1915.84460449,1463.95874023,719.419189453,266,4,2,0,0,11,30,160
35,7218,323487,46,64,1537846215,169,1,11,3,32,ACQUIRING,MIXED,9,0.0107730114833,-0.0115747665986,0.0634326860309,0.0115747665986,-0.0634326860309,0.0,0.00538650574163,-0.0,-0.00538650574163,0,CROSSING,LHC.BPM.1L5.B1_D,-3096.20166016,-1462.26745605,1253.71166992,557.500061035,LHC.BPM.1R5.B1_D,3659.01171875,-1941.62756348,1489.1373291,706.598144531,LHC.BPM.1L5.B2_D,4088.66894531,-1548.75976562,1624.98144531,634.217224121,LHC.BPM.1R5.B2_D,-3806.54833984,-1916.47595215,1464.03833008,719.920715332,266,4,2,0,0,11,30,160
36,7218,323487,47,4,1537846216,685,1,11,3,32,ACQUIRING,MIXED,7,0.0107730114833,-0.0115747665986,0.0634326860309,0.0115747665986,-0.0634326860309,0.0,0.00538650574163,-0.0,-0.00538650574163,0,CROSSING,LHC.BPM.1L5.B1_D,-3096.40307617,-1462.46057129,1189.76123047,596.918701172,LHC.BPM.1R5.B1_D,3659.375,-1941.36804199,1401.8815918,827.515991211,LHC.BPM.1L5.B2_D,4088.73706055,-1548.67785645,1616.14978027,593.898620605,LHC.BPM.1R5.B2_D,-3806.66723633,-1916.23510742,1539.31799316,794.818237305,266,4,2,0,0,11,30,160
37,7218,323487,47,8,1537846218,104,1,11,3,32,ACQUIRING,MIXED,6,0.0107730114833,-0.0115747665986,0.0634326860309,0.0115747665986,-0.0634326860309,0.0,0.00538650574163,-0.0,-0.00538650574163,0,CROSSING,LHC.BPM.1L5.B1_D,-3096.6730957,-1462.70495605,1189.77453613,596.975402832,LHC.BPM.1R5.B1_D,3659.43359375,-1941.2175293,1401.88989258,827.576660156,LHC.BPM.1L5.B2_D,4088.65917969,-1548.80737305,1616.22192383,593.891418457,LHC.BPM.1R5.B2_D,-3806.77929688,-1916.25732422,1539.42663574,794.892333984,266,4,2,0,0,11,30,160
38,7218,323487,47,12,1537846219,618,1,11,3,32,ACQUIRING,MIXED,4,0.0107730114833,-0.0115747665986,0.0634326860309,0.0115747665986,-0.0634326860309,0.0,0.00538650574163,-0.0,-0.00538650574163,0,CROSSING,LHC.BPM.1L5.B1_D,-3096.34472656,-1462.77636719,1253.66625977,557.690979004,LHC.BPM.1R5.B1_D,3659.22558594,-1941.20605469,1489.02514648,706.409484863,LHC.BPM.1L5.B2_D,4088.54858398,-1548.89343262,1624.77954102,634.401062012,LHC.BPM.1R5.B2_D,-3806.64746094,-1916.10620117,1463.92907715,719.748352051,266,4,2,0,0,11,30,160
39,7218,323487,47,16,1537846221,38,1,11,3,32,ACQUIRING,MIXED,3,0.0107730114833,-0.0115747665986,0.0634326860309,0.0115747665986,-0.0634326860309,0.0,0.00538650574163,-0.0,-0.00538650574163,0,CROSSING,LHC.BPM.1L5.B1_D,-3096.23168945,-1463.27526855,1189.68920898,597.368408203,LHC.BPM.1R5.B1_D,3659.53442383,-1940.71020508,1402.13684082,827.1875,LHC.BPM.1L5.B2_D,4089.15942383,-1548.7154541,1616.70458984,593.750366211,LHC.BPM.1R5.B2_D,-3807.22485352,-1916.20031738,1539.88525391,794.972290039,266,4,2,0,0,11,30,160
40,7218,323487,47,20,1537846222,451,1,11,3,32,ACQUIRING,MIXED,1,0.0107730114833,-0.0115747665986,0.0634326860309,0.0115747665986,-0.0634326860309,0.0,0.00538650574163,-0.0,-0.00538650574163,0,CROSSING,LHC.BPM.1L5.B1_D,-3097.30053711,-1463.29199219,1190.04223633,597.349975586,LHC.BPM.1R5.B1_D,3660.19506836,-1940.67443848,1402.46838379,827.302001953,LHC.BPM.1L5.B2_D,4089.14624023,-1548.58447266,1616.39440918,593.707214355,LHC.BPM.1R5.B2_D,-3807.3125,-1916.3046875,1539.52770996,795.033325195,266,4,2,0,0,11,30,160
41,7218,323487,47,40,1537846229,822,1,13,3,32,ACQUIRING,MIXED,10,0.0215460229665,-0.0115747665986,0.0688191950321,0.0115747665986,-0.0688191950321,0.0,0.0107730114833,-0.0,-0.0107730114833,0,CROSSING,LHC.BPM.1L5.B1_D,-3087.63964844,-1463.71032715,1250.25427246,557.890563965,LHC.BPM.1R5.B1_D,3671.45288086,-1940.18933105,1493.89782715,706.188354492,LHC.BPM.1L5.B2_D,4076.14746094,-1547.48669434,1619.72912598,634.046936035,LHC.BPM.1R5.B2_D,-3814.63598633,-1917.8572998,1467.30310059,720.173095703,266,4,2,0,0,11,30,160
42,7218,323487,47,44,1537846231,241,1,13,3,32,ACQUIRING,MIXED,9,0.0215460229665,-0.0115747665986,0.0688191950321,0.0115747665986,-0.0688191950321,0.0,0.0107730114833,-0.0,-0.0107730114833,0,CROSSING,LHC.BPM.1L5.B1_D,-3087.07080078,-1463.41259766,1249.63806152,557.921569824,LHC.BPM.1R5.B1_D,3671.31982422,-1940.44238281,1493.30712891,706.217529297,LHC.BPM.1L5.B2_D,4075.13720703,-1547.77746582,1619.29064941,634.165771484,LHC.BPM.1R5.B2_D,-3814.0949707,-1917.53588867,1466.84802246,720.047973633,266,4,2,0,0,11,30,160
43,7218,323487,47,48,1537846232,660,1,13,3,32,ACQUIRING,MIXED,8,0.0215460229665,-0.0115747665986,0.0688191950321,0.0115747665986,-0.0688191950321,0.0,0.0107730114833,-0.0,-0.0107730114833,0,CROSSING,LHC.BPM.1L5.B1_D,-3086.54370117,-1463.08862305,1186.09790039,597.007446289,LHC.BPM.1R5.B1_D,3670.62255859,-1940.77355957,1406.64147949,827.456604004,LHC.BPM.1L5.B2_D,4074.76367188,-1548.08166504,1610.82873535,593.490783691,LHC.BPM.1R5.B2_D,-3813.57226562,-1917.53857422,1542.01379395,795.758544922,266,4,2,0,0,11,30,160
44,7218,323487,47,52,1537846234,175,1,13,3,32,ACQUIRING,MIXED,6,0.0215460229665,-0.0115747665986,0.0688191950321,0.0115747665986,-0.0688191950321,0.0,0.0107730114833,-0.0,-0.0107730114833,0,CROSSING,LHC.BPM.1L5.B1_D,-3085.3215332,-1463.70922852,1185.49597168,597.386230469,LHC.BPM.1R5.B1_D,3669.94970703,-1940.12573242,1406.29321289,827.091186523,LHC.BPM.1L5.B2_D,4075.37329102,-1546.86645508,1611.2331543,593.021972656,LHC.BPM.1R5.B2_D,-3814.06762695,-1918.49853516,1542.58813477,796.122802734,266,4,2,0,0,11,30,160
45,7218,323487,47,56,1537846235,592,1,13,3,32,ACQUIRING,MIXED,5,0.0215460229665,-0.0115747665986,0.0688191950321,0.0115747665986,-0.0688191950321,0.0,0.0107730114833,-0.0,-0.0107730114833,0,CROSSING,LHC.BPM.1L5.B1_D,-3085.04882812,-1463.58618164,1249.07250977,557.941345215,LHC.BPM.1R5.B1_D,3669.49658203,-1940.17944336,1492.7800293,706.117980957,LHC.BPM.1L5.B2_D,4076.13745117,-1547.34411621,1619.98303223,634.050231934,LHC.BPM.1R5.B2_D,-3814.8203125,-1918.0411377,1467.26599121,720.081176758,266,4,2,0,0,11,30,160
46,7218,323487,47,60,1537846237,106,1,13,3,32,ACQUIRING,MIXED,3,0.0215460229665,-0.0115747665986,0.0688191950321,0.0115747665986,-0.0688191950321,0.0,0.0107730114833,-0.0,-0.0107730114833,0,CROSSING,LHC.BPM.1L5.B1_D,-3084.91333008,-1463.31018066,1249.37768555,557.711303711,LHC.BPM.1R5.B1_D,3668.84130859,-1940.5411377,1492.89660645,706.301696777,LHC.BPM.1L5.B2_D,4077.3996582,-1547.37268066,1621.23950195,633.65838623,LHC.BPM.1R5.B2_D,-3816.33886719,-1918.27868652,1468.61474609,720.4765625,266,4,2,0,0,11,30,160
47,7218,323487,47,64,1537846238,518,1,13,3,32,ACQUIRING,MIXED,2,0.0215460229665,-0.0115747665986,0.0688191950321,0.0115747665986,-0.0688191950321,0.0,0.0107730114833,-0.0,-0.0107730114833,0,CROSSING,LHC.BPM.1L5.B1_D,-3085.90576172,-1463.52185059,1185.87060547,597.55871582,LHC.BPM.1R5.B1_D,3670.12695312,-1940.29150391,1406.68103027,826.994689941,LHC.BPM.1L5.B2_D,4082.94384766,-1545.70385742,1615.38244629,592.116394043,LHC.BPM.1R5.B2_D,-3822.31640625,-1919.74841309,1547.16760254,797.091064453,266,4,2,0,0,11,30,160
48,7218,323487,48,24,1537846247,303,1,15,3,32,ACQUIRING,MIXED,10,0.0323190353811,-0.0115747665986,0.0742057040334,0.0115747665986,-0.0742057040334,0.0,0.0161595176905,-0.0,-0.0161595176905,0,CROSSING,LHC.BPM.1L5.B1_D,-3085.64697266,-1463.02453613,1249.53649902,557.954528809,LHC.BPM.1R5.B1_D,3682.78857422,-1940.91748047,1498.4486084,706.103271484,LHC.BPM.1L5.B2_D,4094.39135742,-1543.61132812,1627.1595459,632.530944824,LHC.BPM.1R5.B2_D,-3847.43505859,-1922.15356445,1479.91662598,721.987609863,266,4,2,0,0,11,30,160
49,7218,323487,48,28,1537846248,717,1,15,3,32,ACQUIRING,MIXED,8,0.0323190353811,-0.0115747665986,0.0742057040334,0.0115747665986,-0.0742057040334,0.0,0.0161595176905,-0.0,-0.0161595176905,0,CROSSING,LHC.BPM.1L5.B1_D,-3085.92749023,-1463.99230957,1185.75415039,597.705993652,LHC.BPM.1R5.B1_D,3683.63989258,-1939.90698242,1411.82397461,826.916381836,LHC.BPM.1L5.B2_D,4093.08300781,-1543.75549316,1617.53210449,591.727600098,LHC.BPM.1R5.B2_D,-3846.18969727,-1921.74438477,1554.72290039,797.190124512,266,4,2,0,0,11,30,160
50,7218,323487,48,32,1537846250,130,1,15,3,32,ACQUIRING,MIXED,7,0.0323190353811,-0.0115747665986,0.0742057040334,0.0115747665986,-0.0742057040334,0.0,0.0161595176905,-0.0,-0.0161595176905,0,CROSSING,LHC.BPM.1L5.B1_D,-3085.34619141,-1464.42810059,1185.20629883,597.946289062,LHC.BPM.1R5.B1_D,3682.73803711,-1939.42236328,1411.29016113,826.603393555,LHC.BPM.1L5.B2_D,4091.25756836,-1544.7701416,1617.12719727,591.997375488,LHC.BPM.1R5.B2_D,-3844.3515625,-1921.02416992,1554.16601562,797.097351074,266,4,2,0,0,11,30,160
51,7218,323487,48,36,1537846251,643,1,15,3,32,ACQUIRING,MIXED,5,0.0323190353811,-0.0115747665986,0.0742057040334,0.0115747665986,-0.0742057040334,0.0,0.0161595176905,-0.0,-0.0161595176905,0,CROSSING,LHC.BPM.1L5.B1_D,-3085.22827148,-1464.3145752,1249.53051758,557.966186523,LHC.BPM.1R5.B1_D,3682.98999023,-1939.52111816,1498.46936035,706.109863281,LHC.BPM.1L5.B2_D,4089.71069336,-1544.42102051,1624.89990234,632.790405273,LHC.BPM.1R5.B2_D,-3842.89624023,-1921.2064209,1477.87915039,721.658935547,266,4,2,0,0,11,30,160
52,7218,323487,48,40,1537846253,55,1,15,3,32,ACQUIRING,MIXED,4,0.0323190353811,-0.0115747665986,0.0742057040334,0.0115747665986,-0.0742057040334,0.0,0.0161595176905,-0.0,-0.0161595176905,0,CROSSING,LHC.BPM.1L5.B1_D,-3086.03515625,-1463.95422363,1185.84350586,597.668640137,LHC.BPM.1R5.B1_D,3683.94628906,-1939.91845703,1412.04638672,826.927307129,LHC.BPM.1L5.B2_D,4088.36499023,-1544.39038086,1616.0657959,591.971496582,LHC.BPM.1R5.B2_D,-3841.41210938,-1921.30395508,1553.00439453,797.172302246,266,4,2,0,0,11,30,160
53,7218,323487,48,44,1537846254,569,1,15,3,32,ACQUIRING,MIXED,2,0.0323190353811,-0.0115747665986,0.0742057040334,0.0115747665986,-0.0742057040334,0.0,0.0161595176905,-0.0,-0.0161595176905,0,CROSSING,LHC.BPM.1L5.B1_D,-3085.51025391,-1463.16223145,1185.04589844,597.546020508,LHC.BPM.1R5.B1_D,3683.26464844,-1940.67370605,1411.2232666,827.032897949,LHC.BPM.1L5.B2_D,4085.57788086,-1544.49938965,1615.33874512,592.094848633,LHC.BPM.1R5.B2_D,-3838.33007812,-1921.21960449,1552.04406738,797.004821777,266,4,2,0,0,11,30,160
54,7218,323487,48,48,1537846255,984,1,15,3,32,ACQUIRING,MIXED,1,0.0323190353811,-0.0115747665986,0.0742057040334,0.0115747665986,-0.0742057040334,0.0,0.0161595176905,-0.0,-0.0161595176905,0,CROSSING,LHC.BPM.1L5.B1_D,-3083.53564453,-1462.8996582,1248.37060547,557.250732422,LHC.BPM.1R5.B1_D,3681.42333984,-1940.84924316,1497.31420898,706.738037109,LHC.BPM.1L5.B2_D,4085.86132812,-1545.05163574,1623.6484375,633.195068359,LHC.BPM.1R5.B2_D,-3838.87744141,-1920.62194824,1476.84570312,721.289367676,266,4,2,0,0,11,30,160
55,7218,323487,49,8,1537846264,770,1,17,3,32,ACQUIRING,MIXED,9,0.043092045933,-0.0115747665986,0.079592205584,0.0115747665986,-0.079592205584,0.0,0.0215460229665,-0.0,-0.0215460229665,0,CROSSING,LHC.BPM.1L5.B1_D,-3077.07836914,-1461.44995117,1182.49194336,596.87286377,LHC.BPM.1R5.B1_D,3684.33618164,-1941.80664062,1412.28649902,827.390319824,LHC.BPM.1L5.B2_D,4074.51342773,-1544.51245117,1610.57104492,592.110534668,LHC.BPM.1R5.B2_D,-3836.58374023,-1921.7076416,1551.07971191,797.371398926,266,4,2,0,0,11,30,160
56,7218,323487,49,12,1537846266,183,1,17,3,32,ACQUIRING,MIXED,8,0.043092045933,-0.0115747665986,0.079592205584,0.0115747665986,-0.079592205584,0.0,0.0215460229665,-0.0,-0.0215460229665,0,CROSSING,LHC.BPM.1L5.B1_D,-3079.28857422,-1462.5333252,1183.31518555,597.266113281,LHC.BPM.1R5.B1_D,3685.75317383,-1940.87072754,1412.77062988,827.09588623,LHC.BPM.1L5.B2_D,4074.88574219,-1543.52722168,1611.18383789,591.600463867,LHC.BPM.1R5.B2_D,-3836.94873047,-1922.89160156,1551.63513184,797.939575195,266,4,2,0,0,11,30,160
57,7218,323487,49,16,1537846267,696,1,17,3,32,ACQUIRING,MIXED,6,0.043092045933,-0.0115747665986,0.079592205584,0.0115747665986,-0.079592205584,0.0,0.0215460229665,-0.0,-0.0215460229665,0,CROSSING,LHC.BPM.1L5.B1_D,-3079.54418945,-1462.54321289,1246.96203613,557.25213623,LHC.BPM.1R5.B1_D,3686.05957031,-1940.94555664,1499.44506836,706.766113281,LHC.BPM.1L5.B2_D,4075.02734375,-1543.27880859,1619.24291992,632.280151367,LHC.BPM.1R5.B2_D,-3837.12841797,-1923.19897461,1475.90844727,722.40222168,266,4,2,0,0,11,30,160
58,7218,323487,49,20,1537846269,111,1,17,3,32,ACQUIRING,MIXED,5,0.043092045933,-0.0115747665986,0.079592205584,0.0115747665986,-0.079592205584,0.0,0.0215460229665,-0.0,-0.0215460229665,0,CROSSING,LHC.BPM.1L5.B1_D,-3078.70458984,-1462.24682617,1247.12304688,557.351989746,LHC.BPM.1R5.B1_D,3685.53613281,-1941.05627441,1499.54846191,706.65802002,LHC.BPM.1L5.B2_D,4074.61254883,-1542.62878418,1619.48266602,632.032775879,LHC.BPM.1R5.B2_D,-3836.67431641,-1923.66442871,1476.02075195,722.691345215,266,4,2,0,0,11,30,160
59,7218,323487,49,24,1537846270,623,1,17,3,32,ACQUIRING,MIXED,3,0.043092045933,-0.0115747665986,0.079592205584,0.0115747665986,-0.079592205584,0.0,0.0215460229665,-0.0,-0.0215460229665,0,CROSSING,LHC.BPM.1L5.B1_D,-3079.51806641,-1462.48974609,1183.14013672,597.130187988,LHC.BPM.1R5.B1_D,3686.03100586,-1940.93249512,1412.65014648,827.198059082,LHC.BPM.1L5.B2_D,4075.14916992,-1542.92858887,1611.05505371,591.577941895,LHC.BPM.1R5.B2_D,-3837.16088867,-1923.57958984,1551.56469727,797.958190918,266,4,2,0,0,11,30,160
60,7218,323487,49,28,1537846272,36,1,17,3,32,ACQUIRING,MIXED,2,0.043092045933,-0.0115747665986,0.079592205584,0.0115747665986,-0.079592205584,0.0,0.0215460229665,-0.0,-0.0215460229665,0,CROSSING,LHC.BPM.1L5.B1_D,-3079.25,-1462.77319336,1246.92382812,557.571411133,LHC.BPM.1R5.B1_D,3686.27368164,-1940.59912109,1499.74890137,706.389953613,LHC.BPM.1L5.B2_D,4075.62646484,-1543.5291748,1619.8651123,632.510009766,LHC.BPM.1R5.B2_D,-3837.60742188,-1922.76184082,1476.37231445,722.042907715,266,4,2,0,0,11,30,160
61,7218,323487,50,32,1537846296,798,1,1,3,32,ACQUIRING,MIXED,9,-0.0307800341398,-0.0269647836685,0.0580461844802,0.0269647836685,-0.0580461844802,-0.0153900170699,0.0,0.0153900170699,-0.0,0,SEPARATION,LHC.BPM.1L5.B1_D,-3112.99072266,-1494.59130859,1196.33325195,609.710510254,LHC.BPM.1R5.B1_D,3650.48339844,-1966.70288086,1398.52258301,837.377624512,LHC.BPM.1L5.B2_D,4111.42822266,-1519.35302734,1625.61889648,582.17199707,LHC.BPM.1R5.B2_D,-3805.94921875,-1890.35107422,1539.10742188,784.901245117,266,4,2,0,0,11,30,160
62,7218,323487,50,36,1537846298,211,1,1,3,32,ACQUIRING,MIXED,8,-0.0307800341398,-0.0269647836685,0.0580461844802,0.0269647836685,-0.0580461844802,-0.0153900170699,0.0,0.0153900170699,-0.0,0,SEPARATION,LHC.BPM.1L5.B1_D,-3112.61035156,-1494.05371094,1196.24584961,609.383056641,LHC.BPM.1R5.B1_D,3650.10791016,-1967.3605957,1398.44116211,837.837646484,LHC.BPM.1L5.B2_D,4113.04150391,-1519.19458008,1625.95996094,582.250488281,LHC.BPM.1R5.B2_D,-3807.46020508,-1890.34887695,1539.52783203,784.727600098,266,4,2,0,0,11,30,160
63,7218,323487,50,40,1537846299,724,1,1,3,32,ACQUIRING,MIXED,7,-0.0307800341398,-0.0269647836685,0.0580461844802,0.0269647836685,-0.0580461844802,-0.0153900170699,0.0,0.0153900170699,-0.0,0,SEPARATION,LHC.BPM.1L5.B1_D,-3111.95239258,-1493.99694824,1259.68774414,570.008361816,LHC.BPM.1R5.B1_D,3649.7746582,-1967.3894043,1485.21557617,716.936645508,LHC.BPM.1L5.B2_D,4112.30273438,-1518.74206543,1634.08776855,622.239318848,LHC.BPM.1R5.B2_D,-3806.90966797,-1890.83459473,1464.26647949,710.056274414,266,4,2,0,0,11,30,160
64,7218,323487,50,44,1537846301,138,1,1,3,32,ACQUIRING,MIXED,5,-0.0307800341398,-0.0269647836685,0.0580461844802,0.0269647836685,-0.0580461844802,-0.0153900170699,0.0,0.0153900170699,-0.0,0,SEPARATION,LHC.BPM.1L5.B1_D,-3112.16943359,-1493.58605957,1259.43652344,569.404907227,LHC.BPM.1R5.B1_D,3649.41333008,-1967.77099609,1484.86572266,717.52142334,LHC.BPM.1L5.B2_D,4113.04589844,-1518.97717285,1634.21374512,622.70703125,LHC.BPM.1R5.B2_D,-3807.05004883,-1890.6348877,1464.23083496,709.464050293,266,4,2,0,0,11,30,160
65,7218,323487,50,48,1537846302,652,1,1,3,32,ACQUIRING,MIXED,4,-0.0307800341398,-0.0269647836685,0.0580461844802,0.0269647836685,-0.0580461844802,-0.0153900170699,0.0,0.0153900170699,-0.0,0,SEPARATION,LHC.BPM.1L5.B1_D,-3111.46240234,-1493.45812988,1196.10803223,609.575073242,LHC.BPM.1R5.B1_D,3649.00488281,-1967.88513184,1398.18762207,837.658081055,LHC.BPM.1L5.B2_D,4112.51855469,-1518.78417969,1626.01037598,581.827148438,LHC.BPM.1R5.B2_D,-3806.80517578,-1890.88195801,1539.48474121,785.369934082,266,4,2,0,0,11,30,160
66,7218,323487,50,52,1537846304,64,1,1,3,32,ACQUIRING,MIXED,2,-0.0307800341398,-0.0269647836685,0.0580461844802,0.0269647836685,-0.0580461844802,-0.0153900170699,0.0,0.0153900170699,-0.0,0,SEPARATION,LHC.BPM.1L5.B1_D,-3110.5625,-1493.21276855,1195.26977539,609.542602539,LHC.BPM.1R5.B1_D,3648.60498047,-1968.09106445,1397.6003418,837.736755371,LHC.BPM.1L5.B2_D,4108.93945312,-1519.73950195,1623.46655273,582.399414062,LHC.BPM.1R5.B2_D,-3802.99365234,-1889.7923584,1536.85546875,784.753845215,266,4,2,0,0,11,30,160
67,7218,323487,50,56,1537846305,578,1,1,3,32,ACQUIRING,MIXED,1,-0.0307800341398,-0.0269647836685,0.0580461844802,0.0269647836685,-0.0580461844802,-0.0153900170699,0.0,0.0153900170699,-0.0,0,SEPARATION,LHC.BPM.1L5.B1_D,-3110.18725586,-1493.75512695,1259.28161621,569.677124023,LHC.BPM.1R5.B1_D,3647.84155273,-1967.53588867,1484.54309082,717.167297363,LHC.BPM.1L5.B2_D,4104.92578125,-1520.43286133,1630.7487793,623.446838379,LHC.BPM.1R5.B2_D,-3798.8449707,-1889.13208008,1460.59033203,708.703063965,266,4,2,0,0,11,30,160
68,7218,323487,51,12,1537846312,846,1,3,3,32,ACQUIRING,MIXED,9,-0.0230850260705,-0.0231172796339,0.0580461844802,0.0231172796339,-0.0580461844802,-0.0115425130352,0.0,0.0115425130352,-0.0,0,SEPARATION,LHC.BPM.1L5.B1_D,-3113.47900391,-1489.26525879,1196.51257324,607.92980957,LHC.BPM.1R5.B1_D,3651.49633789,-1966.54675293,1398.8034668,837.057617188,LHC.BPM.1L5.B2_D,4082.36499023,-1527.47265625,1613.94128418,585.259338379,LHC.BPM.1R5.B2_D,-3775.60693359,-1887.79345703,1527.3560791,784.112731934,266,4,2,0,0,11,30,160
69,7218,323487,51,16,1537846314,259,1,3,3,32,ACQUIRING,MIXED,8,-0.0230850260705,-0.0231172796339,0.0580461844802,0.0231172796339,-0.0580461844802,-0.0115425130352,0.0,0.0115425130352,-0.0,0,SEPARATION,LHC.BPM.1L5.B1_D,-3114.984375,-1487.54882812,1197.1583252,606.921203613,LHC.BPM.1R5.B1_D,3653.42163086,-1968.24353027,1399.62963867,838.107421875,LHC.BPM.1L5.B2_D,4079.58740234,-1527.86047363,1612.42419434,585.414733887,LHC.BPM.1R5.B2_D,-3772.63330078,-1887.5300293,1525.69836426,783.951843262,266,4,2,0,0,11,30,160
70,7218,323487,51,20,1537846315,772,1,3,3,32,ACQUIRING,MIXED,6,-0.0230850260705,-0.0231172796339,0.0580461844802,0.0231172796339,-0.0580461844802,-0.0115425130352,0.0,0.0115425130352,-0.0,0,SEPARATION,LHC.BPM.1L5.B1_D,-3113.72851562,-1487.89099121,1260.19921875,567.672607422,LHC.BPM.1R5.B1_D,3652.26049805,-1967.86999512,1486.02026367,717.067443848,LHC.BPM.1L5.B2_D,4078.51123047,-1526.79418945,1620.89355469,625.453918457,LHC.BPM.1R5.B2_D,-3771.64428711,-1888.56298828,1450.31872559,709.027648926,266,4,2,0,0,11,30,160
71,7218,323487,51,24,1537846317,185,1,3,3,32,ACQUIRING,MIXED,5,-0.0230850260705,-0.0231172796339,0.0580461844802,0.0231172796339,-0.0580461844802,-0.0115425130352,0.0,0.0115425130352,-0.0,0,SEPARATION,LHC.BPM.1L5.B1_D,-3110.99414062,-1487.21875,1259.18688965,567.309692383,LHC.BPM.1R5.B1_D,3649.55517578,-1968.57775879,1484.88415527,717.483215332,LHC.BPM.1L5.B2_D,4081.51733398,-1528.01745605,1622.46337891,626.122741699,LHC.BPM.1R5.B2_D,-3774.7578125,-1887.10375977,1451.89807129,708.29119873,266,4,2,0,0,11,30,160
72,7218,323487,51,28,1537846318,703,1,3,3,32,ACQUIRING,MIXED,4,-0.0230850260705,-0.0231172796339,0.0580461844802,0.0231172796339,-0.0580461844802,-0.0115425130352,0.0,0.0115425130352,-0.0,0,SEPARATION,LHC.BPM.1L5.B1_D,-3109.45361328,-1487.48193359,1194.79382324,606.975952148,LHC.BPM.1R5.B1_D,3647.66943359,-1968.26452637,1397.14331055,838.015014648,LHC.BPM.1L5.B2_D,4083.19580078,-1527.89123535,1614.57250977,585.621398926,LHC.BPM.1R5.B2_D,-3776.29370117,-1887.39660645,1527.79309082,783.774841309,266,4,2,0,0,11,30,160
73,7218,323487,51,32,1537846320,117,1,3,3,32,ACQUIRING,MIXED,2,-0.0230850260705,-0.0231172796339,0.0580461844802,0.0231172796339,-0.0580461844802,-0.0115425130352,0.0,0.0115425130352,-0.0,0,SEPARATION,LHC.BPM.1L5.B1_D,-3109.3112793,-1488.36706543,1195.07592773,606.992858887,LHC.BPM.1R5.B1_D,3648.07763672,-1967.36340332,1397.68115234,837.933532715,LHC.BPM.1L5.B2_D,4083.32910156,-1525.80517578,1614.01867676,584.672119141,LHC.BPM.1R5.B2_D,-3776.52612305,-1889.36828613,1527.45678711,784.75970459,266,4,2,0,0,11,30,160
74,7218,323487,51,36,1537846321,531,1,3,3,32,ACQUIRING,MIXED,1,-0.0230850260705,-0.0231172796339,0.0580461844802,0.0231172796339,-0.0580461844802,-0.0115425130352,0.0,0.0115425130352,-0.0,0,SEPARATION,LHC.BPM.1L5.B1_D,-3109.76513672,-1488.3046875,1259.15734863,567.927307129,LHC.BPM.1R5.B1_D,3648.53759766,-1967.58630371,1485.03808594,717.018127441,LHC.BPM.1L5.B2_D,4082.85083008,-1524.92675781,1622.74511719,624.728210449,LHC.BPM.1R5.B2_D,-3776.21240234,-1890.21838379,1452.17626953,709.540405273,266,4,2,0,0,11,30,160
75,7218,323487,51,56,1537846328,805,1,5,3,32,ACQUIRING,MIXED,9,-0.0153900170699,-0.0192697755992,0.0580461844802,0.0192697755992,-0.0580461844802,-0.00769500853494,0.0,0.00769500853494,-0.0,0,SEPARATION,LHC.BPM.1L5.B1_D,-3111.24389648,-1484.84387207,1195.96081543,605.712158203,LHC.BPM.1R5.B1_D,3648.90332031,-1962.49865723,1397.98474121,835.861328125,LHC.BPM.1L5.B2_D,4090.65966797,-1524.96594238,1617.36047363,584.544433594,LHC.BPM.1R5.B2_D,-3784.10961914,-1899.19934082,1530.81347656,788.44140625,266,4,2,0,0,11,30,160
76,7218,323487,51,60,1537846330,318,1,5,3,32,ACQUIRING,MIXED,8,-0.0153900170699,-0.0192697755992,0.0580461844802,0.0192697755992,-0.0580461844802,-0.00769500853494,0.0,0.00769500853494,-0.0,0,SEPARATION,LHC.BPM.1L5.B1_D,-3111.00610352,-1484.99829102,1195.76171875,605.734924316,LHC.BPM.1R5.B1_D,3648.66674805,-1962.36877441,1397.8626709,835.856689453,LHC.BPM.1L5.B2_D,4093.61791992,-1525.61120605,1618.77062988,584.985900879,LHC.BPM.1R5.B2_D,-3786.83642578,-1898.62268066,1532.13806152,787.978210449,266,4,2,0,0,11,30,160
77,7218,323487,51,64,1537846331,730,1,5,3,32,ACQUIRING,MIXED,7,-0.0153900170699,-0.0192697755992,0.0580461844802,0.0192697755992,-0.0580461844802,-0.00769500853494,0.0,0.00769500853494,-0.0,0,SEPARATION,LHC.BPM.1L5.B1_D,-3110.78320312,-1484.31420898,1259.30554199,566.047668457,LHC.BPM.1R5.B1_D,3648.67163086,-1963.03039551,1484.99084473,715.508422852,LHC.BPM.1L5.B2_D,4095.12768555,-1525.81225586,1627.77099609,625.143737793,LHC.BPM.1R5.B2_D,-3788.48779297,-1898.38720703,1457.22790527,712.811523438,266,4,2,0,0,11,30,160
78,7218,323487,52,4,1537846333,249,1,5,3,32,ACQUIRING,MIXED,5,-0.0153900170699,-0.0192697755992,0.0580461844802,0.0192697755992,-0.0580461844802,-0.00769500853494,0.0,0.00769500853494,-0.0,0,SEPARATION,LHC.BPM.1L5.B1_D,-3110.65527344,-1483.47692871,1259.4630127,565.892700195,LHC.BPM.1R5.B1_D,3648.44335938,-1963.9005127,1485.09411621,715.627685547,LHC.BPM.1L5.B2_D,4096.69091797,-1525.96765137,1628.52355957,625.131408691,LHC.BPM.1R5.B2_D,-3790.05932617,-1898.3326416,1458.05822754,712.946960449,266,4,2,0,0,11,30,160
79,7218,323487,52,8,1537846334,675,1,5,3,32,ACQUIRING,MIXED,4,-0.0153900170699,-0.0192697755992,0.0580461844802,0.0192697755992,-0.0580461844802,-0.00769500853494,0.0,0.00769500853494,-0.0,0,SEPARATION,LHC.BPM.1L5.B1_D,-3111.37841797,-1483.53662109,1196.07067871,605.279541016,LHC.BPM.1R5.B1_D,3648.92016602,-1963.87487793,1397.95275879,836.411437988,LHC.BPM.1L5.B2_D,4097.61962891,-1525.87683105,1619.99572754,585.05682373,LHC.BPM.1R5.B2_D,-3790.94189453,-1898.3972168,1533.2467041,787.862548828,266,4,2,0,0,11,30,160
80,7218,323487,52,12,1537846336,181,1,5,3,32,ACQUIRING,MIXED,2,-0.0153900170699,-0.0192697755992,0.0580461844802,0.0192697755992,-0.0580461844802,-0.00769500853494,0.0,0.00769500853494,-0.0,0,SEPARATION,LHC.BPM.1L5.B1_D,-3111.70629883,-1484.41894531,1195.98791504,605.79083252,LHC.BPM.1R5.B1_D,3649.44775391,-1963.01660156,1398.0480957,835.950195312,LHC.BPM.1L5.B2_D,4098.25537109,-1525.70471191,1620.18347168,584.913513184,LHC.BPM.1R5.B2_D,-3791.65161133,-1898.34643555,1533.46984863,787.84185791,266,4,2,0,0,11,30,160
81,7218,323487,52,16,1537846337,594,1,5,3,32,ACQUIRING,MIXED,1,-0.0153900170699,-0.0192697755992,0.0580461844802,0.0192697755992,-0.0580461844802,-0.00769500853494,0.0,0.00769500853494,-0.0,0,SEPARATION,LHC.BPM.1L5.B1_D,-3111.70581055,-1484.50073242,1259.81079102,566.13458252,LHC.BPM.1R5.B1_D,3649.39550781,-1962.87939453,1485.38562012,715.296875,LHC.BPM.1L5.B2_D,4097.69287109,-1526.43225098,1628.40039062,625.714477539,LHC.BPM.1R5.B2_D,-3791.29589844,-1897.62805176,1458.12304688,712.359436035,266,4,2,0,0,11,30,160
82,7218,323487,52,36,1537846344,863,1,7,3,32,ACQUIRING,MIXED,9,-0.00769500853494,-0.0154222715646,0.0580461844802,0.0154222715646,-0.0580461844802,-0.00384750426747,0.0,0.00384750426747,-0.0,0,SEPARATION,LHC.BPM.1L5.B1_D,-3110.85107422,-1473.91772461,1195.63891602,601.659118652,LHC.BPM.1R5.B1_D,3648.18310547,-1957.4362793,1397.59130859,833.743591309,LHC.BPM.1L5.B2_D,4098.91015625,-1533.2376709,1620.84082031,587.804931641,LHC.BPM.1R5.B2_D,-3792.11694336,-1906.98693848,1533.88891602,791.366394043,266,4,2,0,0,11,30,160
83,7218,323487,52,40,1537846346,376,1,7,3,32,ACQUIRING,MIXED,8,-0.00769500853494,-0.0154222715646,0.0580461844802,0.0154222715646,-0.0580461844802,-0.00384750426747,0.0,0.00384750426747,-0.0,0,SEPARATION,LHC.BPM.1L5.B1_D,-3109.33203125,-1473.60461426,1194.87890625,601.608825684,LHC.BPM.1R5.B1_D,3646.63525391,-1957.80090332,1396.7454834,833.8359375,LHC.BPM.1L5.B2_D,4097.66796875,-1533.09667969,1620.21203613,587.568237305,LHC.BPM.1R5.B2_D,-3790.90112305,-1907.09545898,1533.31420898,791.538146973,266,4,2,0,0,11,30,160
84,7218,323487,52,44,1537846347,748,1,7,3,32,ACQUIRING,MIXED,7,-0.00769500853494,-0.0154222715646,0.0580461844802,0.0154222715646,-0.0580461844802,-0.00384750426747,0.0,0.00384750426747,-0.0,0,SEPARATION,LHC.BPM.1L5.B1_D,-3109.04492188,-1474.00756836,1258.84985352,562.053894043,LHC.BPM.1R5.B1_D,3646.33691406,-1957.56506348,1484.29589844,713.230834961,LHC.BPM.1L5.B2_D,4098.19775391,-1532.66870117,1628.8137207,628.012756348,LHC.BPM.1R5.B2_D,-3791.5703125,-1907.57202148,1458.53918457,716.530578613,266,4,2,0,0,11,30,160
85,7218,323487,52,48,1537846349,262,1,7,3,32,ACQUIRING,MIXED,5,-0.00769500853494,-0.0154222715646,0.0580461844802,0.0154222715646,-0.0580461844802,-0.00384750426747,0.0,0.00384750426747,-0.0,0,SEPARATION,LHC.BPM.1L5.B1_D,-3107.98339844,-1473.40917969,1258.3807373,562.118835449,LHC.BPM.1R5.B1_D,3645.46020508,-1958.29614258,1483.68823242,713.25592041,LHC.BPM.1L5.B2_D,4099.44482422,-1531.9675293,1629.0279541,627.448730469,LHC.BPM.1R5.B2_D,-3792.80957031,-1908.05505371,1458.6217041,716.935058594,266,4,2,0,0,11,30,160
86,7218,323487,52,52,1537846350,674,1,7,3,32,ACQUIRING,MIXED,4,-0.00769500853494,-0.0154222715646,0.0580461844802,0.0154222715646,-0.0580461844802,-0.00384750426747,0.0,0.00384750426747,-0.0,0,SEPARATION,LHC.BPM.1L5.B1_D,-3108.86206055,-1473.70166016,1195.20007324,601.304382324,LHC.BPM.1R5.B1_D,3646.11108398,-1958.05065918,1397.17980957,834.197631836,LHC.BPM.1L5.B2_D,4099.81347656,-1531.98779297,1621.29406738,587.592895508,LHC.BPM.1R5.B2_D,-3793.06542969,-1908.51708984,1534.42895508,791.886108398,266,4,2,0,0,11,30,160
87,7218,323487,52,56,1537846352,186,1,7,3,32,ACQUIRING,MIXED,2,-0.00769500853494,-0.0154222715646,0.0580461844802,0.0154222715646,-0.0580461844802,-0.00384750426747,0.0,0.00384750426747,-0.0,0,SEPARATION,LHC.BPM.1L5.B1_D,-3108.1340332,-1474.45056152,1194.58007812,601.774353027,LHC.BPM.1R5.B1_D,3645.828125,-1957.3482666,1396.70166016,833.810668945,LHC.BPM.1L5.B2_D,4100.56201172,-1531.1529541,1621.05505371,587.326171875,LHC.BPM.1R5.B2_D,-3793.84790039,-1909.10620117,1534.39355469,792.258544922,266,4,2,0,0,11,30,160
88,7218,323487,52,60,1537846353,600,1,7,3,32,ACQUIRING,MIXED,1,-0.00769500853494,-0.0154222715646,0.0580461844802,0.0154222715646,-0.0580461844802,-0.00384750426747,0.0,0.00384750426747,-0.0,0,SEPARATION,LHC.BPM.1L5.B1_D,-3108.50170898,-1474.20800781,1258.7244873,562.047912598,LHC.BPM.1R5.B1_D,3645.79760742,-1957.48046875,1483.92700195,713.19354248,LHC.BPM.1L5.B2_D,4099.94238281,-1531.26647949,1629.36755371,627.152648926,LHC.BPM.1R5.B2_D,-3793.41113281,-1908.92041016,1458.93164062,716.890869141,266,4,2,0,0,11,30,160
89,7218,323487,53,16,1537846360,866,1,9,3,32,ACQUIRING,MIXED,9,0.0,-0.0115747684613,0.0580461844802,0.0115747684613,-0.0580461844802,0.0,0.0,-0.0,-0.0,0,SEPARATION,LHC.BPM.1L5.B1_D,-3106.37890625,-1462.50866699,1194.21313477,597.133728027,LHC.BPM.1R5.B1_D,3643.59082031,-1944.61157227,1395.98388672,828.811218262,LHC.BPM.1L5.B2_D,4099.68115234,-1541.46984863,1620.91149902,591.422424316,LHC.BPM.1R5.B2_D,-3792.55688477,-1923.04736328,1533.98547363,797.776550293,266,4,2,0,0,11,30,160
90,7218,323487,53,20,1537846362,382,1,9,3,32,ACQUIRING,MIXED,8,0.0,-0.0115747684613,0.0580461844802,0.0115747684613,-0.0580461844802,0.0,0.0,-0.0,-0.0,0,SEPARATION,LHC.BPM.1L5.B1_D,-3107.3137207,-1462.75085449,1194.57971191,597.488098145,LHC.BPM.1R5.B1_D,3644.83764648,-1944.40710449,1396.68164062,828.421386719,LHC.BPM.1L5.B2_D,4099.97314453,-1541.49560547,1621.0703125,591.135559082,LHC.BPM.1R5.B2_D,-3792.96069336,-1922.9564209,1534.33105469,797.919433594,266,4,2,0,0,11,30,160
91,7218,323487,53,24,1537846363,800,1,9,3,32,ACQUIRING,MIXED,6,0.0,-0.0115747684613,0.0580461844802,0.0115747684613,-0.0580461844802,0.0,0.0,-0.0,-0.0,0,SEPARATION,LHC.BPM.1L5.B1_D,-3107.12036133,-1463.27319336,1257.65087891,557.714477539,LHC.BPM.1R5.B1_D,3644.69384766,-1943.84387207,1483.09143066,707.821105957,LHC.BPM.1L5.B2_D,4100.1015625,-1541.09960938,1629.52978516,631.155639648,LHC.BPM.1R5.B2_D,-3793.06542969,-1923.48999023,1458.7668457,722.765319824,266,4,2,0,0,11,30,160
92,7218,323487,53,28,1537846365,315,1,9,3,32,ACQUIRING,MIXED,5,0.0,-0.0115747684613,0.0580461844802,0.0115747684613,-0.0580461844802,0.0,0.0,-0.0,-0.0,0,SEPARATION,LHC.BPM.1L5.B1_D,-3108.78686523,-1463.31091309,1258.34082031,557.718139648,LHC.BPM.1R5.B1_D,3645.64892578,-1943.79284668,1483.61437988,707.760986328,LHC.BPM.1L5.B2_D,4100.10693359,-1542.05957031,1629.33569336,631.647949219,LHC.BPM.1R5.B2_D,-3793.09204102,-1922.53601074,1458.67749023,722.249389648,266,4,2,0,0,11,30,160
93,7218,323487,53,32,1537846366,728,1,9,3,32,ACQUIRING,MIXED,4,0.0,-0.0115747684613,0.0580461844802,0.0115747684613,-0.0580461844802,0.0,0.0,-0.0,-0.0,0,SEPARATION,LHC.BPM.1L5.B1_D,-3108.39477539,-1463.96911621,1194.90429688,598.042785645,LHC.BPM.1R5.B1_D,3645.6105957,-1943.18164062,1396.88757324,827.970947266,LHC.BPM.1L5.B2_D,4099.39794922,-1541.67041016,1620.73205566,591.09588623,LHC.BPM.1R5.B2_D,-3792.41918945,-1922.73681641,1533.93896484,797.843261719,266,4,2,0,0,11,30,160
94,7218,323487,53,36,1537846368,140,1,9,3,32,ACQUIRING,MIXED,2,0.0,-0.0115747684613,0.0580461844802,0.0115747684613,-0.0580461844802,0.0,0.0,-0.0,-0.0,0,SEPARATION,LHC.BPM.1L5.B1_D,-3109.05175781,-1464.40209961,1195.21350098,598.134277344,LHC.BPM.1R5.B1_D,3646.04150391,-1942.74865723,1396.95800781,827.891174316,LHC.BPM.1L5.B2_D,4098.64013672,-1541.94445801,1620.44055176,591.357971191,LHC.BPM.1R5.B2_D,-3791.6159668,-1922.64990234,1533.60546875,797.715148926,266,4,2,0,0,11,30,160
95,7218,323487,53,40,1537846369,654,1,9,3,32,ACQUIRING,MIXED,1,0.0,-0.0115747684613,0.0580461844802,0.0115747684613,-0.0580461844802,0.0,0.0,-0.0,-0.0,0,SEPARATION,LHC.BPM.1L5.B1_D,-3109.64355469,-1464.74902344,1259.02856445,558.24029541,LHC.BPM.1R5.B1_D,3646.81323242,-1942.50012207,1484.50561523,707.298461914,LHC.BPM.1L5.B2_D,4098.28955078,-1541.94055176,1628.75097656,631.60736084,LHC.BPM.1R5.B2_D,-3791.31713867,-1922.66101074,1458.1361084,722.323059082,266,4,2,0,0,11,30,160
96,7218,323487,53,60,1537846376,921,1,11,3,32,ACQUIRING,MIXED,9,0.00769500853494,-0.00772726396099,0.0580461844802,0.00772726396099,-0.0580461844802,0.00384750426747,0.0,-0.00384750426747,-0.0,0,SEPARATION,LHC.BPM.1L5.B1_D,-3108.79663086,-1451.92077637,1195.09057617,592.95489502,LHC.BPM.1R5.B1_D,3646.37255859,-1928.98999023,1397.07177734,822.728088379,LHC.BPM.1L5.B2_D,4097.03662109,-1551.86181641,1620.0715332,594.952209473,LHC.BPM.1R5.B2_D,-3789.96337891,-1938.50012207,1533.1060791,804.302062988,266,4,2,0,0,11,30,160
97,7218,323487,53,64,1537846378,340,1,11,3,32,ACQUIRING,MIXED,8,0.00769500853494,-0.00772726396099,0.0580461844802,0.00772726396099,-0.0580461844802,0.00384750426747,0.0,-0.00384750426747,-0.0,0,SEPARATION,LHC.BPM.1L5.B1_D,-3109.35644531,-1451.59558105,1195.03149414,593.020935059,LHC.BPM.1R5.B1_D,3646.93579102,-1929.28833008,1396.99658203,822.630310059,LHC.BPM.1L5.B2_D,4096.3203125,-1550.92382812,1619.72277832,594.773193359,LHC.BPM.1R5.B2_D,-3789.34326172,-1939.47753906,1532.81188965,804.508605957,266,4,2,0,0,11,30,160
98,7218,323487,54,4,1537846379,857,1,11,3,32,ACQUIRING,MIXED,6,0.00769500853494,-0.00772726396099,0.0580461844802,0.00772726396099,-0.0580461844802,0.00384750426747,0.0,-0.00384750426747,-0.0,0,SEPARATION,LHC.BPM.1L5.B1_D,-3109.62011719,-1451.24047852,1259.20703125,552.701721191,LHC.BPM.1R5.B1_D,3646.94824219,-1929.62902832,1484.58666992,702.40612793,LHC.BPM.1L5.B2_D,4097.17480469,-1550.98388672,1628.62426758,635.377319336,LHC.BPM.1R5.B2_D,-3790.04003906,-1939.37329102,1457.97741699,728.759094238,266,4,2,0,0,11,30,160
99,7218,323487,54,8,1537846381,279,1,11,3,32,ACQUIRING,MIXED,5,0.00769500853494,-0.00772726396099,0.0580461844802,0.00772726396099,-0.0580461844802,0.00384750426747,0.0,-0.00384750426747,-0.0,0,SEPARATION,LHC.BPM.1L5.B1_D,-3109.00830078,-1451.66943359,1258.80322266,553.040039062,LHC.BPM.1R5.B1_D,3646.72509766,-1929.36120605,1484.37817383,702.097290039,LHC.BPM.1L5.B2_D,4096.87744141,-1549.61901855,1628.62341309,634.717529297,LHC.BPM.1R5.B2_D,-3789.84936523,-1940.79711914,1457.9375,729.463134766,266,4,2,0,0,11,30,160
100,7218,323487,54,12,1537846382,794,1,11,3,32,ACQUIRING,MIXED,4,0.00769500853494,-0.00772726396099,0.0580461844802,0.00772726396099,-0.0580461844802,0.00384750426747,0.0,-0.00384750426747,-0.0,0,SEPARATION,LHC.BPM.1L5.B1_D,-3108.58813477,-1451.03820801,1194.62524414,592.520996094,LHC.BPM.1R5.B1_D,3646.14379883,-1929.96801758,1396.57250977,823.204467773,LHC.BPM.1L5.B2_D,4097.55419922,-1549.32910156,1620.04077148,594.123168945,LHC.BPM.1R5.B2_D,-3790.5300293,-1941.21496582,1533.26391602,805.268188477,266,4,2,0,0,11,30,160
101,7218,323487,54,16,1537846384,206,1,11,3,32,ACQUIRING,MIXED,2,0.00769500853494,-0.00772726396099,0.0580461844802,0.00772726396099,-0.0580461844802,0.00384750426747,0.0,-0.00384750426747,-0.0,0,SEPARATION,LHC.BPM.1L5.B1_D,-3107.51074219,-1450.08630371,1194.3840332,592.089538574,LHC.BPM.1R5.B1_D,3644.90209961,-1930.91760254,1396.42114258,823.567626953,LHC.BPM.1L5.B2_D,4097.49609375,-1548.84143066,1620.21655273,594.172607422,LHC.BPM.1R5.B2_D,-3790.61791992,-1941.67248535,1533.56152344,805.347412109,266,4,2,0,0,11,30,160
102,7218,323487,54,20,1537846385,719,1,11,3,32,ACQUIRING,MIXED,1,0.00769500853494,-0.00772726396099,0.0580461844802,0.00772726396099,-0.0580461844802,0.00384750426747,0.0,-0.00384750426747,-0.0,0,SEPARATION,LHC.BPM.1L5.B1_D,-3107.13525391,-1450.00732422,1257.90771484,552.661437988,LHC.BPM.1R5.B1_D,3644.46704102,-1931.21203613,1483.22290039,702.722290039,LHC.BPM.1L5.B2_D,4097.47558594,-1548.78063965,1628.38049316,634.240966797,LHC.BPM.1R5.B2_D,-3790.75927734,-1941.62280273,1457.81811523,729.715270996,266,4,2,0,0,11,30,160
103,7218,323487,54,40,1537846392,983,1,13,3,32,ACQUIRING,MIXED,9,0.0153900170699,-0.00387975992635,0.0580461844802,0.00387975992635,-0.0580461844802,0.00769500853494,0.0,-0.00769500853494,-0.0,0,SEPARATION,LHC.BPM.1L5.B1_D,-3104.33398438,-1438.76550293,1193.10681152,587.625976562,LHC.BPM.1R5.B1_D,3641.8215332,-1923.15258789,1395.0760498,820.358642578,LHC.BPM.1L5.B2_D,4099.25097656,-1555.94177246,1620.68554688,597.248718262,LHC.BPM.1R5.B2_D,-3792.28027344,-1953.53588867,1534.02746582,809.846191406,266,4,2,0,0,11,30,160
104,7218,323487,54,44,1537846394,398,1,13,3,32,ACQUIRING,MIXED,8,0.0153900170699,-0.00387975992635,0.0580461844802,0.00387975992635,-0.0580461844802,0.00769500853494,0.0,-0.00769500853494,-0.0,0,SEPARATION,LHC.BPM.1L5.B1_D,-3104.37158203,-1439.79736328,1193.01123047,588.074401855,LHC.BPM.1R5.B1_D,3641.93579102,-1922.09008789,1395.37402344,819.924682617,LHC.BPM.1L5.B2_D,4098.54589844,-1556.05822754,1620.28613281,597.088012695,LHC.BPM.1R5.B2_D,-3791.70214844,-1953.4329834,1533.72741699,809.949584961,266,4,2,0,0,11,30,160
105,7218,323487,54,48,1537846395,911,1,13,3,32,ACQUIRING,MIXED,6,0.0153900170699,-0.00387975992635,0.0580461844802,0.00387975992635,-0.0580461844802,0.00769500853494,0.0,-0.00769500853494,-0.0,0,SEPARATION,LHC.BPM.1L5.B1_D,-3103.95263672,-1439.6315918,1256.78186035,548.500549316,LHC.BPM.1R5.B1_D,3642.09448242,-1922.18493652,1482.40698242,699.242980957,LHC.BPM.1L5.B2_D,4097.97998047,-1556.31616211,1628.75512695,637.323303223,LHC.BPM.1R5.B2_D,-3791.18554688,-1953.02062988,1458.03820801,734.147827148,266,4,2,0,0,11,30,160
106,7218,323487,54,52,1537846397,323,1,13,3,32,ACQUIRING,MIXED,5,0.0153900170699,-0.00387975992635,0.0580461844802,0.00387975992635,-0.0580461844802,0.00769500853494,0.0,-0.00769500853494,-0.0,0,SEPARATION,LHC.BPM.1L5.B1_D,-3105.18969727,-1440.3671875,1257.56054688,548.686706543,LHC.BPM.1R5.B1_D,3642.61572266,-1921.46984863,1482.74975586,698.943115234,LHC.BPM.1L5.B2_D,4098.49658203,-1555.33190918,1629.09545898,636.98046875,LHC.BPM.1R5.B2_D,-3791.59204102,-1954.13745117,1458.31567383,734.53137207,266,4,2,0,0,11,30,160
107,7218,323487,54,56,1537846398,735,1,13,3,32,ACQUIRING,MIXED,4,0.0153900170699,-0.00387975992635,0.0580461844802,0.00387975992635,-0.0580461844802,0.00769500853494,0.0,-0.00769500853494,-0.0,0,SEPARATION,LHC.BPM.1L5.B1_D,-3106.28857422,-1440.34851074,1194.08081055,588.468933105,LHC.BPM.1R5.B1_D,3643.69262695,-1921.52062988,1396.29919434,819.713562012,LHC.BPM.1L5.B2_D,4098.82519531,-1554.99133301,1620.61584473,596.382629395,LHC.BPM.1R5.B2_D,-3792.00512695,-1954.38562012,1534.09863281,810.650756836,266,4,2,0,0,11,30,160
108,7218,323487,54,60,1537846400,262,1,13,3,32,ACQUIRING,MIXED,2,0.0153900170699,-0.00387975992635,0.0580461844802,0.00387975992635,-0.0580461844802,0.00769500853494,0.0,-0.00769500853494,-0.0,0,SEPARATION,LHC.BPM.1L5.B1_D,-3107.24755859,-1440.93200684,1194.53161621,588.66003418,LHC.BPM.1R5.B1_D,3644.44482422,-1921.1418457,1396.54724121,819.683288574,LHC.BPM.1L5.B2_D,4099.49169922,-1555.70031738,1620.90808105,596.762390137,LHC.BPM.1R5.B2_D,-3792.55639648,-1953.8614502,1534.33520508,810.282653809,266,4,2,0,0,11,30,160
109,7218,323487,54,64,1537846401,674,1,13,3,32,ACQUIRING,MIXED,1,0.0153900170699,-0.00387975992635,0.0580461844802,0.00387975992635,-0.0580461844802,0.00769500853494,0.0,-0.00769500853494,-0.0,0,SEPARATION,LHC.BPM.1L5.B1_D,-3107.76806641,-1441.07714844,1258.2947998,549.063171387,LHC.BPM.1R5.B1_D,3645.27001953,-1920.92773438,1483.75793457,698.49621582,LHC.BPM.1L5.B2_D,4099.13378906,-1555.59741211,1629.06359863,637.091674805,LHC.BPM.1R5.B2_D,-3792.14038086,-1954.02856445,1458.19348145,734.626037598,266,4,2,0,0,11,30,160
110,7218,323487,55,20,1537846408,943,1,15,3,32,ACQUIRING,MIXED,9,0.0230850260705,-3.22560008499e-05,0.0580461844802,3.22560008499e-05,-0.0580461844802,0.0115425130352,0.0,-0.0115425130352,-0.0,0,SEPARATION,LHC.BPM.1L5.B1_D,-3107.23974609,-1435.78588867,1194.40112305,586.273010254,LHC.BPM.1R5.B1_D,3644.84936523,-1915.57897949,1396.35473633,817.699890137,LHC.BPM.1L5.B2_D,4098.54296875,-1557.41369629,1620.62646484,597.622253418,LHC.BPM.1R5.B2_D,-3791.5534668,-1962.99353027,1533.97509766,813.657226562,266,4,2,0,0,11,30,160
111,7218,323487,55,24,1537846410,457,1,15,3,32,ACQUIRING,MIXED,8,0.0230850260705,-3.22560008499e-05,0.0580461844802,3.22560008499e-05,-0.0580461844802,0.0115425130352,0.0,-0.0115425130352,-0.0,0,SEPARATION,LHC.BPM.1L5.B1_D,-3106.06347656,-1434.73510742,1194.05566406,586.114501953,LHC.BPM.1R5.B1_D,3643.81005859,-1916.72900391,1396.11791992,817.958618164,LHC.BPM.1L5.B2_D,4098.18457031,-1556.07312012,1620.5447998,596.853210449,LHC.BPM.1R5.B2_D,-3791.05273438,-1964.31506348,1533.67456055,814.373046875,266,4,2,0,0,11,30,160
112,7218,323487,55,28,1537846411,870,1,15,3,32,ACQUIRING,MIXED,6,0.0230850260705,-3.22560008499e-05,0.0580461844802,3.22560008499e-05,-0.0580461844802,0.0115425130352,0.0,-0.0115425130352,-0.0,0,SEPARATION,LHC.BPM.1L5.B1_D,-3106.5065918,-1434.61633301,1257.78271484,546.521728516,LHC.BPM.1R5.B1_D,3644.03491211,-1916.85253906,1483.22766113,697.014465332,LHC.BPM.1L5.B2_D,4097.86621094,-1556.36474609,1628.45983887,637.622558594,LHC.BPM.1R5.B2_D,-3790.93530273,-1964.3873291,1457.94372559,738.74230957,266,4,2,0,0,11,30,160
113,7218,323487,55,32,1537846413,383,1,15,3,32,ACQUIRING,MIXED,5,0.0230850260705,-3.22560008499e-05,0.0580461844802,3.22560008499e-05,-0.0580461844802,0.0115425130352,0.0,-0.0115425130352,-0.0,0,SEPARATION,LHC.BPM.1L5.B1_D,-3107.09863281,-1435.36779785,1258.26635742,546.627563477,LHC.BPM.1R5.B1_D,3644.60449219,-1916.03527832,1483.70410156,696.92401123,LHC.BPM.1L5.B2_D,4097.48925781,-1555.7590332,1628.30102539,637.549255371,LHC.BPM.1R5.B2_D,-3790.31274414,-1964.83886719,1457.73059082,738.822631836,266,4,2,0,0,11,30,160
114,7218,323487,55,36,1537846414,796,1,15,3,32,ACQUIRING,MIXED,4,0.0230850260705,-3.22560008499e-05,0.0580461844802,3.22560008499e-05,-0.0580461844802,0.0115425130352,0.0,-0.0115425130352,-0.0,0,SEPARATION,LHC.BPM.1L5.B1_D,-3107.33032227,-1435.28112793,1194.22888184,586.526062012,LHC.BPM.1R5.B1_D,3644.83618164,-1916.07641602,1396.28027344,817.43737793,LHC.BPM.1L5.B2_D,4096.6640625,-1556.11181641,1619.75720215,596.709838867,LHC.BPM.1R5.B2_D,-3789.68432617,-1964.54223633,1532.91027832,814.401000977,266,4,2,0,0,11,30,160
115,7218,323487,55,40,1537846416,311,1,15,3,32,ACQUIRING,MIXED,2,0.0230850260705,-3.22560008499e-05,0.0580461844802,3.22560008499e-05,-0.0580461844802,0.0115425130352,0.0,-0.0115425130352,-0.0,0,SEPARATION,LHC.BPM.1L5.B1_D,-3105.19458008,-1435.50048828,1193.61206055,586.787902832,LHC.BPM.1R5.B1_D,3643.41918945,-1915.85119629,1395.96618652,817.233154297,LHC.BPM.1L5.B2_D,4095.66772461,-1556.18835449,1619.35180664,596.815734863,LHC.BPM.1R5.B2_D,-3788.89160156,-1964.27636719,1532.75732422,814.272705078,266,4,2,0,0,11,30,160
116,7218,323487,55,44,1537846417,724,1,15,3,32,ACQUIRING,MIXED,1,0.0230850260705,-3.22560008499e-05,0.0580461844802,3.22560008499e-05,-0.0580461844802,0.0115425130352,0.0,-0.0115425130352,-0.0,0,SEPARATION,LHC.BPM.1L5.B1_D,-3106.39794922,-1435.38305664,1258.15649414,546.448974609,LHC.BPM.1R5.B1_D,3644.55078125,-1915.89086914,1483.80151367,696.983154297,LHC.BPM.1L5.B2_D,4095.99633789,-1556.1484375,1628.19995117,637.474853516,LHC.BPM.1R5.B2_D,-3789.10424805,-1964.27270508,1457.45361328,738.738891602,266,4,2,0,0,11,30,160
117,7218,323487,55,64,1537846424,990,1,17,3,32,ACQUIRING,MIXED,9,0.0307800341398,0.0038152479101,0.0580461844802,-0.0038152479101,-0.0580461844802,0.0153900170699,0.0,-0.0153900170699,-0.0,0,SEPARATION,LHC.BPM.1L5.B1_D,-3103.68310547,-1431.22631836,1192.87329102,585.037780762,LHC.BPM.1R5.B1_D,3641.63476562,-1914.22009277,1395.33032227,816.75604248,LHC.BPM.1L5.B2_D,4093.46728516,-1556.87512207,1618.70178223,596.960754395,LHC.BPM.1R5.B2_D,-3786.63842773,-1969.81994629,1532.06616211,816.45892334,266,4,2,0,0,11,30,160
118,7218,323487,56,4,1537846426,505,1,17,3,32,ACQUIRING,MIXED,8,0.0307800341398,0.0038152479101,0.0580461844802,-0.0038152479101,-0.0580461844802,0.0153900170699,0.0,-0.0153900170699,-0.0,0,SEPARATION,LHC.BPM.1L5.B1_D,-3102.00512695,-1431.23742676,1192.11242676,585.125244141,LHC.BPM.1R5.B1_D,3640.05664062,-1914.06506348,1394.4407959,816.67791748,LHC.BPM.1L5.B2_D,4093.6940918,-1556.0970459,1618.6907959,596.744873047,LHC.BPM.1R5.B2_D,-3786.77661133,-1970.44128418,1532.11535645,816.752746582,266,4,2,0,0,11,30,160
119,7218,323487,56,8,1537846427,918,1,17,3,32,ACQUIRING,MIXED,6,0.0307800341398,0.0038152479101,0.0580461844802,-0.0038152479101,-0.0580461844802,0.0153900170699,0.0,-0.0153900170699,-0.0,0,SEPARATION,LHC.BPM.1L5.B1_D,-3101.18994141,-1431.57788086,1255.55688477,545.146911621,LHC.BPM.1R5.B1_D,3639.15356445,-1913.82043457,1481.07788086,695.938598633,LHC.BPM.1L5.B2_D,4093.88500977,-1556.01940918,1627.19616699,637.459106445,LHC.BPM.1R5.B2_D,-3787.08276367,-1970.54663086,1456.51782227,741.239013672,266,4,2,0,0,11,30,160
120,7218,323487,56,12,1537846429,331,1,17,3,32,ACQUIRING,MIXED,5,0.0307800341398,0.0038152479101,0.0580461844802,-0.0038152479101,-0.0580461844802,0.0153900170699,0.0,-0.0153900170699,-0.0,0,SEPARATION,LHC.BPM.1L5.B1_D,-3101.10351562,-1430.12841797,1255.71496582,544.796875,LHC.BPM.1R5.B1_D,3639.09985352,-1915.29870605,1481.28149414,696.360168457,LHC.BPM.1L5.B2_D,4093.18505859,-1556.76855469,1627.01281738,637.737121582,LHC.BPM.1R5.B2_D,-3786.15380859,-1970.01049805,1456.20776367,741.012878418,266,4,2,0,0,11,30,160
121,7218,323487,56,16,1537846430,844,1,17,3,32,ACQUIRING,MIXED,4,0.0307800341398,0.0038152479101,0.0580461844802,-0.0038152479101,-0.0580461844802,0.0153900170699,0.0,-0.0153900170699,-0.0,0,SEPARATION,LHC.BPM.1L5.B1_D,-3100.69287109,-1429.59020996,1191.56640625,583.90032959,LHC.BPM.1R5.B1_D,3638.60961914,-1915.75024414,1393.81884766,817.777832031,LHC.BPM.1L5.B2_D,4093.59082031,-1556.84277344,1618.65222168,597.114929199,LHC.BPM.1R5.B2_D,-3786.36303711,-1969.84313965,1531.86682129,816.423339844,266,4,2,0,0,11,30,160
122,7218,323487,56,20,1537846432,257,1,17,3,32,ACQUIRING,MIXED,2,0.0307800341398,0.0038152479101,0.0580461844802,-0.0038152479101,-0.0580461844802,0.0153900170699,0.0,-0.0153900170699,-0.0,0,SEPARATION,LHC.BPM.1L5.B1_D,-3102.51098633,-1429.96716309,1192.55065918,584.414978027,LHC.BPM.1R5.B1_D,3640.50048828,-1915.34375,1394.9041748,817.297546387,LHC.BPM.1L5.B2_D,4093.88549805,-1556.32971191,1618.86877441,596.863830566,LHC.BPM.1R5.B2_D,-3786.67651367,-1970.37329102,1532.13146973,816.713867188,266,4,2,0,0,11,30,160
123,7218,323487,56,24,1537846433,771,1,17,3,32,ACQUIRING,MIXED,1,0.0307800341398,0.0038152479101,0.0580461844802,-0.0038152479101,-0.0580461844802,0.0153900170699,0.0,-0.0153900170699,-0.0,0,SEPARATION,LHC.BPM.1L5.B1_D,-3102.3293457,-1429.95117188,1256.0246582,544.572814941,LHC.BPM.1R5.B1_D,3640.45166016,-1915.34240723,1481.65087891,696.525390625,LHC.BPM.1L5.B2_D,4094.24438477,-1556.13208008,1627.32727051,637.436157227,LHC.BPM.1R5.B2_D,-3786.98535156,-1970.38439941,1456.44335938,741.159667969,266,4,2,0,0,11,30,160
