WARNING:root:
	27 Aug 2018 16:37:38

	Timestamps 1530361003 and 1530361031 removed due to scan under 30 seconds
WARNING:root:
	27 Aug 2018 16:37:38

	Removed last step of scan beginning at 1530361092 because it is flattop
WARNING:root:
	27 Aug 2018 16:37:38

	Timestamps 1530362176 and 1530362203 removed due to scan under 30 seconds
WARNING:root:
	27 Aug 2018 16:37:38

	Timestamps 1530362492 and 1530362521 removed due to scan under 30 seconds
WARNING:root:
	27 Aug 2018 16:37:38

	Removed last step of scan beginning at 1530362587 because it is flattop
WARNING:root:
	27 Aug 2018 16:37:38

	Timestamps 1530363675 and 1530363704 removed due to scan under 30 seconds
ERROR:root:
	180827165059
Couldnt post PLT0
Traceback (most recent call last):
  File "AutoAnalysis.py", line 218, in Analyse
    '/results/'+ _corr + '/' + fit + '_FitResults.pkl') as fr:
IOError: [Errno 2] No such file or directory: u'Automation/Analysed_Data/6868_30Jun18_141812_30Jun18_144307/PLT0/results/BeamBeam_Background/DG_FitResults.pkl'

