WARNING:root:
	30 Nov 2018 16:50:30

	Removed last step of scan beginning at 1530358114 because it is flattop
WARNING:root:
	30 Nov 2018 16:50:30

	Removed last step of scan beginning at 1530359555 because it is flattop
