ERROR:root:
	181101032944
ERROR:root:
	181101032945
Couldnt post PCC
Traceback (most recent call last):
  File "AutoAnalysis.py", line 233, in Analyse
    '/results/'+ _corr + '/' + fit + '_FitResults.pkl') as fr:
IOError: [Errno 2] No such file or directory: u'Automation/Analysed_Data/6868_30Jun18_130108_30Jun18_130537/PCC/results/BeamBeam_DynamicBeta/DGConst_FitResults.pkl'

ERROR:root:
	181101032945
Couldnt post VTX
Traceback (most recent call last):
  File "AutoAnalysis.py", line 233, in Analyse
    '/results/'+ _corr + '/' + fit + '_FitResults.pkl') as fr:
IOError: [Errno 2] No such file or directory: u'Automation/Analysed_Data/6868_30Jun18_130108_30Jun18_130537/VTX/results/BeamBeam_DynamicBeta/DGConst_FitResults.pkl'

