WARNING:root:
	17 Dec 2018 11:52:08

	Removed last step of scan beginning at 1530358114 because it is flattop
WARNING:root:
	17 Dec 2018 11:52:08

	Removed last step of scan beginning at 1530359555 because it is flattop
