ERROR:root:
	181203180031
ERROR:root:
	181203180053
ERROR:root:
	181203180054
Couldnt post HFOC
Traceback (most recent call last):
  File "AutoAnalysis.py", line 257, in Analyse
    fit, angle, automation_folder=automation_folder, post=post)
  File "/scratch/yusufcan_VdM/VdmFramework/Automation/postvdm.py", line 48, in PostOutput
    json.dump(output, f)
  File "/nfshome0/lumipro/brilconda/lib/python2.7/json/__init__.py", line 190, in dump
    fp.write(chunk)
IOError: [Errno 28] No space left on device

