ERROR:root:
	181101023850
ERROR:root:
	181101023851
Couldnt post PCC
Traceback (most recent call last):
  File "AutoAnalysis.py", line 233, in Analyse
    '/results/'+ _corr + '/' + fit + '_FitResults.pkl') as fr:
IOError: [Errno 2] No such file or directory: u'Automation/Analysed_Data/6868_01Jul18_090516_01Jul18_091141/PCC/results/Background_BeamBeam_LengthScale/DGConst_FitResults.pkl'

ERROR:root:
	181101023851
Couldnt post VTX
Traceback (most recent call last):
  File "AutoAnalysis.py", line 233, in Analyse
    '/results/'+ _corr + '/' + fit + '_FitResults.pkl') as fr:
IOError: [Errno 2] No such file or directory: u'Automation/Analysed_Data/6868_01Jul18_090516_01Jul18_091141/VTX/results/Background_BeamBeam_LengthScale/DGConst_FitResults.pkl'

