WARNING:root:
	06 Aug 2018 15:15:25

	Timestamps 1530403906 and 1530403934 removed due to scan under 30 seconds
WARNING:root:
	06 Aug 2018 15:15:25

	Removed last step of scan beginning at 1530403995 because it is flattop
WARNING:root:
	06 Aug 2018 15:15:25

	Timestamps 1530405076 and 1530405105 removed due to scan under 30 seconds
WARNING:root:
	06 Aug 2018 15:15:25

	Timestamps 1530405184 and 1530405211 removed due to scan under 30 seconds
WARNING:root:
	06 Aug 2018 15:15:25

	Removed last step of scan beginning at 1530405277 because it is flattop
WARNING:root:
	06 Aug 2018 15:15:25

	Timestamps 1530406365 and 1530406393 removed due to scan under 30 seconds
