ERROR:root:
	181113035632
ERROR:root:
	181113040646
ERROR:root:
	181113040646
Couldnt post VTX
Traceback (most recent call last):
  File "AutoAnalysis.py", line 242, in Analyse
    '/results/'+ _corr + '/' + fit + '_FitResults.pkl') as fr:
IOError: [Errno 2] No such file or directory: u'Automation/Analysed_Data/6868_01Jul18_090516_01Jul18_091141/VTX/results/BeamBeam/DG_FitResults.pkl'

