WARNING:root:
	03 Dec 2018 16:43:15

	Removed last step of scan beginning at 1530358114 because it is flattop
WARNING:root:
	03 Dec 2018 16:43:15

	Removed last step of scan beginning at 1530359555 because it is flattop
