WARNING:root:
	09 Dec 2018 23:07:46

	Removed last step of scan beginning at 1530409906 because it is flattop
WARNING:root:
	09 Dec 2018 23:07:46

	Removed last step of scan beginning at 1530411064 because it is flattop
