ERROR:root:
	181022152820
ERROR:root:
	181022153919
ERROR:root:
	181022153919
Couldnt post VTX
Traceback (most recent call last):
  File "AutoAnalysis.py", line 232, in Analyse
    '/results/'+ _corr + '/' + fit + '_FitResults.pkl') as fr:
IOError: [Errno 2] No such file or directory: u'Automation/Analysed_Data/6868_30Jun18_115527_30Jun18_115956/VTX/results/BeamBeam/DG_FitResults.pkl'

