WARNING:root:
	02 Nov 2018 20:11:18

	Timestamps 1530403906 and 1530403934 removed due to scan under 30 seconds
WARNING:root:
	02 Nov 2018 20:11:18

	Removed last step of scan beginning at 1530403995 because it is flattop
WARNING:root:
	02 Nov 2018 20:11:18

	Timestamps 1530405076 and 1530405105 removed due to scan under 30 seconds
WARNING:root:
	02 Nov 2018 20:11:18

	Timestamps 1530405184 and 1530405211 removed due to scan under 30 seconds
WARNING:root:
	02 Nov 2018 20:11:18

	Removed last step of scan beginning at 1530405277 because it is flattop
WARNING:root:
	02 Nov 2018 20:11:18

	Timestamps 1530406365 and 1530406393 removed due to scan under 30 seconds
ERROR:root:
	181102204204
ERROR:root:
	181102204205
Couldnt post PCC
Traceback (most recent call last):
  File "AutoAnalysis.py", line 233, in Analyse
    '/results/'+ _corr + '/' + fit + '_FitResults.pkl') as fr:
IOError: [Errno 2] No such file or directory: u'Automation/Analysed_Data/6868_01Jul18_021315_01Jul18_023437/PCC/results/Background_BeamBeam_DynamicBeta_LengthScale/DGConst_FitResults.pkl'

ERROR:root:
	181102204205
Couldnt post VTX
Traceback (most recent call last):
  File "AutoAnalysis.py", line 233, in Analyse
    '/results/'+ _corr + '/' + fit + '_FitResults.pkl') as fr:
IOError: [Errno 2] No such file or directory: u'Automation/Analysed_Data/6868_01Jul18_021315_01Jul18_023437/VTX/results/Background_BeamBeam_DynamicBeta_LengthScale/DGConst_FitResults.pkl'

