WARNING:root:
	17 Dec 2018 11:47:30

	Removed last step of scan beginning at 1530409906 because it is flattop
WARNING:root:
	17 Dec 2018 11:47:30

	Removed last step of scan beginning at 1530411064 because it is flattop
ERROR:root:
	181217114804
