WARNING:root:
	18 Oct 2018 11:51:40

	Removed last step of scan beginning at 1530358114 because it is flattop
WARNING:root:
	18 Oct 2018 11:51:40

	Removed last step of scan beginning at 1530359555 because it is flattop
