{
"Names": ["emX1_Y1", "emX2_Y2", "X1", "Y1", "X2", "Y2", "BIX1", "BIY1", "emX3_Y3", "BIX3", "BIY3", "BIX4", "BIY4", "X3", "Y3", "X4", "Y4", "X5", "Y5", "LX1", "LY1", "NBIY1", "NBIX1", "NBIY2", "NBIX2", "X6", "Y6", "emX4_Y4", "emX5_Y5"],
"TimeWindows": [[1530352426, 1530352890, 1530353062],[1530356402, 1530357030, 1530357030],[1530358019, 1530358592, 1530359166],[1530359455, 1530360036, 1530360613],[1530360929, 1530362219, 1530362219],[1530362430, 1530363710, 1530363710],[1530364119, 1530364781, 1530365496],[1530365537, 1530366201, 1530366876],[1530396773, 1530397181, 1530397339],[1530397612, 1530398276, 1530398936],[1530399093, 1530399771, 1530400444],[1530400725, 1530401392, 1530402053],[1530402280, 1530402942, 1530403574],[1530403836, 1530405109, 1530405109],[1530405132, 1530406404, 1530406404],[1530406743, 1530407316, 1530407906],[1530408306, 1530408878, 1530409454],[1530409814, 1530410386, 1530410965],[1530410984, 1530411541, 1530412116],[1530413241, 1530414586, 1530414586],[1530414623, 1530415917, 1530415917],[1530417386, 1530418013, 1530418644],[1530418840, 1530419484, 1530420165],[1530420534, 1530421182, 1530421822],[1530422116, 1530422729, 1530423332],[1530424196, 1530425369, 1530425369],[1530425398, 1530425972, 1530426569],[1530427771, 1530428062, 1530428381],[1530428626, 1530429239, 1530429485]],
"OrbitDrifts_X": [[-1.265, 1.35, 0.94],[-0.167647, -2.90789, -2.90789],[-8.47941, -9.91875, -10.7867],[-0.943478, -0.322727, -1.22222],[1.275, 2.05556, 2.05556],[-1.12727, 0.217647, 0.217647],[-0.35, -2.61667, -5.27222],[-5.42778, -8.9, -12.515],[-0.1375, 3.86667, 0.458333],[0.655556, 1.14091, 3.34706],[4.13571, 5.11364, 0.46],[-0.996429, -2.39375, -9.44545],[-0.35, -1.25, 1.45],[0.695833, 3.3881, 3.3881],[3.35714, 8.82857, 8.82857],[0.672222, -9.17308, 0.930357],[2.01471, 3.3, 6.09444],[0.92, -0.297222, 5.74091],[5.86, 6.38, 5.25625],[0.316, -1.25962, -1.25962],[-1.13, -9.94375, -9.94375],[-0.933929, -5.56538, -7.98077],[1.0875, 0.53125, 0.635294],[-0.00333333, 1.515, 5.29118],[0.756667, -1.69286, -3.00833],[-0.175, 3.632, 3.632],[4.9475, 3.65, 6.7725],[-0.79, -0.633333, 0.25625],[2.025, 1.23333, -1.44773]],
"OrbitDrifts_Y": [[-1.28, -2.3, 0.41],[-0.141176, -0.578947, -0.578947],[-1.93235, -1.69375, -0.73],[-0.0391304, -1.84545, -0.727778],[0.357143, 1.16111, 1.16111],[0.481818, -0.705882, -0.705882],[-0.0541667, -1.41667, -1.58889],[-1.56667, -3.87778, -4.0525],[0.0875, 0.133333, 1.73333],[2.06944, 2.21364, 2.22647],[2.15714, 1.36818, 0.983333],[0.253571, -0.55, -2.16818],[0.0375, 0.413333, -1.01667],[0.0416667, 0.207143, 0.207143],[0.175, 0.928571, 0.928571],[-0.972222, -3.14615, -1.73214],[-1.02353, -1.99167, 0.0666667],[-9.09495e-14, -0.988889, -0.845455],[-0.9, -3.74, -0.8625],[0.186, -0.0269231, -0.0269231],[-0.17, -1.71875, -1.71875],[-0.0392857, -0.707692, -0.946154],[0.15, 0.6875, 0.652941],[0.176667, 0.355, 1.05588],[0.343333, -0.796429, 0.075],[0.675, -0.102, -0.102],[0.2175, -1.1625, 1.37625],[-0.27, -0.283333, 1.25],[1.22143, -0.683333, 0.513636]]
}
