{
"Fill" : "6868",
"AnalysisDir" : "Automation/Analysed_Data/6868_01Jul18_030039_01Jul18_032641",
"Luminometer": "VTX",
"Corr" : ["Background"],
"Comment": "Input fit results file in <AnalysisDir>/<Luminometer>/results/<Corr>", 
"InputFitResultsFile" : "SG_FitResults.pkl",
"FitName": "SG"
}