{
"Fill" : "6868",
"AnalysisDir" : "Automation/Analysed_Data/6868_01Jul18_090516_01Jul18_091141",
"Luminometer": "HFOC",
"Corr" : ["Background", "OrbitDrift", "BeamBeam", "DynamicBeta"],
"Comment": "Input fit results file in <AnalysisDir>/<Luminometer>/results/<Corr>", 
"InputFitResultsFile" : "SG_FitResults.pkl",
"FitName": "SG"
}