{
"Fill" : "6868",
"AnalysisDir" : "Automation/Analysed_Data/6868_01Jul18_075134_01Jul18_081132",
"Luminometer": "BCM1FPCVD",
"Corr" : ["Background", "OrbitDrift", "BeamBeam"],
"Comment": "Input fit results file in <AnalysisDir>/<Luminometer>/results/<Corr>", 
"InputFitResultsFile" : "SG_FitResults.pkl",
"FitName": "SG"
}