{
"Fill": "6868",
"Date": "01Jul2018",
"Luminometer": "HFET",
"AnalysisDir": "Automation/Analysed_Data/6868_01Jul18_002854_01Jul18_005345",
"CorrLater" : ["noCorr", "LengthScale", "Ghosts", "Satellites", "BeamBeam", "DynamicBeta","Background"],
"Corr" : ["Background", "OrbitDrift", "BeamBeam", "DynamicBeta", "LengthScale"],
"Comment": "Output of following step goes to <AnalysisDir>/cond", 
"makeScanFile": false,
"Comment": "Output of following step goes to <AnalysisDir>/LuminometerData",
"makeRateFile": false,
"Comment": "Output of following step goes to <AnalysisDir>/cond", 
"makeBeamCurrentFile": false,
"Comment": "Output of following step goes to <AnalysisDir>/corr",
"makeBeamBeamFile": true,
"Comment": "Output of following step goes to <AnalysisDir>/corr",
"makeDynamicBetaFile": true,
"Comment": "Output of following step goes to <AnalysisDir>/corr",
"makeGhostsFile": false,
"Comment": "Output of following step goes to <AnalysisDir>/corr",
"makeSatellitesFile": false,
"Comment": "Output of following step goes to <AnalysisDir>/corr", 
"makeLengthScaleFile": true,
"Comment": "Output of following step goes to <AnalysisDir>/corr",
"makeOrbitDriftFile": true,
"Comment": "Output of following step goes to <AnalysisDir>/corr", 
"makeBackgroundFile": true,
"Comment": "Output of following step goes to <AnalysisDir>/<Luminometer>/graphs",
"makeGraphsFile": true,
"Comment": "Output of following step goes to <AnalysisDir>/<Luminometer>/graphs",
"makeGraphs2D": false,
"Comment": "Output of following step goes to <AnalysisDir>/<Luminometer>/results/<Corr>", 
"runVdmFitter": true,
"Comment": "Output of following step goes to <AnalysisDir>/<Luminometer>/results/<Corr>", 
"calculateCalibrationConstant": true,
"MakePDF": true,
"MakeLogs": false,
"makeScanFileConfig":
    {
    "InputCentralPath": "/brildata/vdmdata18/6868_1806302221_1806302317.hd5",		
    "InputDIPFile" : "Automation/dipfiles/dip_6868_01Jul18_002645_01Jul18_011155.csv",
        "ScanNames" : ["X1", "Y1"],
        "Comment" : "Since X,Y scans are automatically differentiated, a time window can include an X and a Y scan, will still work, timestamp in UTC", 
        "ScanTimeWindows" : [[1530397734, 1530398808], [1530399225, 1530400315]],
    "Comment" : "A few parameters that are not in our current DIP file, but should be available eventually",
    "Comment" : "betaStar in m, angle in microrad",
    "BetaStar" : 19.17,
    "Angle" : 0,
    "Offset" : [0.0, 0.0],
    "ParticleTypeB1" : "proton",
    "ParticleTypeB2" : "proton",
    "Comment": "Beam energies in GeV", 
    "EnergyB1" : 6499,
    "EnergyB2" : 6499,
    "OutputSubDir" : "cond",
    "MuScan":false
    },
"makeRateFileConfig":
    {	
    "Comment": "The following directories are relative to <AnalysisDir>",
    "InputScanFile": "cond/Scan_6868.json",
    "InputLumiDir" : "/brildata/vdmdata18/6868_1806302221_1806302317.hd5",
    "RateTable": "hfetlumi",
    "OutputSubDir": "LuminometerData",
    "Comment": "The following items are for PCC and VTX rate files",
    "InputPCCFiles_vdm": ["/scratch/yusufcan_VdM/VdmFramework/merged_ZB1.root"],
    "InputPCCFiles_muscan": ["/scratch/yusufcan_VdM/VdmFramework/merged_7320.root"],
    "PCCTreeName": "pccminitree",
    "PCC_BCID_vdm":[265,865,1780,2192,3380],
    "PCC_BCID_muscan_7358":[750,751,752,753,754,755,756,757,758,759,760,761,1644,1645,1646,1647,1648,1649,1650,1651,1652,1653,1654,1655],
    "PCC_BCID_muscan":[574, 575, 576, 577, 578, 579, 580, 581, 582, 583, 584, 585, 586, 587, 588, 589, 590, 591, 592, 593, 594, 595, 596, 597, 598, 599, 600, 601, 602, 603, 604, 605, 606, 607, 608, 609, 610, 611, 612, 613, 614, 615, 616, 617, 618, 619, 620, 621],
    "addScanInfo": true
    },
"makeBeamCurrentFileConfig":
    {
    "InputCentralPath": "/brildata/vdmdata18/6868_1806302221_1806302317.hd5",	
    "Comment": "Input scan file in <AnalysisDir>/<InputScanFile>",
    "InputScanFile" : "cond/Scan_6868.json",
    "OutputSubDir" : "cond",
    "CalibrateFBCTtoDCCT" : true
    },
"makeBeamBeamFileConfig":
    {
    "Comment": "Input scan info file is <AnalysisDir>/<InputScanFile>",
    "InputScanFile" : "cond/Scan_6868.json",
    "Comment": "Input beam currents file is <AnalysisDir>/<InputBeamCurrentFile>",
    "InputBeamCurrentFile" : "cond/BeamCurrents_6868.json",
    "Comment": "Input luminometer data in <AnalysisDir>/<InputLuminometerData>",
    "InputLuminometerData" : "LuminometerData/Rates_HFET_6868.json",
    "Comment": "Input CapSigmas in <AnalysisDir>/<Luminometer>/results",
    "InputCapSigmaFile" : "Background_OrbitDrift/SG_FitResults.pkl",
    "Scanpairs" : [[1, 2]],
    "Comment": "This is relative to <AnalysisDir>",
    "OutputSubDir": "corr"
    },
"makeDynamicBetaFileConfig":
    {
    "Comment": "Input scan info file is <AnalysisDir>/<InputScanFile>",
    "InputScanFile" : "cond/Scan_6868.json",
    "Comment": "Input beam currents file is <AnalysisDir>/<InputBeamCurrentFile>",
    "InputBeamCurrentFile" : "cond/BeamCurrents_6868.json",
    "Comment": "Input luminometer data in <AnalysisDir>/<InputLuminometerData>",
    "InputLuminometerData" : "LuminometerData/Rates_HFET_6868.json",
    "Comment": "Input CapSigmas in <AnalysisDir>/<Luminometer>/results",
    "InputCapSigmaFile" : "Background_OrbitDrift/SG_FitResults.pkl",
    "Comment": "Input BeamBeam in <AnalysisDir>/corr",
    "InputBeamBeamFile" : "corr/BeamBeam_HFET_6868.json",
    "Scanpairs" : [[1, 2]],
    "Comment": "This is relative to <AnalysisDir>",
    "OutputSubDir": "corr"
    },
"makeGhostsFileConfig":
    {
    "Comment" : "Where to find the correction factors in json format",
    "InputDataDir" : "dataPrep_corr/corrData",
    "Comment": "This is relative to <AnalysisDir>",
    "OutputSubDir": "corr"
    },
"makeSatellitesFileConfig":
    {
    "Comment" : "Where to find the correction factors in json format",
    "InputDataDir" : "dataPrep_corr/corrData",
    "Comment": "This is relative to <AnalysisDir>",
    "OutputSubDir": "corr"
    },
"makeLengthScaleFileConfig":
    {
    "Comment": "Length scale scan fill",
    "FillLS": "6868",	
    "Comment" : "Where to find the correction factors in json format",
    "InputDataDir" : "dataPrep_corr/corrData",
    "Comment": "This is relative to <AnalysisDir>",
    "OutputSubDir": "corr"
    },
"makeOrbitDriftFileConfig":
    {
    "Comment" : "Where to find the correction factors in json format",
    "InputDataDir" : "dataPrep_corr/corrData",
    "Comment" : "Type of the orbit drifts file (DOROS / arcBPM / arcBPM_m_DOROS / arcBPM_DOROS_ave)",
    "OrbitDriftType" : "arcBPM_DOROS_ave",
    "Comment": "This is relative to <AnalysisDir>",
    "OutputSubDir": "corr"
    },
"makeGraphsFileConfig":
    {
    "Comment": "Input scan file in <AnalysisDir>/<InputScanFile>",
    "InputScanFile" : "cond/Scan_6868.json",
    "Comment": "Input beam currents file in <AnalysisDir>/<InputBeamCurrentFile>",
    "InputBeamCurrentFile" : "cond/BeamCurrents_6868.json",
    "Comment": "Input luminometer data in <AnalysisDir>/<InputLuminometerData>",
    "InputLuminometerData" : "LuminometerData/Rates_HFET_6868.json",
    "OutputSubDir" : "graphs",
    "MakePDF": true
    },
"makeGraphs2DConfig":
    {
    "Comment": "Defines each X/Y pair for which to make 2D graphs", 
    "Scanpairs" : [[1, 2]],
    "Comment": "Input/output directory is <AnalysisDir>/<Luminometer>/graphs",
    "InOutSubDir": "graphs"
    },
"vdmFitterConfig":
     {
     "Comment": "Input graphs file in <AnalysisDir>/<Luminometer>/graphs", 
     "InputGraphsFile" : "graphs/graphs_6868_Background_OrbitDrift_BeamBeam_DynamicBeta_LengthScale.json",
     "FitName" : "SG",
     "FitConfigFile" : "fits/SG_Config.json",
     "ScanNames" : ["X1", "Y1"],
     "MinuitFile" : "SG_Background_OrbitDrift_BeamBeam_DynamicBeta_LengthScale_Minuit"
     },
"calculateCalibrationConstantConfig":
    {
    "Fill" : "6868",
    "AnalysisDir" : "Automation/Analysed_Data/6868_01Jul18_002854_01Jul18_005345",
    "Luminometer": "HFET",
    "Corr" : ["Background", "OrbitDrift", "BeamBeam", "DynamicBeta", "LengthScale"],
    "Comment": "Input fit results file in <AnalysisDir>/<Luminometer>/results/<Corr>", 
    "InputFitResultsFile" : "SG_FitResults.pkl",
    "LuminometerSettings":
        {
        "LuminometerName": "HFET",
        "Comment": "defaults to settings in luminometer.py", 
        "Comment": "needs to be set for non-default settings or for new luminometer",
        "LuminometerDescription": "default",
        "WhatIsMeasured": "default",
        "NormalizationGraphs": "default",
        "OldNormAvailable": "false"
        },
    "Comment": "Total inelastic cross section in microbarn, for pp at 8TeV",
    "Total_inel_Xsec": 72700, 
    "Comment": "Use negative number to make clear that no old normalization is available",
    "Comment": "For low energy pp: 10.2; for pp at 8TeV, as determined in April 2012 scan: 6.36",
    "Comment": "For pPb, as determined in Sep 2012 pilot run, taking into account that Pb ion is stripped of all its 82 electrons: 6.36/115.8*82", 
    "OldNormalization": 10.2, 
    "FormulaToUse": "1D-Gaussian-like",
    "Scanpairs" : [[1, 2]]
    },
"makeBackgroundFileConfig":
    {
    "RateTable": "hfetlumi",
    "Filename":"/brildata/vdmdata18/6868_1806302221_1806302317.hd5",
    "Filename2":"None",
    "FixedBackground":"True",
    "SuperSeparation":
	{
	"pltlumizero":[3.3e-06, 9.0e-07], 
	"hfoclumi":[3.0e-05, 3.0e-06], 
	"bcm1fsilumi":[3.0e-06, 8.0e-07], 
	"bcm1fpcvdlumi":[5.0e-06, 1.0e-06], 
	"pcclumi":[0.169, 0.003]
	}
    }
}
