{
"Fill" : "6868",
"AnalysisDir" : "Automation/Analysed_Data/6868_01Jul18_002854_01Jul18_005345",
"Luminometer": "PLT",
"Corr" : ["Background", "BeamBeam", "OrbitDrift"],
"Comment": "Input fit results file in <AnalysisDir>/<Luminometer>/results/<Corr>", 
"InputFitResultsFile" : "SG_FitResults.pkl",
"FitName": "SG"
}