{
"Fill" : "6868",
"AnalysisDir" : "Automation/Analysed_Data/6868_30Jun18_115527_30Jun18_115956",
"Luminometer": "PLT",
"Corr" : ["Background", "OrbitDrift", "BeamBeam", "DynamicBeta", "LengthScale"],
"Comment": "Input fit results file in <AnalysisDir>/<Luminometer>/results/<Corr>", 
"InputFitResultsFile" : "SG_FitResults.pkl",
"FitName": "SG"
}