{
"Fill" : "6868",
"AnalysisDir" : "Automation/Analysed_Data/6868_30Jun18_132834_30Jun18_135235",
"Luminometer": "VTX",
"Corr" : ["Background"],
"Comment": "Input fit results file in <AnalysisDir>/<Luminometer>/results/<Corr>", 
"InputFitResultsFile" : "SG_FitResults.pkl",
"FitName": "SG"
}